{"event":"details","time":1490598449,"u":"15","run":"11.55","mem":"40.54","data":"BackupBuddy v7.2.2.6 using WordPress v4.7.3 on Linux."}
{"event":"details","time":1490598449,"u":"27","run":"11.67","mem":"40.55","data":"Calculated archive file: `\/home\/loanssco\/public_html\/wp-content\/uploads\/backupbuddy_backups\/backup-loanss_com_au-2017_03_27-07_07am-full-j43fuvajbs.zip`."}
{"event":"startFunction","time":1490598449,"u":"27","run":"11.67","mem":"40.56","data":"{\"function\":\"pre_backup\",\"title\":\"Getting ready to backup\"}"}
{"event":"details","time":1490598449,"u":"27","run":"11.67","mem":"40.56","data":"Performing pre-backup procedures."}
{"event":"message","time":1490598449,"u":"27","run":"11.67","mem":"40.56","data":"Full backup mode."}
{"event":"details","time":1490598449,"u":"27","run":"11.67","mem":"40.56","data":"Flushing will not be skipped (default)."}
{"event":"details","time":1490598449,"u":"27","run":"11.67","mem":"40.57","data":"Verifying directories ..."}
{"event":"details","time":1490598449,"u":"27","run":"11.67","mem":"40.57","data":"Temporary directory invalid. Updating from `\/home\/loanssco\/public_html\/wp-content\/uploads\/backupbuddy_temp\/` to default."}
{"event":"details","time":1490598449,"u":"28","run":"11.68","mem":"40.58","data":"Directories verified."}
{"event":"details","time":1490598449,"u":"28","run":"11.68","mem":"40.58","data":"Backup serial generated: `j43fuvajbs`."}
{"event":"details","time":1490598449,"u":"28","run":"11.68","mem":"40.58","data":"About to load fileoptions data in create mode."}
{"event":"details","time":1490598449,"u":"28","run":"11.68","mem":"40.58","data":"Fileoptions instance #40."}
{"event":"details","time":1490598449,"u":"28","run":"11.68","mem":"40.59","data":"Created fileoptions lock file `j43fuvajbs.txt.lock` with ID: 58d81f81454f74.54659020."}
{"event":"details","time":1490598449,"u":"28","run":"11.68","mem":"40.59","data":"Fileoptions load using 0 MB of memory."}
{"event":"details","time":1490598449,"u":"28","run":"11.68","mem":"40.59","data":"Fileoptions data loaded."}
{"event":"details","time":1490598449,"u":"28","run":"11.68","mem":"40.59","data":"Updating statistics for last backup start."}
{"event":"details","time":1490598449,"u":"28","run":"11.69","mem":"40.61","data":"Active WordPress plugins (9): `alcapiform\/alcapiform.php; backupbuddy\/backupbuddy.php; better-wp-security\/better-wp-security.php; contact-form-7\/wp-contact-form-7.php; impreza_js_composer\/impreza_js_composer.php; w3-total-cache\/w3-total-cache.php; wordpress-importer\/wordpress-importer.php; wordpress-seo\/wp-seo.php; wp-sitemap-page\/wp-sitemap-page.php`."}
{"event":"startSubFunction","time":1490598449,"u":"29","run":"11.69","mem":"40.61","data":"{\"function\":\"wp_plugins_found\",\"title\":\"Found 9 active WordPress plugins.\"}"}
{"event":"details","time":1490598449,"u":"29","run":"11.69","mem":"40.61","data":"Initially calculated relative backup storage directory: `\/wp-content\/uploads\/backupbuddy_backups\/."}
{"event":"details","time":1490598449,"u":"29","run":"11.69","mem":"40.62","data":"Initial directory exclusions (after filter): `\/.sucuriquarantine\/; \/wp-content\/uploads\/sucuri\/; \/wp-content\/envato-backups\/; \/wp-content\/uploads\/backwpup; \/wp-content\/backup-db\/; \/wp-snapshots\/; \/wp-content\/ai1wm-backups\/; \/wp-content\/plugins\/wordfence\/tmp\/; \/wp-content\/cache\/supercache\/; \/error_log; \/wp-content\/uploads\/backupbuddy_backups\/; \/wp-content\/uploads\/pb_backupbuddy\/; \/importbuddy\/; \/importbuddy.php`."}
{"event":"startSubFunction","time":1490598449,"u":"29","run":"11.69","mem":"40.63","data":"{\"function\":\"file_excludes\",\"title\":\"Found 14 file or directory exclusions.\"}"}
{"event":"details","time":1490598449,"u":"29","run":"11.69","mem":"40.63","data":"Temp directory: `\/home\/loanssco\/public_html\/wp-content\/uploads\/backupbuddy_temp\/j43fuvajbs\/`."}
{"event":"details","time":1490598449,"u":"29","run":"11.69","mem":"40.63","data":"Backup root: `\/home\/loanssco\/public_html\/`."}
{"event":"details","time":1490598449,"u":"29","run":"11.69","mem":"40.63","data":"wp-config.php found in normal location."}
{"event":"details","time":1490598449,"u":"29","run":"11.69","mem":"40.64","data":"Calculating mysql database tables to backup."}
{"event":"details","time":1490598449,"u":"29","run":"11.69","mem":"40.64","data":"Base database dump mode (before inclusions\/exclusions): `prefix`."}
{"event":"details","time":1490598449,"u":"29","run":"11.69","mem":"40.64","data":"Determining database tables with prefix `ycaawd_`."}
{"event":"startAction","time":1490598449,"u":"29","run":"11.69","mem":"40.64","data":"schemaTables"}
{"event":"finishAction","time":1490598449,"u":"29","run":"11.70","mem":"40.65","data":"schemaTables"}
{"event":"details","time":1490598449,"u":"30","run":"11.70","mem":"40.64","data":"Base database tables based on settings (15 tables): `ycaawd_commentmeta,ycaawd_comments,ycaawd_itsec_lockouts,ycaawd_itsec_log,ycaawd_itsec_temp,ycaawd_links,ycaawd_options,ycaawd_postmeta,ycaawd_posts,ycaawd_term_relationships,ycaawd_term_taxonomy,ycaawd_termmeta,ycaawd_terms,ycaawd_usermeta,ycaawd_users`"}
{"event":"details","time":1490598449,"u":"30","run":"11.70","mem":"40.65","data":"Database tables after addition (15 tables): `ycaawd_commentmeta,ycaawd_comments,ycaawd_itsec_lockouts,ycaawd_itsec_log,ycaawd_itsec_temp,ycaawd_links,ycaawd_options,ycaawd_postmeta,ycaawd_posts,ycaawd_term_relationships,ycaawd_term_taxonomy,ycaawd_termmeta,ycaawd_terms,ycaawd_usermeta,ycaawd_users`"}
{"event":"details","time":1490598449,"u":"30","run":"11.70","mem":"40.65","data":"Database tables after exclusion (15 tables): `ycaawd_commentmeta,ycaawd_comments,ycaawd_itsec_lockouts,ycaawd_itsec_log,ycaawd_itsec_temp,ycaawd_links,ycaawd_options,ycaawd_postmeta,ycaawd_posts,ycaawd_term_relationships,ycaawd_term_taxonomy,ycaawd_termmeta,ycaawd_terms,ycaawd_usermeta,ycaawd_users`"}
{"event":"startSubFunction","time":1490598449,"u":"30","run":"11.70","mem":"40.65","data":"{\"function\":\"calculate_tables\",\"title\":\"Found 15 tables to backup based on settings.\",\"more\":\"Tables: ycaawd_commentmeta, ycaawd_comments, ycaawd_itsec_lockouts, ycaawd_itsec_log, ycaawd_itsec_temp, ycaawd_links, ycaawd_options, ycaawd_postmeta, ycaawd_posts, ycaawd_term_relationships, ycaawd_term_taxonomy, ycaawd_termmeta, ycaawd_terms, ycaawd_usermeta, ycaawd_users\"}"}
{"event":"details","time":1490598449,"u":"40","run":"11.80","mem":"40.70","data":"Total calculated database size: `6.61 MB`."}
{"event":"details","time":1490598449,"u":"40","run":"11.80","mem":"40.70","data":"Breaking out tables ENABLED based on settings. Tables to be broken out into individual steps: `ycaawd_posts, ycaawd_postmeta`."}
{"event":"details","time":1490598449,"u":"40","run":"11.80","mem":"40.71","data":"Integrity check will be performed based on settings for this profile."}
{"event":"details","time":1490598449,"u":"40","run":"11.80","mem":"40.73","data":"Fileoptions `j43fuvajbs.txt` saved. 6432 bytes written."}
{"event":"details","time":1490598449,"u":"40","run":"11.81","mem":"40.73","data":"Creating DAT (data) file snapshotting site & backup information."}
{"event":"details","time":1490598449,"u":"40","run":"11.81","mem":"40.73","data":"wp-config.php found in normal location."}
{"event":"startSubFunction","time":1490598449,"u":"41","run":"11.81","mem":"40.70","data":"{\"function\":\"post_count\",\"title\":\"Found 23 posts, 19 pages, and 15 comments.\"}"}
{"event":"startSubFunction","time":1490598449,"u":"41","run":"11.81","mem":"40.70","data":"{\"function\":\"post_count\",\"title\":\"Found 3 user accounts.\"}"}
{"event":"details","time":1490598449,"u":"41","run":"11.81","mem":"40.73","data":"DAT file contents (sans database user\/pass): Array; (;     [backupbuddy_version] => 7.2.2.6;     [wordpress_version] => 4.7.3;     [backup_time] => 1490558849;     [backup_type] => full;     [profile] => Array;         (;             [type] => full;             [title] => Complete Backup;             [skip_database_dump] => 0;             [mysqldump_additional_includes] => ;             [mysqldump_additional_excludes] => ;             [backup_nonwp_tables] => 0;             [excludes] => ;             [integrity_check] => 1;             [profile_globaltables] => 1;             [profile_globalexcludes] => 1;             [backup_mode] => 1;         ); ;     [default_profile] => Array;         (;             [type] => defaults;             [title] => Global Defaults;             [skip_database_dump] => 0;             [mysqldump_additional_includes] => ;             [mysqldump_additional_excludes] => ;             [backup_nonwp_tables] => 0;             [excludes] => ;             [integrity_check] => 1;             [profile_globaltables] => 1;             [profile_globalexcludes] => 1;             [backup_mode] => -1;         ); ;     [serial] => j43fuvajbs;     [trigger] => scheduled;     [wp-config_in_parent] => ;     [deployment_direction] => ;     [abspath] => \/home\/loanssco\/public_html\/;     [siteurl] => http:\/\/loanss.com.au;     [homeurl] => http:\/\/loanss.com.au;     [blogname] => loanss.com.au;     [blogdescription] => loanss.com.au;     [active_plugins] => alcapiform\/alcapiform.php, backupbuddy\/backupbuddy.php, better-wp-security\/better-wp-security.php, contact-form-7\/wp-contact-form-7.php, impreza_js_composer\/impreza_js_composer.php, w3-total-cache\/w3-total-cache.php, wordpress-importer\/wordpress-importer.php, wordpress-seo\/wp-seo.php, wp-sitemap-page\/wp-sitemap-page.php;     [posts] => 23;     [pages] => 19;     [comments] => 15;     [users] => 3;     [wp_content_url] => http:\/\/loanss.com.au\/wp-content;     [wp_content_dir] => \/home\/loanssco\/public_html\/wp-content;     [db_charset] => utf8mb4;     [db_collate] => utf8mb4_unicode_ci;     [db_prefix] => ycaawd_;     [db_server] => localhost;     [db_name] => loanssco_a6H5x;     [db_user] => ;     [db_password] => ;     [db_exclusions] => ;     [db_inclusions] => ;     [db_version] => 5.5.5;     [breakout_tables] => Array;         (;             [0] => ycaawd_posts;             [1] => ycaawd_postmeta;         ); ;     [tables_sizes] => Array;         (;             [ycaawd_commentmeta] => 12480;             [ycaawd_comments] => 126672;             [ycaawd_itsec_lockouts] => 98304;             [ycaawd_itsec_log] => 3194880;             [ycaawd_itsec_temp] => 81920;             [ycaawd_links] => 3700;             [ycaawd_options] => 1597824;             [ycaawd_postmeta] => 370552;             [ycaawd_posts] => 1373628;             [ycaawd_term_relationships] => 14834;             [ycaawd_term_taxonomy] => 12760;             [ycaawd_termmeta] => 4096;             [ycaawd_terms] => 13908;             [ycaawd_usermeta] => 20476;             [ycaawd_users] => 5568;         ); ;     [force_single_db_file] => ;     [skip_database_dump] => 0;     [is_multisite] => ;     [is_multisite_export] => ;     [domain] => ;     [path] => ;     [upload_url] => ;     [upload_url_rewrite] => ; ); "}
{"event":"details","time":1490598449,"u":"41","run":"11.82","mem":"40.72","data":"Finished creating DAT (data) file."}
{"event":"details","time":1490598449,"u":"41","run":"11.82","mem":"40.72","data":"Generating ImportBuddy tool to include in backup archive: `\/home\/loanssco\/public_html\/wp-content\/uploads\/backupbuddy_temp\/j43fuvajbs\/importbuddy.php`."}
{"event":"startAction","time":1490598449,"u":"41","run":"11.82","mem":"40.72","data":"importbuddyCreation"}
{"event":"details","time":1490598449,"u":"42","run":"11.82","mem":"40.72","data":"Checking max PHP execution time settings."}
{"event":"details","time":1490598449,"u":"42","run":"11.82","mem":"40.73","data":"Skipped attempting to override max PHP execution time based on settings."}
{"event":"details","time":1490598449,"u":"42","run":"11.82","mem":"40.73","data":"Reported PHP execution time - Configured: 60; Original: 600; Current: 600"}
{"event":"details","time":1490598449,"u":"42","run":"11.82","mem":"40.73","data":"Attempted to set PHP memory limit to user defined WP_MAX_MEMORY_LIMIT (256M) or over-ridden value"}
{"event":"details","time":1490598449,"u":"42","run":"11.82","mem":"40.73","data":"Reported PHP memory limits - Configured: 128M; Original: 128M; Current: 128M"}
{"event":"warning","time":1490598449,"u":"42","run":"11.82","mem":"40.73","data":"Warning #9032 - You have not set an ImportBuddy password on the BackupBuddy Settings page. Once this password is set a copy of the importbuddy.php file needed to restore your backup will be included in Full backup zip files for convenience. It may manually be downloaded from the Restore \/ Migrate page."}
{"event":"finishAction","time":1490598449,"u":"42","run":"11.82","mem":"40.74","data":"importbuddyCreation"}
{"event":"details","time":1490598449,"u":"42","run":"11.82","mem":"40.74","data":"ImportBuddy generation complete."}
{"event":"details","time":1490598449,"u":"42","run":"11.83","mem":"40.75","data":"Deleting malware transient."}
{"event":"details","time":1490598449,"u":"43","run":"11.83","mem":"40.77","data":"Fileoptions `j43fuvajbs.txt` saved. 6600 bytes written."}
{"event":"details","time":1490598449,"u":"43","run":"11.84","mem":"40.76","data":"Finished pre-backup procedures."}
{"event":"milestone","time":1490598449,"u":"43","run":"11.84","mem":"40.76","data":"finish_settings"}
{"event":"finishFunction","time":1490598449,"u":"44","run":"11.84","mem":"40.76","data":"{\"function\":\"pre_backup\"}"}
{"event":"message","time":1490598449,"u":"44","run":"11.84","mem":"40.76","data":"Running in classic backup mode based on settings."}
{"event":"details","time":1490598449,"u":"44","run":"11.84","mem":"40.79","data":"Fileoptions `j43fuvajbs.txt` saved. 6640 bytes written."}
{"event":"details","time":1490598449,"u":"45","run":"11.85","mem":"40.78","data":"Found next step to run: `backup_create_database_dump`."}
{"event":"details","time":1490598449,"u":"45","run":"11.85","mem":"40.78","data":"Peak memory usage: 40.966 MB"}
{"event":"details","time":1490598449,"u":"45","run":"11.85","mem":"40.79","data":"-----"}
{"event":"details","time":1490598449,"u":"45","run":"11.85","mem":"40.79","data":"Starting step function `backup_create_database_dump`. Attempt #1."}
{"event":"startFunction","time":1490598449,"u":"45","run":"11.85","mem":"40.79","data":"{\"function\":\"backup_create_database_dump\",\"title\":\"Backing up database\"}"}
{"event":"milestone","time":1490598449,"u":"45","run":"11.85","mem":"40.79","data":"start_database"}
{"event":"message","time":1490598449,"u":"45","run":"11.86","mem":"40.80","data":"Starting database backup process."}
{"event":"details","time":1490598449,"u":"47","run":"11.87","mem":"41.04","data":"PHP-based mysqldump (if applicable) max rows per select set to 1000."}
{"event":"details","time":1490598449,"u":"53","run":"11.93","mem":"41.06","data":"Database host for dumping: `localhost`"}
{"event":"details","time":1490598449,"u":"53","run":"11.93","mem":"41.06","data":"Loading mysqlbuddy library."}
{"event":"details","time":1490598449,"u":"53","run":"11.93","mem":"41.06","data":"Mysql server default directories: `\/usr\/bin\/,\/usr\/bin\/mysql\/,\/usr\/local\/bin\/`"}
{"event":"details","time":1490598449,"u":"53","run":"11.93","mem":"41.06","data":"mysqlbuddy: Force method of `1` passed."}
{"event":"message","time":1490598449,"u":"53","run":"11.93","mem":"41.07","data":"mysqlbuddy: Settings overriding automatic detection of available database dump methods. Using forced override methods: `php`."}
{"event":"message","time":1490598449,"u":"53","run":"11.93","mem":"41.07","data":"mysqlbuddy: Detected database dump methods: `php`."}
{"event":"details","time":1490598449,"u":"53","run":"11.93","mem":"41.07","data":"Max execution time chunking disabled by passing -1 to constructor. No chunking will be used for the database dump."}
{"event":"details","time":1490598449,"u":"53","run":"11.93","mem":"41.07","data":"This server's mysql version: `5.5.5`."}
{"event":"milestone","time":1490598449,"u":"53","run":"11.93","mem":"41.07","data":"start_database"}
{"event":"message","time":1490598449,"u":"53","run":"11.93","mem":"41.08","data":"Starting database dump procedure."}
{"event":"details","time":1490598449,"u":"53","run":"11.93","mem":"41.08","data":"mysqlbuddy: Output directory: `\/home\/loanssco\/public_html\/wp-content\/uploads\/backupbuddy_temp\/j43fuvajbs\/`."}
{"event":"details","time":1490598449,"u":"53","run":"11.93","mem":"41.08","data":"Table dump count: `13`."}
{"event":"details","time":1490598449,"u":"53","run":"11.93","mem":"41.08","data":"Preparing to dump using available method(s) by priority. Methods: `php`"}
{"event":"details","time":1490598449,"u":"53","run":"11.94","mem":"41.08","data":"mysqlbuddy: Attempting dump method `php`."}
{"event":"details","time":1490598449,"u":"53","run":"11.94","mem":"41.09","data":"Loading DB kicker for use leter in case database goes away."}
{"event":"details","time":1490598449,"u":"54","run":"11.95","mem":"41.12","data":"Database kicker loaded. Database object class: `W3TC\\DbCache_Wpdb` with database of type `mysqli`."}
{"event":"details","time":1490598449,"u":"54","run":"11.95","mem":"41.12","data":"Dumping database table `ycaawd_commentmeta`. Max rows per select: 1000. Starting at row `0`."}
{"event":"startTableDump","time":1490598449,"u":"54","run":"11.95","mem":"41.12","data":"ycaawd_commentmeta"}
{"event":"details","time":1490598449,"u":"55","run":"11.95","mem":"41.12","data":"SQL dump file `\/home\/loanssco\/public_html\/wp-content\/uploads\/backupbuddy_temp\/j43fuvajbs\/ycaawd_commentmeta.sql`."}
{"event":"details","time":1490598449,"u":"55","run":"11.95","mem":"41.13","data":"Database max execution time chunking disabled based on -1 passed."}
{"event":"sqlFile","time":1490598449,"u":"55","run":"11.95","mem":"41.13","data":"ycaawd_commentmeta.sql"}
{"event":"details","time":1490598449,"u":"55","run":"11.95","mem":"41.13","data":"Got `0` rows from `ycaawd_commentmeta` of `1000` max."}
{"event":"details","time":1490598449,"u":"55","run":"11.95","mem":"41.15","data":"Dumped `0` rows total from `ycaawd_commentmeta`. No rows remain."}
{"event":"details","time":1490598449,"u":"55","run":"11.95","mem":"41.15","data":"Pinging mysqli."}
{"event":"details","time":1490598449,"u":"55","run":"11.95","mem":"41.15","data":"Database Server connection status verified."}
{"event":"details","time":1490598449,"u":"55","run":"11.95","mem":"41.16","data":"Finished dumping database table `ycaawd_commentmeta`."}
{"event":"finishTableDump","time":1490598449,"u":"55","run":"11.95","mem":"41.16","data":"ycaawd_commentmeta"}
{"event":"details","time":1490598449,"u":"55","run":"11.95","mem":"41.16","data":"Database SQL dump file (ycaawd_commentmeta.sql) size: 562 Bytes"}
{"event":"sqlSize","time":1490598449,"u":"55","run":"11.95","mem":"41.16","data":"562"}
{"event":"details","time":1490598449,"u":"55","run":"11.96","mem":"41.17","data":"About to flush..."}
{"event":"details","time":1490598449,"u":"55","run":"11.96","mem":"41.17","data":"Dumping database table `ycaawd_comments`. Max rows per select: 1000. Starting at row `0`."}
{"event":"startTableDump","time":1490598449,"u":"55","run":"11.96","mem":"41.17","data":"ycaawd_comments"}
{"event":"details","time":1490598449,"u":"56","run":"11.96","mem":"41.17","data":"SQL dump file `\/home\/loanssco\/public_html\/wp-content\/uploads\/backupbuddy_temp\/j43fuvajbs\/ycaawd_comments.sql`."}
{"event":"details","time":1490598449,"u":"56","run":"11.96","mem":"41.18","data":"Database max execution time chunking disabled based on -1 passed."}
{"event":"sqlFile","time":1490598449,"u":"56","run":"11.96","mem":"41.18","data":"ycaawd_comments.sql"}
{"event":"details","time":1490598449,"u":"57","run":"11.97","mem":"41.20","data":"Got `5` rows from `ycaawd_comments` of `1000` max."}
{"event":"details","time":1490598449,"u":"57","run":"11.97","mem":"41.24","data":"Dumped `5` rows total from `ycaawd_comments`. No rows remain."}
{"event":"details","time":1490598449,"u":"57","run":"11.97","mem":"41.24","data":"Pinging mysqli."}
{"event":"details","time":1490598449,"u":"57","run":"11.97","mem":"41.24","data":"Database Server connection status verified."}
{"event":"details","time":1490598449,"u":"57","run":"11.97","mem":"41.24","data":"Finished dumping database table `ycaawd_comments`."}
{"event":"finishTableDump","time":1490598449,"u":"57","run":"11.97","mem":"41.24","data":"ycaawd_comments"}
{"event":"details","time":1490598449,"u":"57","run":"11.97","mem":"41.25","data":"Database SQL dump file (ycaawd_comments.sql) size: 7 KB"}
{"event":"sqlSize","time":1490598449,"u":"57","run":"11.97","mem":"41.25","data":"7027"}
{"event":"details","time":1490598449,"u":"57","run":"11.98","mem":"41.25","data":"About to flush..."}
{"event":"details","time":1490598449,"u":"57","run":"11.98","mem":"41.25","data":"Dumping database table `ycaawd_itsec_lockouts`. Max rows per select: 1000. Starting at row `0`."}
{"event":"startTableDump","time":1490598449,"u":"57","run":"11.98","mem":"41.25","data":"ycaawd_itsec_lockouts"}
{"event":"details","time":1490598449,"u":"58","run":"11.98","mem":"41.26","data":"SQL dump file `\/home\/loanssco\/public_html\/wp-content\/uploads\/backupbuddy_temp\/j43fuvajbs\/ycaawd_itsec_lockouts.sql`."}
{"event":"details","time":1490598449,"u":"58","run":"11.98","mem":"41.26","data":"Database max execution time chunking disabled based on -1 passed."}
{"event":"sqlFile","time":1490598449,"u":"58","run":"11.98","mem":"41.26","data":"ycaawd_itsec_lockouts.sql"}
{"event":"details","time":1490598449,"u":"58","run":"11.98","mem":"41.21","data":"Got `0` rows from `ycaawd_itsec_lockouts` of `1000` max."}
{"event":"details","time":1490598449,"u":"58","run":"11.98","mem":"41.24","data":"Dumped `0` rows total from `ycaawd_itsec_lockouts`. No rows remain."}
{"event":"details","time":1490598449,"u":"58","run":"11.98","mem":"41.24","data":"Pinging mysqli."}
{"event":"details","time":1490598449,"u":"58","run":"11.98","mem":"41.24","data":"Database Server connection status verified."}
{"event":"details","time":1490598449,"u":"58","run":"11.98","mem":"41.24","data":"Finished dumping database table `ycaawd_itsec_lockouts`."}
{"event":"finishTableDump","time":1490598449,"u":"58","run":"11.98","mem":"41.24","data":"ycaawd_itsec_lockouts"}
{"event":"details","time":1490598449,"u":"58","run":"11.98","mem":"41.25","data":"Database SQL dump file (ycaawd_itsec_lockouts.sql) size: 895 Bytes"}
{"event":"sqlSize","time":1490598449,"u":"58","run":"11.98","mem":"41.25","data":"895"}
{"event":"details","time":1490598449,"u":"58","run":"11.99","mem":"41.25","data":"About to flush..."}
{"event":"details","time":1490598449,"u":"58","run":"11.99","mem":"41.25","data":"Dumping database table `ycaawd_itsec_log`. Max rows per select: 1000. Starting at row `0`."}
{"event":"startTableDump","time":1490598449,"u":"58","run":"11.99","mem":"41.26","data":"ycaawd_itsec_log"}
{"event":"details","time":1490598449,"u":"59","run":"11.99","mem":"41.26","data":"SQL dump file `\/home\/loanssco\/public_html\/wp-content\/uploads\/backupbuddy_temp\/j43fuvajbs\/ycaawd_itsec_log.sql`."}
{"event":"details","time":1490598449,"u":"59","run":"11.99","mem":"41.26","data":"Database max execution time chunking disabled based on -1 passed."}
{"event":"sqlFile","time":1490598449,"u":"59","run":"11.99","mem":"41.26","data":"ycaawd_itsec_log.sql"}
{"event":"details","time":1490598449,"u":"69","run":"12.10","mem":"42.68","data":"Got `400` rows from `ycaawd_itsec_log` of `1000` max."}
{"event":"details","time":1490598453,"u":"55","run":"15.95","mem":"42.71","data":"Dumped `400` rows total from `ycaawd_itsec_log`. No rows remain."}
{"event":"details","time":1490598453,"u":"55","run":"15.95","mem":"42.71","data":"Pinging mysqli."}
{"event":"details","time":1490598453,"u":"55","run":"15.95","mem":"42.71","data":"Database Server connection status verified."}
{"event":"details","time":1490598453,"u":"55","run":"15.95","mem":"42.72","data":"Finished dumping database table `ycaawd_itsec_log`."}
{"event":"finishTableDump","time":1490598453,"u":"55","run":"15.95","mem":"42.72","data":"ycaawd_itsec_log"}
{"event":"details","time":1490598453,"u":"55","run":"15.95","mem":"42.72","data":"Database SQL dump file (ycaawd_itsec_log.sql) size: 1.95 MB"}
{"event":"sqlSize","time":1490598453,"u":"55","run":"15.95","mem":"42.72","data":"2049486"}
{"event":"details","time":1490598453,"u":"55","run":"15.95","mem":"42.72","data":"About to flush..."}
{"event":"details","time":1490598453,"u":"55","run":"15.95","mem":"42.73","data":"Dumping database table `ycaawd_itsec_temp`. Max rows per select: 1000. Starting at row `0`."}
{"event":"startTableDump","time":1490598453,"u":"55","run":"15.95","mem":"42.73","data":"ycaawd_itsec_temp"}
{"event":"details","time":1490598453,"u":"55","run":"15.95","mem":"42.73","data":"SQL dump file `\/home\/loanssco\/public_html\/wp-content\/uploads\/backupbuddy_temp\/j43fuvajbs\/ycaawd_itsec_temp.sql`."}
{"event":"details","time":1490598453,"u":"55","run":"15.95","mem":"42.73","data":"Database max execution time chunking disabled based on -1 passed."}
{"event":"sqlFile","time":1490598453,"u":"55","run":"15.95","mem":"42.74","data":"ycaawd_itsec_temp.sql"}
{"event":"details","time":1490598453,"u":"68","run":"16.08","mem":"41.30","data":"Got `9` rows from `ycaawd_itsec_temp` of `1000` max."}
{"event":"details","time":1490598453,"u":"68","run":"16.09","mem":"41.31","data":"Dumped `9` rows total from `ycaawd_itsec_temp`. No rows remain."}
{"event":"details","time":1490598453,"u":"69","run":"16.09","mem":"41.31","data":"Pinging mysqli."}
{"event":"details","time":1490598453,"u":"69","run":"16.09","mem":"41.32","data":"Database Server connection status verified."}
{"event":"details","time":1490598453,"u":"69","run":"16.09","mem":"41.32","data":"Finished dumping database table `ycaawd_itsec_temp`."}
{"event":"finishTableDump","time":1490598453,"u":"69","run":"16.09","mem":"41.32","data":"ycaawd_itsec_temp"}
{"event":"details","time":1490598453,"u":"69","run":"16.09","mem":"41.32","data":"Database SQL dump file (ycaawd_itsec_temp.sql) size: 2 KB"}
{"event":"sqlSize","time":1490598453,"u":"69","run":"16.09","mem":"41.32","data":"1922"}
{"event":"details","time":1490598453,"u":"69","run":"16.09","mem":"41.33","data":"About to flush..."}
{"event":"details","time":1490598453,"u":"69","run":"16.09","mem":"41.33","data":"Dumping database table `ycaawd_links`. Max rows per select: 1000. Starting at row `0`."}
{"event":"startTableDump","time":1490598453,"u":"69","run":"16.09","mem":"41.33","data":"ycaawd_links"}
{"event":"details","time":1490598453,"u":"69","run":"16.09","mem":"41.33","data":"SQL dump file `\/home\/loanssco\/public_html\/wp-content\/uploads\/backupbuddy_temp\/j43fuvajbs\/ycaawd_links.sql`."}
{"event":"details","time":1490598453,"u":"69","run":"16.09","mem":"41.33","data":"Database max execution time chunking disabled based on -1 passed."}
{"event":"sqlFile","time":1490598453,"u":"69","run":"16.09","mem":"41.34","data":"ycaawd_links.sql"}
{"event":"details","time":1490598453,"u":"70","run":"16.10","mem":"41.34","data":"Got `8` rows from `ycaawd_links` of `1000` max."}
{"event":"details","time":1490598453,"u":"70","run":"16.11","mem":"41.37","data":"Dumped `8` rows total from `ycaawd_links`. No rows remain."}
{"event":"details","time":1490598453,"u":"71","run":"16.11","mem":"41.37","data":"Pinging mysqli."}
{"event":"details","time":1490598453,"u":"71","run":"16.11","mem":"41.37","data":"Database Server connection status verified."}
{"event":"details","time":1490598453,"u":"71","run":"16.11","mem":"41.37","data":"Finished dumping database table `ycaawd_links`."}
{"event":"finishTableDump","time":1490598453,"u":"71","run":"16.11","mem":"41.38","data":"ycaawd_links"}
{"event":"details","time":1490598453,"u":"71","run":"16.11","mem":"41.38","data":"Database SQL dump file (ycaawd_links.sql) size: 2 KB"}
{"event":"sqlSize","time":1490598453,"u":"71","run":"16.11","mem":"41.38","data":"2169"}
{"event":"details","time":1490598453,"u":"71","run":"16.11","mem":"41.38","data":"About to flush..."}
{"event":"details","time":1490598453,"u":"71","run":"16.11","mem":"41.39","data":"Dumping database table `ycaawd_options`. Max rows per select: 1000. Starting at row `0`."}
{"event":"startTableDump","time":1490598453,"u":"71","run":"16.11","mem":"41.39","data":"ycaawd_options"}
{"event":"details","time":1490598453,"u":"71","run":"16.11","mem":"41.39","data":"SQL dump file `\/home\/loanssco\/public_html\/wp-content\/uploads\/backupbuddy_temp\/j43fuvajbs\/ycaawd_options.sql`."}
{"event":"details","time":1490598453,"u":"71","run":"16.11","mem":"41.39","data":"Database max execution time chunking disabled based on -1 passed."}
{"event":"sqlFile","time":1490598453,"u":"71","run":"16.11","mem":"41.39","data":"ycaawd_options.sql"}
{"event":"details","time":1490598453,"u":"72","run":"16.12","mem":"41.71","data":"Got `229` rows from `ycaawd_options` of `1000` max."}
{"event":"details","time":1490598453,"u":"77","run":"16.17","mem":"41.71","data":"Dumped `229` rows total from `ycaawd_options`. No rows remain."}
{"event":"details","time":1490598453,"u":"77","run":"16.17","mem":"41.72","data":"Pinging mysqli."}
{"event":"details","time":1490598453,"u":"77","run":"16.17","mem":"41.72","data":"Database Server connection status verified."}
{"event":"details","time":1490598453,"u":"77","run":"16.17","mem":"41.72","data":"Finished dumping database table `ycaawd_options`."}
{"event":"finishTableDump","time":1490598453,"u":"77","run":"16.17","mem":"41.72","data":"ycaawd_options"}
{"event":"details","time":1490598453,"u":"77","run":"16.17","mem":"41.72","data":"Database SQL dump file (ycaawd_options.sql) size: 1.17 MB"}
{"event":"sqlSize","time":1490598453,"u":"77","run":"16.18","mem":"41.73","data":"1230053"}
{"event":"details","time":1490598453,"u":"77","run":"16.18","mem":"41.73","data":"About to flush..."}
{"event":"details","time":1490598453,"u":"77","run":"16.18","mem":"41.73","data":"Dumping database table `ycaawd_term_relationships`. Max rows per select: 1000. Starting at row `0`."}
{"event":"startTableDump","time":1490598453,"u":"78","run":"16.18","mem":"41.73","data":"ycaawd_term_relationships"}
{"event":"details","time":1490598453,"u":"78","run":"16.18","mem":"41.73","data":"SQL dump file `\/home\/loanssco\/public_html\/wp-content\/uploads\/backupbuddy_temp\/j43fuvajbs\/ycaawd_term_relationships.sql`."}
{"event":"details","time":1490598453,"u":"78","run":"16.18","mem":"41.74","data":"Database max execution time chunking disabled based on -1 passed."}
{"event":"sqlFile","time":1490598453,"u":"78","run":"16.18","mem":"41.74","data":"ycaawd_term_relationships.sql"}
{"event":"details","time":1490598453,"u":"80","run":"16.20","mem":"41.61","data":"Got `170` rows from `ycaawd_term_relationships` of `1000` max."}
{"event":"details","time":1490598453,"u":"81","run":"16.21","mem":"41.61","data":"Dumped `170` rows total from `ycaawd_term_relationships`. No rows remain."}
{"event":"details","time":1490598453,"u":"81","run":"16.21","mem":"41.61","data":"Pinging mysqli."}
{"event":"details","time":1490598453,"u":"81","run":"16.21","mem":"41.62","data":"Database Server connection status verified."}
{"event":"details","time":1490598453,"u":"81","run":"16.21","mem":"41.62","data":"Finished dumping database table `ycaawd_term_relationships`."}
{"event":"finishTableDump","time":1490598453,"u":"81","run":"16.21","mem":"41.62","data":"ycaawd_term_relationships"}
{"event":"details","time":1490598453,"u":"81","run":"16.21","mem":"41.62","data":"Database SQL dump file (ycaawd_term_relationships.sql) size: 12 KB"}
{"event":"sqlSize","time":1490598453,"u":"81","run":"16.21","mem":"41.62","data":"11842"}
{"event":"details","time":1490598453,"u":"81","run":"16.21","mem":"41.63","data":"About to flush..."}
{"event":"details","time":1490598453,"u":"81","run":"16.21","mem":"41.63","data":"Dumping database table `ycaawd_term_taxonomy`. Max rows per select: 1000. Starting at row `0`."}
{"event":"startTableDump","time":1490598453,"u":"81","run":"16.22","mem":"41.63","data":"ycaawd_term_taxonomy"}
{"event":"details","time":1490598453,"u":"81","run":"16.22","mem":"41.63","data":"SQL dump file `\/home\/loanssco\/public_html\/wp-content\/uploads\/backupbuddy_temp\/j43fuvajbs\/ycaawd_term_taxonomy.sql`."}
{"event":"details","time":1490598453,"u":"81","run":"16.22","mem":"41.63","data":"Database max execution time chunking disabled based on -1 passed."}
{"event":"sqlFile","time":1490598453,"u":"82","run":"16.22","mem":"41.64","data":"ycaawd_term_taxonomy.sql"}
{"event":"details","time":1490598453,"u":"82","run":"16.22","mem":"41.60","data":"Got `96` rows from `ycaawd_term_taxonomy` of `1000` max."}
{"event":"details","time":1490598453,"u":"83","run":"16.23","mem":"41.62","data":"Dumped `96` rows total from `ycaawd_term_taxonomy`. No rows remain."}
{"event":"details","time":1490598453,"u":"83","run":"16.23","mem":"41.62","data":"Pinging mysqli."}
{"event":"details","time":1490598453,"u":"83","run":"16.23","mem":"41.62","data":"Database Server connection status verified."}
{"event":"details","time":1490598453,"u":"83","run":"16.23","mem":"41.62","data":"Finished dumping database table `ycaawd_term_taxonomy`."}
{"event":"finishTableDump","time":1490598453,"u":"83","run":"16.23","mem":"41.62","data":"ycaawd_term_taxonomy"}
{"event":"details","time":1490598453,"u":"83","run":"16.23","mem":"41.63","data":"Database SQL dump file (ycaawd_term_taxonomy.sql) size: 8 KB"}
{"event":"sqlSize","time":1490598453,"u":"83","run":"16.23","mem":"41.63","data":"8485"}
{"event":"details","time":1490598453,"u":"83","run":"16.23","mem":"41.63","data":"About to flush..."}
{"event":"details","time":1490598453,"u":"83","run":"16.24","mem":"41.63","data":"Dumping database table `ycaawd_termmeta`. Max rows per select: 1000. Starting at row `0`."}
{"event":"startTableDump","time":1490598453,"u":"83","run":"16.24","mem":"41.63","data":"ycaawd_termmeta"}
{"event":"details","time":1490598453,"u":"83","run":"16.24","mem":"41.64","data":"SQL dump file `\/home\/loanssco\/public_html\/wp-content\/uploads\/backupbuddy_temp\/j43fuvajbs\/ycaawd_termmeta.sql`."}
{"event":"details","time":1490598453,"u":"84","run":"16.24","mem":"41.64","data":"Database max execution time chunking disabled based on -1 passed."}
{"event":"sqlFile","time":1490598453,"u":"84","run":"16.24","mem":"41.64","data":"ycaawd_termmeta.sql"}
{"event":"details","time":1490598453,"u":"84","run":"16.24","mem":"41.43","data":"Got `0` rows from `ycaawd_termmeta` of `1000` max."}
{"event":"details","time":1490598453,"u":"84","run":"16.24","mem":"41.45","data":"Dumped `0` rows total from `ycaawd_termmeta`. No rows remain."}
{"event":"details","time":1490598453,"u":"84","run":"16.24","mem":"41.45","data":"Pinging mysqli."}
{"event":"details","time":1490598453,"u":"84","run":"16.24","mem":"41.45","data":"Database Server connection status verified."}
{"event":"details","time":1490598453,"u":"84","run":"16.24","mem":"41.45","data":"Finished dumping database table `ycaawd_termmeta`."}
{"event":"finishTableDump","time":1490598453,"u":"84","run":"16.24","mem":"41.45","data":"ycaawd_termmeta"}
{"event":"details","time":1490598453,"u":"84","run":"16.24","mem":"41.45","data":"Database SQL dump file (ycaawd_termmeta.sql) size: 525 Bytes"}
{"event":"sqlSize","time":1490598453,"u":"84","run":"16.25","mem":"41.46","data":"525"}
{"event":"details","time":1490598453,"u":"84","run":"16.25","mem":"41.46","data":"About to flush..."}
{"event":"details","time":1490598453,"u":"84","run":"16.25","mem":"41.46","data":"Dumping database table `ycaawd_terms`. Max rows per select: 1000. Starting at row `0`."}
{"event":"startTableDump","time":1490598453,"u":"85","run":"16.25","mem":"41.46","data":"ycaawd_terms"}
{"event":"details","time":1490598453,"u":"85","run":"16.25","mem":"41.47","data":"SQL dump file `\/home\/loanssco\/public_html\/wp-content\/uploads\/backupbuddy_temp\/j43fuvajbs\/ycaawd_terms.sql`."}
{"event":"details","time":1490598453,"u":"85","run":"16.25","mem":"41.47","data":"Database max execution time chunking disabled based on -1 passed."}
{"event":"sqlFile","time":1490598453,"u":"85","run":"16.25","mem":"41.47","data":"ycaawd_terms.sql"}
{"event":"details","time":1490598453,"u":"85","run":"16.26","mem":"41.62","data":"Got `96` rows from `ycaawd_terms` of `1000` max."}
{"event":"details","time":1490598453,"u":"86","run":"16.26","mem":"41.63","data":"Dumped `96` rows total from `ycaawd_terms`. No rows remain."}
{"event":"details","time":1490598453,"u":"86","run":"16.26","mem":"41.63","data":"Pinging mysqli."}
{"event":"details","time":1490598453,"u":"86","run":"16.26","mem":"41.63","data":"Database Server connection status verified."}
{"event":"details","time":1490598453,"u":"86","run":"16.26","mem":"41.64","data":"Finished dumping database table `ycaawd_terms`."}
{"event":"finishTableDump","time":1490598453,"u":"86","run":"16.26","mem":"41.64","data":"ycaawd_terms"}
{"event":"details","time":1490598453,"u":"86","run":"16.26","mem":"41.64","data":"Database SQL dump file (ycaawd_terms.sql) size: 8 KB"}
{"event":"sqlSize","time":1490598453,"u":"86","run":"16.27","mem":"41.64","data":"7859"}
{"event":"details","time":1490598453,"u":"86","run":"16.27","mem":"41.64","data":"About to flush..."}
{"event":"details","time":1490598453,"u":"86","run":"16.27","mem":"41.65","data":"Dumping database table `ycaawd_usermeta`. Max rows per select: 1000. Starting at row `0`."}
{"event":"startTableDump","time":1490598453,"u":"87","run":"16.27","mem":"41.65","data":"ycaawd_usermeta"}
{"event":"details","time":1490598453,"u":"87","run":"16.27","mem":"41.65","data":"SQL dump file `\/home\/loanssco\/public_html\/wp-content\/uploads\/backupbuddy_temp\/j43fuvajbs\/ycaawd_usermeta.sql`."}
{"event":"details","time":1490598453,"u":"87","run":"16.27","mem":"41.65","data":"Database max execution time chunking disabled based on -1 passed."}
{"event":"sqlFile","time":1490598453,"u":"87","run":"16.27","mem":"41.66","data":"ycaawd_usermeta.sql"}
{"event":"details","time":1490598453,"u":"87","run":"16.27","mem":"41.62","data":"Got `78` rows from `ycaawd_usermeta` of `1000` max."}
{"event":"details","time":1490598455,"u":"06","run":"17.46","mem":"41.63","data":"Dumped `78` rows total from `ycaawd_usermeta`. No rows remain."}
{"event":"details","time":1490598455,"u":"06","run":"17.46","mem":"41.64","data":"Pinging mysqli."}
{"event":"details","time":1490598455,"u":"06","run":"17.46","mem":"41.64","data":"Database Server connection status verified."}
{"event":"details","time":1490598455,"u":"06","run":"17.46","mem":"41.64","data":"Finished dumping database table `ycaawd_usermeta`."}
{"event":"finishTableDump","time":1490598455,"u":"06","run":"17.46","mem":"41.64","data":"ycaawd_usermeta"}
{"event":"details","time":1490598455,"u":"06","run":"17.46","mem":"41.64","data":"Database SQL dump file (ycaawd_usermeta.sql) size: 9 KB"}
{"event":"sqlSize","time":1490598455,"u":"06","run":"17.46","mem":"41.65","data":"9232"}
{"event":"details","time":1490598455,"u":"06","run":"17.46","mem":"41.65","data":"About to flush..."}
{"event":"details","time":1490598455,"u":"06","run":"17.47","mem":"41.65","data":"Dumping database table `ycaawd_users`. Max rows per select: 1000. Starting at row `0`."}
{"event":"startTableDump","time":1490598455,"u":"06","run":"17.47","mem":"41.65","data":"ycaawd_users"}
{"event":"details","time":1490598455,"u":"06","run":"17.47","mem":"41.65","data":"SQL dump file `\/home\/loanssco\/public_html\/wp-content\/uploads\/backupbuddy_temp\/j43fuvajbs\/ycaawd_users.sql`."}
{"event":"details","time":1490598455,"u":"06","run":"17.47","mem":"41.66","data":"Database max execution time chunking disabled based on -1 passed."}
{"event":"sqlFile","time":1490598455,"u":"06","run":"17.47","mem":"41.66","data":"ycaawd_users.sql"}
{"event":"details","time":1490598455,"u":"07","run":"17.47","mem":"41.54","data":"Got `3` rows from `ycaawd_users` of `1000` max."}
{"event":"details","time":1490598455,"u":"07","run":"17.47","mem":"41.56","data":"Dumped `3` rows total from `ycaawd_users`. No rows remain."}
{"event":"details","time":1490598455,"u":"07","run":"17.47","mem":"41.57","data":"Pinging mysqli."}
{"event":"details","time":1490598455,"u":"07","run":"17.47","mem":"41.57","data":"Database Server connection status verified."}
{"event":"details","time":1490598455,"u":"07","run":"17.47","mem":"41.57","data":"Finished dumping database table `ycaawd_users`."}
{"event":"finishTableDump","time":1490598455,"u":"07","run":"17.47","mem":"41.57","data":"ycaawd_users"}
{"event":"details","time":1490598455,"u":"07","run":"17.47","mem":"41.57","data":"Database SQL dump file (ycaawd_users.sql) size: 1 KB"}
{"event":"sqlSize","time":1490598455,"u":"07","run":"17.47","mem":"41.58","data":"1380"}
{"event":"details","time":1490598455,"u":"07","run":"17.47","mem":"41.58","data":"About to flush..."}
{"event":"details","time":1490598455,"u":"07","run":"17.47","mem":"41.58","data":"Finished PHP based SQL dump method. Ran for 5.535 sec."}
{"event":"details","time":1490598455,"u":"07","run":"17.47","mem":"41.57","data":"mysqlbuddy: Dump method `php` completed successfully."}
{"event":"milestone","time":1490598455,"u":"07","run":"17.47","mem":"41.57","data":"finish_database"}
{"event":"message","time":1490598455,"u":"07","run":"17.47","mem":"41.57","data":"Database dump procedure succeeded."}
{"event":"details","time":1490598455,"u":"07","run":"17.47","mem":"41.59","data":"Fileoptions `j43fuvajbs.txt` saved. 6712 bytes written."}
{"event":"details","time":1490598455,"u":"07","run":"17.47","mem":"41.58","data":"Finished function `backup_create_database_dump`. Peak memory usage: 44.215 MB with BackupBuddy v7.2.2.6"}
{"event":"finishFunction","time":1490598455,"u":"07","run":"17.47","mem":"41.58","data":"{\"function\":\"backup_create_database_dump\"}"}
{"event":"details","time":1490598455,"u":"07","run":"17.47","mem":"41.58","data":"-----"}
{"event":"details","time":1490598455,"u":"07","run":"17.47","mem":"41.58","data":"Classic mode; skipping cron & triggering next step."}
{"event":"details","time":1490598455,"u":"07","run":"17.47","mem":"41.60","data":"Fileoptions `j43fuvajbs.txt` saved. 6752 bytes written."}
{"event":"details","time":1490598455,"u":"07","run":"17.47","mem":"41.59","data":"Found next step to run: `backup_create_database_dump`."}
{"event":"details","time":1490598455,"u":"07","run":"17.47","mem":"41.59","data":"Peak memory usage: 44.215 MB"}
{"event":"details","time":1490598455,"u":"07","run":"17.47","mem":"41.59","data":"-----"}
{"event":"details","time":1490598455,"u":"07","run":"17.47","mem":"41.60","data":"Starting step function `backup_create_database_dump`. Attempt #1."}
{"event":"startFunction","time":1490598455,"u":"07","run":"17.47","mem":"41.60","data":"{\"function\":\"backup_create_database_dump\",\"title\":\"Backing up database\"}"}
{"event":"milestone","time":1490598455,"u":"07","run":"17.48","mem":"41.60","data":"start_database"}
{"event":"message","time":1490598455,"u":"07","run":"17.48","mem":"41.60","data":"Starting database backup process."}
{"event":"details","time":1490598455,"u":"07","run":"17.48","mem":"41.61","data":"PHP-based mysqldump (if applicable) max rows per select set to 1000."}
{"event":"details","time":1490598455,"u":"07","run":"17.48","mem":"41.61","data":"Database host for dumping: `localhost`"}
{"event":"details","time":1490598455,"u":"07","run":"17.48","mem":"41.61","data":"Loading mysqlbuddy library."}
{"event":"details","time":1490598455,"u":"07","run":"17.48","mem":"41.61","data":"Mysql server default directories: `\/usr\/bin\/,\/usr\/bin\/mysql\/,\/usr\/local\/bin\/`"}
{"event":"details","time":1490598455,"u":"07","run":"17.48","mem":"41.62","data":"mysqlbuddy: Force method of `1` passed."}
{"event":"message","time":1490598455,"u":"08","run":"17.48","mem":"41.62","data":"mysqlbuddy: Settings overriding automatic detection of available database dump methods. Using forced override methods: `php`."}
{"event":"message","time":1490598455,"u":"08","run":"17.48","mem":"41.62","data":"mysqlbuddy: Detected database dump methods: `php`."}
{"event":"details","time":1490598455,"u":"08","run":"17.48","mem":"41.62","data":"Max execution time chunking disabled by passing -1 to constructor. No chunking will be used for the database dump."}
{"event":"details","time":1490598455,"u":"08","run":"17.48","mem":"41.62","data":"This server's mysql version: `5.5.5`."}
{"event":"milestone","time":1490598455,"u":"08","run":"17.48","mem":"41.62","data":"start_database"}
{"event":"message","time":1490598455,"u":"08","run":"17.48","mem":"41.62","data":"Starting database dump procedure."}
{"event":"details","time":1490598455,"u":"08","run":"17.48","mem":"41.63","data":"mysqlbuddy: Output directory: `\/home\/loanssco\/public_html\/wp-content\/uploads\/backupbuddy_temp\/j43fuvajbs\/`."}
{"event":"details","time":1490598455,"u":"08","run":"17.48","mem":"41.63","data":"Dumping single table `ycaawd_posts`."}
{"event":"details","time":1490598455,"u":"08","run":"17.48","mem":"41.63","data":"Preparing to dump using available method(s) by priority. Methods: `php`"}
{"event":"details","time":1490598455,"u":"08","run":"17.48","mem":"41.63","data":"mysqlbuddy: Attempting dump method `php`."}
{"event":"details","time":1490598455,"u":"08","run":"17.48","mem":"41.64","data":"Loading DB kicker for use leter in case database goes away."}
{"event":"details","time":1490598455,"u":"08","run":"17.48","mem":"41.64","data":"Database kicker loaded. Database object class: `W3TC\\DbCache_Wpdb` with database of type `mysqli`."}
{"event":"details","time":1490598455,"u":"08","run":"17.48","mem":"41.64","data":"Dumping database table `ycaawd_posts`. Max rows per select: 1000. Starting at row `0`."}
{"event":"startTableDump","time":1490598455,"u":"08","run":"17.48","mem":"41.65","data":"ycaawd_posts"}
{"event":"details","time":1490598455,"u":"08","run":"17.48","mem":"41.65","data":"SQL dump file `\/home\/loanssco\/public_html\/wp-content\/uploads\/backupbuddy_temp\/j43fuvajbs\/ycaawd_posts.sql`."}
{"event":"details","time":1490598455,"u":"08","run":"17.48","mem":"41.65","data":"Database max execution time chunking disabled based on -1 passed."}
{"event":"sqlFile","time":1490598455,"u":"08","run":"17.48","mem":"41.65","data":"ycaawd_posts.sql"}
{"event":"details","time":1490598455,"u":"13","run":"17.53","mem":"44.17","data":"Got `394` rows from `ycaawd_posts` of `1000` max."}
{"event":"details","time":1490598455,"u":"38","run":"17.79","mem":"44.23","data":"Dumped `394` rows total from `ycaawd_posts`. No rows remain."}
{"event":"details","time":1490598455,"u":"38","run":"17.79","mem":"44.23","data":"Pinging mysqli."}
{"event":"details","time":1490598455,"u":"38","run":"17.79","mem":"44.23","data":"Database Server connection status verified."}
{"event":"details","time":1490598455,"u":"38","run":"17.79","mem":"44.24","data":"Finished dumping database table `ycaawd_posts`."}
{"event":"finishTableDump","time":1490598455,"u":"38","run":"17.79","mem":"44.24","data":"ycaawd_posts"}
{"event":"details","time":1490598455,"u":"38","run":"17.79","mem":"44.24","data":"Database SQL dump file (ycaawd_posts.sql) size: 1.38 MB"}
{"event":"sqlSize","time":1490598455,"u":"39","run":"17.79","mem":"44.25","data":"1442873"}
{"event":"details","time":1490598455,"u":"39","run":"17.79","mem":"44.25","data":"About to flush..."}
{"event":"details","time":1490598455,"u":"39","run":"17.79","mem":"44.25","data":"Finished PHP based SQL dump method. Ran for 0.308 sec."}
{"event":"details","time":1490598455,"u":"39","run":"17.79","mem":"43.29","data":"mysqlbuddy: Dump method `php` completed successfully."}
{"event":"milestone","time":1490598455,"u":"39","run":"17.79","mem":"43.29","data":"finish_database"}
{"event":"message","time":1490598455,"u":"39","run":"17.79","mem":"43.30","data":"Database dump procedure succeeded."}
{"event":"details","time":1490598455,"u":"39","run":"17.79","mem":"43.31","data":"Fileoptions `j43fuvajbs.txt` saved. 6796 bytes written."}
{"event":"details","time":1490598455,"u":"39","run":"17.79","mem":"43.30","data":"Finished function `backup_create_database_dump`. Peak memory usage: 44.493 MB with BackupBuddy v7.2.2.6"}
{"event":"finishFunction","time":1490598455,"u":"39","run":"17.79","mem":"43.30","data":"{\"function\":\"backup_create_database_dump\"}"}
{"event":"details","time":1490598455,"u":"39","run":"17.79","mem":"43.30","data":"-----"}
{"event":"details","time":1490598455,"u":"39","run":"17.79","mem":"43.31","data":"Classic mode; skipping cron & triggering next step."}
{"event":"details","time":1490598455,"u":"39","run":"17.79","mem":"43.32","data":"Fileoptions `j43fuvajbs.txt` saved. 6832 bytes written."}
{"event":"details","time":1490598455,"u":"39","run":"17.79","mem":"43.31","data":"Found next step to run: `backup_create_database_dump`."}
{"event":"details","time":1490598455,"u":"39","run":"17.79","mem":"43.31","data":"Peak memory usage: 44.493 MB"}
{"event":"details","time":1490598455,"u":"39","run":"17.79","mem":"43.32","data":"-----"}
{"event":"details","time":1490598455,"u":"39","run":"17.79","mem":"43.32","data":"Starting step function `backup_create_database_dump`. Attempt #1."}
{"event":"startFunction","time":1490598455,"u":"39","run":"17.79","mem":"43.32","data":"{\"function\":\"backup_create_database_dump\",\"title\":\"Backing up database\"}"}
{"event":"milestone","time":1490598455,"u":"39","run":"17.79","mem":"43.32","data":"start_database"}
{"event":"message","time":1490598455,"u":"39","run":"17.79","mem":"43.33","data":"Starting database backup process."}
{"event":"details","time":1490598455,"u":"39","run":"17.79","mem":"43.33","data":"PHP-based mysqldump (if applicable) max rows per select set to 1000."}
{"event":"details","time":1490598455,"u":"39","run":"17.79","mem":"43.33","data":"Database host for dumping: `localhost`"}
{"event":"details","time":1490598455,"u":"39","run":"17.79","mem":"43.33","data":"Loading mysqlbuddy library."}
{"event":"details","time":1490598455,"u":"39","run":"17.79","mem":"43.34","data":"Mysql server default directories: `\/usr\/bin\/,\/usr\/bin\/mysql\/,\/usr\/local\/bin\/`"}
{"event":"details","time":1490598455,"u":"39","run":"17.79","mem":"43.34","data":"mysqlbuddy: Force method of `1` passed."}
{"event":"message","time":1490598455,"u":"39","run":"17.79","mem":"43.34","data":"mysqlbuddy: Settings overriding automatic detection of available database dump methods. Using forced override methods: `php`."}
{"event":"message","time":1490598455,"u":"39","run":"17.79","mem":"43.34","data":"mysqlbuddy: Detected database dump methods: `php`."}
{"event":"details","time":1490598455,"u":"39","run":"17.79","mem":"43.34","data":"Max execution time chunking disabled by passing -1 to constructor. No chunking will be used for the database dump."}
{"event":"details","time":1490598455,"u":"39","run":"17.79","mem":"43.35","data":"This server's mysql version: `5.5.5`."}
{"event":"milestone","time":1490598455,"u":"39","run":"17.79","mem":"43.34","data":"start_database"}
{"event":"message","time":1490598455,"u":"39","run":"17.79","mem":"43.35","data":"Starting database dump procedure."}
{"event":"details","time":1490598455,"u":"39","run":"17.80","mem":"43.35","data":"mysqlbuddy: Output directory: `\/home\/loanssco\/public_html\/wp-content\/uploads\/backupbuddy_temp\/j43fuvajbs\/`."}
{"event":"details","time":1490598455,"u":"39","run":"17.80","mem":"43.35","data":"Dumping single table `ycaawd_postmeta`."}
{"event":"details","time":1490598455,"u":"39","run":"17.80","mem":"43.35","data":"Preparing to dump using available method(s) by priority. Methods: `php`"}
{"event":"details","time":1490598455,"u":"39","run":"17.80","mem":"43.36","data":"mysqlbuddy: Attempting dump method `php`."}
{"event":"details","time":1490598455,"u":"39","run":"17.80","mem":"43.36","data":"Loading DB kicker for use leter in case database goes away."}
{"event":"details","time":1490598455,"u":"39","run":"17.80","mem":"43.36","data":"Database kicker loaded. Database object class: `W3TC\\DbCache_Wpdb` with database of type `mysqli`."}
{"event":"details","time":1490598455,"u":"39","run":"17.80","mem":"43.37","data":"Dumping database table `ycaawd_postmeta`. Max rows per select: 1000. Starting at row `0`."}
{"event":"startTableDump","time":1490598455,"u":"39","run":"17.80","mem":"43.37","data":"ycaawd_postmeta"}
{"event":"details","time":1490598455,"u":"40","run":"17.80","mem":"43.37","data":"SQL dump file `\/home\/loanssco\/public_html\/wp-content\/uploads\/backupbuddy_temp\/j43fuvajbs\/ycaawd_postmeta.sql`."}
{"event":"details","time":1490598455,"u":"40","run":"17.80","mem":"43.37","data":"Database max execution time chunking disabled based on -1 passed."}
{"event":"sqlFile","time":1490598455,"u":"40","run":"17.80","mem":"43.38","data":"ycaawd_postmeta.sql"}
{"event":"details","time":1490598455,"u":"42","run":"17.82","mem":"43.32","data":"Got `1000` rows from `ycaawd_postmeta` of `1000` max."}
{"event":"details","time":1490598456,"u":"64","run":"19.04","mem":"43.33","data":"Working... Dumped `500` rows from `ycaawd_postmeta` so far."}
{"event":"details","time":1490598456,"u":"66","run":"19.06","mem":"43.33","data":"Working... Dumped `1000` rows from `ycaawd_postmeta` so far."}
{"event":"details","time":1490598456,"u":"66","run":"19.06","mem":"43.33","data":"Pinging mysqli."}
{"event":"details","time":1490598456,"u":"67","run":"19.07","mem":"43.34","data":"Database Server connection status verified."}
{"event":"details","time":1490598456,"u":"68","run":"19.09","mem":"43.34","data":"Got `1000` rows from `ycaawd_postmeta` of `1000` max."}
{"event":"details","time":1490598456,"u":"69","run":"19.10","mem":"43.35","data":"Working... Dumped `1500` rows from `ycaawd_postmeta` so far."}
{"event":"details","time":1490598456,"u":"86","run":"19.26","mem":"43.35","data":"Working... Dumped `2000` rows from `ycaawd_postmeta` so far."}
{"event":"details","time":1490598456,"u":"86","run":"19.27","mem":"43.35","data":"Pinging mysqli."}
{"event":"details","time":1490598456,"u":"86","run":"19.27","mem":"43.35","data":"Database Server connection status verified."}
{"event":"details","time":1490598456,"u":"87","run":"19.27","mem":"41.96","data":"Got `126` rows from `ycaawd_postmeta` of `1000` max."}
{"event":"details","time":1490598456,"u":"87","run":"19.27","mem":"41.97","data":"Dumped `2126` rows total from `ycaawd_postmeta`. No rows remain."}
{"event":"details","time":1490598456,"u":"87","run":"19.27","mem":"41.98","data":"Pinging mysqli."}
{"event":"details","time":1490598456,"u":"88","run":"19.28","mem":"41.98","data":"Database Server connection status verified."}
{"event":"details","time":1490598456,"u":"88","run":"19.28","mem":"41.98","data":"Finished dumping database table `ycaawd_postmeta`."}
{"event":"finishTableDump","time":1490598456,"u":"88","run":"19.28","mem":"41.98","data":"ycaawd_postmeta"}
{"event":"details","time":1490598456,"u":"88","run":"19.28","mem":"41.99","data":"Database SQL dump file (ycaawd_postmeta.sql) size: 360 KB"}
{"event":"sqlSize","time":1490598456,"u":"88","run":"19.28","mem":"41.99","data":"368909"}
{"event":"details","time":1490598456,"u":"88","run":"19.28","mem":"41.99","data":"About to flush..."}
{"event":"details","time":1490598456,"u":"88","run":"19.28","mem":"42.00","data":"Finished PHP based SQL dump method. Ran for 1.487 sec."}
{"event":"details","time":1490598456,"u":"88","run":"19.28","mem":"41.91","data":"mysqlbuddy: Dump method `php` completed successfully."}
{"event":"milestone","time":1490598456,"u":"88","run":"19.28","mem":"41.91","data":"finish_database"}
{"event":"message","time":1490598456,"u":"88","run":"19.28","mem":"41.91","data":"Database dump procedure succeeded."}
{"event":"details","time":1490598456,"u":"88","run":"19.28","mem":"41.93","data":"Fileoptions `j43fuvajbs.txt` saved. 6872 bytes written."}
{"event":"details","time":1490598456,"u":"88","run":"19.29","mem":"41.92","data":"Finished function `backup_create_database_dump`. Peak memory usage: 44.554 MB with BackupBuddy v7.2.2.6"}
{"event":"finishFunction","time":1490598456,"u":"88","run":"19.29","mem":"41.92","data":"{\"function\":\"backup_create_database_dump\"}"}
{"event":"details","time":1490598456,"u":"88","run":"19.29","mem":"41.92","data":"-----"}
{"event":"details","time":1490598456,"u":"88","run":"19.29","mem":"41.92","data":"Classic mode; skipping cron & triggering next step."}
{"event":"details","time":1490598456,"u":"89","run":"19.29","mem":"41.94","data":"Fileoptions `j43fuvajbs.txt` saved. 6916 bytes written."}
{"event":"details","time":1490598456,"u":"89","run":"19.29","mem":"41.93","data":"Found next step to run: `backup_zip_files`."}
{"event":"details","time":1490598456,"u":"89","run":"19.29","mem":"41.93","data":"Peak memory usage: 44.554 MB"}
{"event":"details","time":1490598456,"u":"89","run":"19.29","mem":"41.93","data":"-----"}
{"event":"details","time":1490598456,"u":"89","run":"19.29","mem":"41.94","data":"Starting step function `backup_zip_files`. Attempt #1."}
{"event":"startFunction","time":1490598456,"u":"89","run":"19.29","mem":"41.94","data":"{\"function\":\"backup_zip_files\",\"title\":\"Zipping up files\"}"}
{"event":"milestone","time":1490598456,"u":"89","run":"19.29","mem":"41.94","data":"start_files"}
{"event":"details","time":1490598456,"u":"89","run":"19.29","mem":"41.95","data":"Backup root: `\/home\/loanssco\/public_html\/`."}
{"event":"message","time":1490598456,"u":"90","run":"19.30","mem":"41.82","data":"Running standard ZIP system based on settings."}
{"event":"details","time":1490598456,"u":"90","run":"19.30","mem":"41.83","data":"Running under 64-bit PHP"}
{"event":"details","time":1490598456,"u":"90","run":"19.30","mem":"41.83","data":"Server API: cgi-fcgi"}
{"event":"details","time":1490598456,"u":"90","run":"19.30","mem":"41.83","data":"Using Best Available zip method based on settings."}
{"event":"details","time":1490598456,"u":"90","run":"19.30","mem":"41.83","data":"Creating ZIP file `\/home\/loanssco\/public_html\/wp-content\/uploads\/backupbuddy_backups\/backup-loanss_com_au-2017_03_27-07_07am-full-j43fuvajbs.zip`. Adding directory `\/home\/loanssco\/public_html\/`. Excludes: \/.sucuriquarantine\/,\/wp-content\/uploads\/sucuri\/,\/wp-content\/envato-backups\/,\/wp-content\/uploads\/backwpup,\/wp-content\/backup-db\/,\/wp-snapshots\/,\/wp-content\/ai1wm-backups\/,\/wp-content\/plugins\/wordfence\/tmp\/,\/wp-content\/cache\/supercache\/,\/error_log,\/wp-content\/uploads\/backupbuddy_backups\/,\/wp-content\/uploads\/pb_backupbuddy\/,\/importbuddy\/,\/importbuddy.php"}
{"event":"details","time":1490598456,"u":"94","run":"19.34","mem":"41.89","data":"Trying exec method for ZIP."}
{"event":"details","time":1490598456,"u":"94","run":"19.34","mem":"41.90","data":"Using zip version: 3.0"}
{"event":"details","time":1490598456,"u":"94","run":"19.34","mem":"41.90","data":"Zip archive creation compression enabled based on settings."}
{"event":"details","time":1490598456,"u":"94","run":"19.34","mem":"41.90","data":"Zip archive creation symbolic links will not be followed based on settings."}
{"event":"details","time":1490598456,"u":"94","run":"19.34","mem":"41.91","data":"Zip archive creation actionable warnings will not be ignored based on settings."}
{"event":"details","time":1490598456,"u":"94","run":"19.34","mem":"41.91","data":"Creating backup exclusions file `\/home\/loanssco\/public_html\/wp-content\/uploads\/backupbuddy_backups\/temp_zip_j43fuvajbs\/exclusions.txt`."}
{"event":"details","time":1490598456,"u":"94","run":"19.34","mem":"41.91","data":"Omitting exclusion as file\/directory does not currently exist: `\/.sucuriquarantine\/`."}
{"event":"details","time":1490598456,"u":"94","run":"19.34","mem":"41.92","data":"Omitting exclusion as file\/directory does not currently exist: `\/wp-content\/uploads\/sucuri\/`."}
{"event":"details","time":1490598456,"u":"94","run":"19.34","mem":"41.92","data":"Omitting exclusion as file\/directory does not currently exist: `\/wp-content\/envato-backups\/`."}
{"event":"details","time":1490598456,"u":"94","run":"19.34","mem":"41.92","data":"Omitting exclusion as file\/directory does not currently exist: `\/wp-content\/uploads\/backwpup`."}
{"event":"details","time":1490598456,"u":"94","run":"19.34","mem":"41.92","data":"Omitting exclusion as file\/directory does not currently exist: `\/wp-content\/backup-db\/`."}
{"event":"details","time":1490598456,"u":"94","run":"19.34","mem":"41.92","data":"Omitting exclusion as file\/directory does not currently exist: `\/wp-snapshots\/`."}
{"event":"details","time":1490598456,"u":"94","run":"19.34","mem":"41.93","data":"Omitting exclusion as file\/directory does not currently exist: `\/wp-content\/ai1wm-backups\/`."}
{"event":"details","time":1490598456,"u":"94","run":"19.35","mem":"41.93","data":"Omitting exclusion as file\/directory does not currently exist: `\/wp-content\/plugins\/wordfence\/tmp\/`."}
{"event":"details","time":1490598456,"u":"94","run":"19.35","mem":"41.93","data":"Omitting exclusion as file\/directory does not currently exist: `\/wp-content\/cache\/supercache\/`."}
{"event":"details","time":1490598456,"u":"94","run":"19.35","mem":"41.93","data":"Excluding file `\/error_log`."}
{"event":"details","time":1490598456,"u":"94","run":"19.35","mem":"41.94","data":"Excluding directory `\/wp-content\/uploads\/backupbuddy_backups\/`."}
{"event":"details","time":1490598456,"u":"94","run":"19.35","mem":"41.94","data":"Excluding directory `\/wp-content\/uploads\/pb_backupbuddy\/`."}
{"event":"details","time":1490598456,"u":"94","run":"19.35","mem":"41.94","data":"Omitting exclusion as file\/directory does not currently exist: `\/importbuddy\/`."}
{"event":"details","time":1490598456,"u":"95","run":"19.35","mem":"41.94","data":"Omitting exclusion as file\/directory does not currently exist: `\/importbuddy.php`."}
{"event":"details","time":1490598456,"u":"95","run":"19.35","mem":"41.94","data":"Backup exclusions file created."}
{"event":"details","time":1490598456,"u":"95","run":"19.35","mem":"41.94","data":"Using exclusion file `\/home\/loanssco\/public_html\/wp-content\/uploads\/backupbuddy_backups\/temp_zip_j43fuvajbs\/exclusions.txt`"}
{"event":"details","time":1490598456,"u":"95","run":"19.35","mem":"41.95","data":"exec command: zip -r -q -y -lf '\/home\/loanssco\/public_html\/wp-content\/uploads\/backupbuddy_backups\/temp_zip_j43fuvajbs\/temp_zip_exec_log.txt' -li -b '\/home\/loanssco\/public_html\/wp-content\/uploads\/backupbuddy_backups\/temp_zip_j43fuvajbs\/' '\/home\/loanssco\/public_html\/wp-content\/uploads\/backupbuddy_backups\/temp_zip_j43fuvajbs\/backup-loanss_com_au-2017_03_27-07_07am-full-j43fuvajbs.zip' . -x@'\/home\/loanssco\/public_html\/wp-content\/uploads\/backupbuddy_backups\/temp_zip_j43fuvajbs\/exclusions.txt'"}
{"event":"details","time":1490598795,"u":"25","run":"357.65","mem":"41.95","data":"Zip process exit code: 0"}
{"event":"details","time":1490598795,"u":"25","run":"357.65","mem":"41.95","data":"Zip process reported: 0 warnings"}
{"event":"details","time":1490598795,"u":"25","run":"357.65","mem":"41.95","data":"Moving Zip Archive file to local archive directory."}
{"event":"details","time":1490598795,"u":"25","run":"357.65","mem":"41.96","data":"Zip Archive file moved to local archive directory."}
{"event":"message","time":1490598795,"u":"25","run":"357.65","mem":"41.96","data":"Zip Archive file successfully created with no errors or actionable warnings."}
{"event":"details","time":1490598795,"u":"25","run":"357.65","mem":"41.96","data":"Zip Archive file size: 77321195 bytes, owned by user:group 542:554 with permissions 0600"}
{"event":"details","time":1490598795,"u":"25","run":"357.65","mem":"41.96","data":"Removing temporary directory."}
{"event":"details","time":1490598795,"u":"26","run":"357.66","mem":"41.96","data":"The exec method for ZIP was successful."}
{"event":"message","time":1490598795,"u":"26","run":"357.66","mem":"41.93","data":"Backup ZIP file successfully created."}
{"event":"details","time":1490598795,"u":"26","run":"357.66","mem":"41.94","data":"Chmod of ZIP file to 0644 succeeded."}
{"event":"details","time":1490598795,"u":"26","run":"357.66","mem":"41.94","data":"Saving meta data to zip comment."}
{"event":"startAction","time":1490598795,"u":"26","run":"357.66","mem":"41.95","data":"zipCommentMeta"}
{"event":"details","time":1490598884,"u":"10","run":"446.50","mem":"41.96","data":"exec (zip) set comment in file \/home\/loanssco\/public_html\/wp-content\/uploads\/backupbuddy_backups\/backup-loanss_com_au-2017_03_27-07_07am-full-j43fuvajbs.zip"}
{"event":"finishAction","time":1490598884,"u":"10","run":"446.51","mem":"41.95","data":"zipCommentMeta"}
{"event":"details","time":1490598884,"u":"10","run":"446.51","mem":"41.95","data":"Saved meta data to zip comment."}
{"event":"details","time":1490598884,"u":"10","run":"446.51","mem":"41.96","data":"Database kicker loaded. Database object class: `W3TC\\DbCache_Wpdb` with database of type `mysqli`."}
{"event":"details","time":1490598884,"u":"10","run":"446.51","mem":"41.96","data":"Pinging mysqli."}
{"event":"details","time":1490598884,"u":"10","run":"446.51","mem":"41.96","data":"Database Server connection status verified."}
{"event":"details","time":1490598884,"u":"11","run":"446.52","mem":"41.97","data":"Fileoptions `j43fuvajbs.txt` saved. 6968 bytes written."}
{"event":"details","time":1490598884,"u":"11","run":"446.52","mem":"41.96","data":"Finished function `backup_zip_files`. Peak memory usage: 44.554 MB with BackupBuddy v7.2.2.6"}
{"event":"finishFunction","time":1490598884,"u":"11","run":"446.52","mem":"41.96","data":"{\"function\":\"backup_zip_files\"}"}
{"event":"details","time":1490598884,"u":"12","run":"446.52","mem":"41.96","data":"-----"}
{"event":"details","time":1490598884,"u":"12","run":"446.52","mem":"41.97","data":"Classic mode; skipping cron & triggering next step."}
{"event":"details","time":1490598884,"u":"12","run":"446.52","mem":"41.98","data":"Fileoptions `j43fuvajbs.txt` saved. 7000 bytes written."}
{"event":"details","time":1490598884,"u":"12","run":"446.52","mem":"41.97","data":"Found next step to run: `integrity_check`."}
{"event":"details","time":1490598884,"u":"12","run":"446.52","mem":"41.97","data":"Peak memory usage: 44.554 MB"}
{"event":"details","time":1490598884,"u":"12","run":"446.52","mem":"41.98","data":"-----"}
{"event":"details","time":1490598884,"u":"12","run":"446.52","mem":"41.98","data":"Starting step function `integrity_check`. Attempt #1."}
{"event":"startFunction","time":1490598884,"u":"12","run":"446.52","mem":"41.98","data":"{\"function\":\"integrity_check\",\"title\":\"Verifying backup file integrity\"}"}
{"event":"milestone","time":1490598884,"u":"12","run":"446.52","mem":"41.98","data":"start_integrity"}
{"event":"message","time":1490598884,"u":"12","run":"446.52","mem":"41.99","data":"Scanning and verifying backup file integrity."}
{"event":"details","time":1490598884,"u":"12","run":"446.52","mem":"41.99","data":"Starting integrity check on `\/home\/loanssco\/public_html\/wp-content\/uploads\/backupbuddy_backups\/backup-loanss_com_au-2017_03_27-07_07am-full-j43fuvajbs.zip`."}
{"event":"details","time":1490598884,"u":"13","run":"446.53","mem":"42.10","data":"Started backup_integrity_check() function for `j43fuvajbs` for file `\/home\/loanssco\/public_html\/wp-content\/uploads\/backupbuddy_backups\/backup-loanss_com_au-2017_03_27-07_07am-full-j43fuvajbs.zip`."}
{"event":"details","time":1490598884,"u":"13","run":"446.53","mem":"42.10","data":"Verifying comment in zip archive."}
{"event":"details","time":1490598884,"u":"15","run":"446.55","mem":"42.11","data":"exec (unzip) retrieved comment in file \/home\/loanssco\/public_html\/wp-content\/uploads\/backupbuddy_backups\/backup-loanss_com_au-2017_03_27-07_07am-full-j43fuvajbs.zip"}
{"event":"details","time":1490598884,"u":"15","run":"446.55","mem":"42.11","data":"NOTE: It is normal to see several \"File not found\" messages in the next several log lines."}
{"event":"details","time":1490598884,"u":"15","run":"446.55","mem":"42.11","data":"Verifying DAT file in zip archive."}
{"event":"details","time":1490598884,"u":"17","run":"446.57","mem":"42.12","data":"File found (exec): wp-content\/uploads\/backupbuddy_temp\/j43fuvajbs\/backupbuddy_dat.php"}
{"event":"details","time":1490598884,"u":"18","run":"446.58","mem":"42.13","data":"File not found (exec): wp-content\/uploads\/temp_j43fuvajbs\/backupbuddy_dat.php"}
{"event":"details","time":1490598884,"u":"19","run":"446.59","mem":"42.13","data":"File not found (exec): backupbuddy_dat.php"}
{"event":"details","time":1490598884,"u":"19","run":"446.59","mem":"42.12","data":"Verifying database SQL file in zip archive."}
{"event":"details","time":1490598884,"u":"19","run":"446.60","mem":"42.13","data":"Forcing to a single db_1.sql file was NOT enabled for this backup."}
{"event":"details","time":1490598884,"u":"19","run":"446.60","mem":"42.13","data":"BackupBuddy v5.0+ format database detected."}
{"event":"details","time":1490598884,"u":"19","run":"446.60","mem":"42.13","data":"Not database-only type backup."}
{"event":"details","time":1490598884,"u":"21","run":"446.61","mem":"42.14","data":"File not found (exec): wp-content\/uploads\/backupbuddy_temp\/j43fuvajbs\/db_1.sql"}
{"event":"details","time":1490598884,"u":"21","run":"446.61","mem":"42.14","data":"PHP based database dump type."}
{"event":"details","time":1490598884,"u":"22","run":"446.63","mem":"42.14","data":"File found (exec): wp-content\/uploads\/backupbuddy_temp\/j43fuvajbs\/ycaawd_commentmeta.sql"}
{"event":"details","time":1490598884,"u":"24","run":"446.64","mem":"42.15","data":"File found (exec): wp-content\/uploads\/backupbuddy_temp\/j43fuvajbs\/ycaawd_comments.sql"}
{"event":"details","time":1490598884,"u":"26","run":"446.66","mem":"42.15","data":"File found (exec): wp-content\/uploads\/backupbuddy_temp\/j43fuvajbs\/ycaawd_itsec_lockouts.sql"}
{"event":"details","time":1490598884,"u":"29","run":"446.69","mem":"42.15","data":"File found (exec): wp-content\/uploads\/backupbuddy_temp\/j43fuvajbs\/ycaawd_itsec_log.sql"}
{"event":"details","time":1490598884,"u":"31","run":"446.71","mem":"42.15","data":"File found (exec): wp-content\/uploads\/backupbuddy_temp\/j43fuvajbs\/ycaawd_itsec_temp.sql"}
{"event":"details","time":1490598884,"u":"32","run":"446.72","mem":"42.16","data":"File found (exec): wp-content\/uploads\/backupbuddy_temp\/j43fuvajbs\/ycaawd_links.sql"}
{"event":"details","time":1490598884,"u":"35","run":"446.75","mem":"42.16","data":"File found (exec): wp-content\/uploads\/backupbuddy_temp\/j43fuvajbs\/ycaawd_options.sql"}
{"event":"details","time":1490598884,"u":"36","run":"446.76","mem":"42.16","data":"File found (exec): wp-content\/uploads\/backupbuddy_temp\/j43fuvajbs\/ycaawd_postmeta.sql"}
{"event":"details","time":1490598884,"u":"39","run":"446.79","mem":"42.16","data":"File found (exec): wp-content\/uploads\/backupbuddy_temp\/j43fuvajbs\/ycaawd_posts.sql"}
{"event":"details","time":1490598884,"u":"40","run":"446.80","mem":"42.16","data":"File found (exec): wp-content\/uploads\/backupbuddy_temp\/j43fuvajbs\/ycaawd_term_relationships.sql"}
{"event":"details","time":1490598884,"u":"42","run":"446.82","mem":"42.17","data":"File found (exec): wp-content\/uploads\/backupbuddy_temp\/j43fuvajbs\/ycaawd_term_taxonomy.sql"}
{"event":"details","time":1490598884,"u":"43","run":"446.83","mem":"42.17","data":"File found (exec): wp-content\/uploads\/backupbuddy_temp\/j43fuvajbs\/ycaawd_termmeta.sql"}
{"event":"details","time":1490598884,"u":"45","run":"446.85","mem":"42.17","data":"File found (exec): wp-content\/uploads\/backupbuddy_temp\/j43fuvajbs\/ycaawd_terms.sql"}
{"event":"details","time":1490598884,"u":"46","run":"446.87","mem":"42.17","data":"File found (exec): wp-content\/uploads\/backupbuddy_temp\/j43fuvajbs\/ycaawd_usermeta.sql"}
{"event":"details","time":1490598884,"u":"48","run":"446.88","mem":"42.17","data":"File found (exec): wp-content\/uploads\/backupbuddy_temp\/j43fuvajbs\/ycaawd_users.sql"}
{"event":"details","time":1490598884,"u":"48","run":"446.88","mem":"42.17","data":"Verifying WordPress wp-config.php configuration file in zip archive."}
{"event":"details","time":1490598884,"u":"49","run":"446.89","mem":"42.18","data":"File found (exec): wp-config.php"}
{"event":"details","time":1490598884,"u":"51","run":"446.91","mem":"42.18","data":"File not found (exec): wp-content\/uploads\/backupbuddy_temp\/j43fuvajbs\/wp-config.php"}
{"event":"details","time":1490598884,"u":"51","run":"446.91","mem":"42.18","data":"Retrieving zip scan log."}
{"event":"details","time":1490598884,"u":"51","run":"446.91","mem":"42.18","data":"Calculating integrity scan status,"}
{"event":"details","time":1490598884,"u":"51","run":"446.91","mem":"42.18","data":"Status: `Pass`. Description: ``."}
{"event":"details","time":1490598884,"u":"51","run":"446.91","mem":"42.18","data":"Getting file details such as size, timestamp, etc."}
{"event":"details","time":1490598884,"u":"51","run":"446.91","mem":"42.19","data":"Saving backup file integrity check details."}
{"event":"details","time":1490598884,"u":"51","run":"446.91","mem":"42.33","data":"Fileoptions `j43fuvajbs.txt` saved. 7696 bytes written."}
{"event":"milestone","time":1490598884,"u":"51","run":"446.91","mem":"42.08","data":"finish_integrity"}
{"event":"details","time":1490598884,"u":"51","run":"446.91","mem":"42.09","data":"Fileoptions `j43fuvajbs.txt` saved. 7744 bytes written."}
{"event":"details","time":1490598884,"u":"51","run":"446.91","mem":"42.08","data":"Finished function `integrity_check`. Peak memory usage: 44.554 MB with BackupBuddy v7.2.2.6"}
{"event":"finishFunction","time":1490598884,"u":"51","run":"446.91","mem":"42.08","data":"{\"function\":\"integrity_check\"}"}
{"event":"details","time":1490598884,"u":"51","run":"446.91","mem":"42.09","data":"-----"}
{"event":"details","time":1490598884,"u":"51","run":"446.91","mem":"42.09","data":"Classic mode; skipping cron & triggering next step."}
{"event":"details","time":1490598884,"u":"52","run":"446.92","mem":"42.11","data":"Fileoptions `j43fuvajbs.txt` saved. 7788 bytes written."}
{"event":"details","time":1490598884,"u":"52","run":"446.92","mem":"42.10","data":"Found next step to run: `post_backup`."}
{"event":"details","time":1490598884,"u":"52","run":"446.92","mem":"42.10","data":"Peak memory usage: 44.554 MB"}
{"event":"details","time":1490598884,"u":"52","run":"446.92","mem":"42.10","data":"-----"}
{"event":"details","time":1490598884,"u":"52","run":"446.92","mem":"42.10","data":"Starting step function `post_backup`. Attempt #1."}
{"event":"startFunction","time":1490598884,"u":"52","run":"446.92","mem":"42.10","data":"{\"function\":\"post_backup\",\"title\":\"Cleaning up\"}"}
{"event":"message","time":1490598884,"u":"52","run":"446.92","mem":"42.11","data":"Cleaning up after backup."}
{"event":"details","time":1490598884,"u":"52","run":"446.92","mem":"42.11","data":"Removing temp data directory."}
{"event":"details","time":1490598884,"u":"55","run":"446.95","mem":"42.24","data":"Trimming old archives (if needed)."}
{"event":"details","time":1490598884,"u":"55","run":"446.95","mem":"42.25","data":"Trimmed 0 old archives based on settings archive limits."}
{"event":"details","time":1490598884,"u":"55","run":"446.95","mem":"42.12","data":"Final ZIP file size: 73.74 MB"}
{"event":"archiveSize","time":1490598884,"u":"55","run":"446.95","mem":"42.12","data":"73.74 MB"}
{"event":"details","time":1490598884,"u":"55","run":"446.95","mem":"42.13","data":"Updating statistics for last backup completed and number of edits since last backup."}
{"event":"details","time":1490598884,"u":"59","run":"446.99","mem":"42.42","data":"Cleaning up any old temporary zip directories in: `\/home\/loanssco\/public_html\/wp-content\/uploads\/backupbuddy_temp\/`. If no recent backups then the temp directory will also be purged."}
{"event":"details","time":1490598884,"u":"59","run":"446.99","mem":"42.42","data":"Sending scheduled backup complete email notification."}
{"event":"details","time":1490598884,"u":"59","run":"447.00","mem":"42.55","data":"Fileoptions instance #37."}
{"event":"details","time":1490598884,"u":"59","run":"447.00","mem":"42.59","data":"Fileoptions load using 0.03 MB of memory."}
{"event":"details","time":1490598884,"u":"60","run":"447.00","mem":"42.62","data":"Sending email schedule notification. Subject: `BackupBuddy Scheduled Backup Complete - http:\/\/loanss.com.au`; recipient(s): ``."}
{"event":"message","time":1490598884,"u":"60","run":"447.01","mem":"42.44","data":"Finished cleaning up."}
{"event":"archiveInfo","time":1490598884,"u":"60","run":"447.01","mem":"42.44","data":"{\"file\":\"backup-loanss_com_au-2017_03_27-07_07am-full-j43fuvajbs.zip\",\"url\":\"http:\\\/\\\/loanss.com.au\\\/wp-admin\\\/admin-ajax.php?action=pb_backupbuddy_backupbuddy&function=download_archive&backupbuddy_backup=backup-loanss_com_au-2017_03_27-07_07am-full-j43fuvajbs.zip\"}"}
{"event":"details","time":1490598884,"u":"60","run":"447.01","mem":"42.46","data":"Fileoptions `j43fuvajbs.txt` saved. 7848 bytes written."}
{"event":"details","time":1490598884,"u":"60","run":"447.01","mem":"42.45","data":"Finished function `post_backup`. Peak memory usage: 44.554 MB with BackupBuddy v7.2.2.6"}
{"event":"finishFunction","time":1490598884,"u":"60","run":"447.01","mem":"42.45","data":"{\"function\":\"post_backup\"}"}
{"event":"details","time":1490598884,"u":"61","run":"447.01","mem":"42.45","data":"-----"}
{"event":"details","time":1490598884,"u":"61","run":"447.01","mem":"42.45","data":"Classic mode; skipping cron & triggering next step."}
{"event":"details","time":1490598884,"u":"61","run":"447.01","mem":"42.60","data":"Fileoptions `j43fuvajbs.txt` saved. 7892 bytes written."}
{"event":"details","time":1490598884,"u":"61","run":"447.01","mem":"42.59","data":"Found next step to run: `send_remote_destination`."}
{"event":"details","time":1490598884,"u":"61","run":"447.01","mem":"42.59","data":"Peak memory usage: 44.554 MB"}
{"event":"details","time":1490598884,"u":"61","run":"447.01","mem":"42.59","data":"-----"}
{"event":"details","time":1490598884,"u":"61","run":"447.01","mem":"42.59","data":"Starting step function `send_remote_destination`. Attempt #1."}
{"event":"startFunction","time":1490598884,"u":"61","run":"447.01","mem":"42.59","data":"{\"function\":\"send_remote_destination\",\"title\":\"send_remote_destination\"}"}
{"event":"details","time":1490598884,"u":"61","run":"447.01","mem":"42.60","data":"Sending file to remote destination ID: `0`. Delete after: `1`."}
{"event":"details","time":1490598884,"u":"61","run":"447.01","mem":"42.60","data":"IMPORTANT: If the transfer is set to be chunked then only the first chunk status will be displayed during this process. Subsequent chunks will happen after this has finished."}
{"event":"details","time":1490598884,"u":"61","run":"447.01","mem":"42.60","data":"Sending file `\/home\/loanssco\/public_html\/wp-content\/uploads\/backupbuddy_backups\/backup-loanss_com_au-2017_03_27-07_07am-full-j43fuvajbs.zip` to remote destination `0` with ID `ev65r85jtaot` triggered by ``."}
{"event":"details","time":1490598884,"u":"61","run":"447.01","mem":"42.60","data":"Fileoptions instance #35."}
{"event":"details","time":1490598884,"u":"61","run":"447.02","mem":"42.61","data":"Created fileoptions lock file `send-ev65r85jtaot.txt.lock` with ID: 58d8213496f741.18117944."}
{"event":"details","time":1490598884,"u":"61","run":"447.02","mem":"42.61","data":"Fileoptions load using 0 MB of memory."}
{"event":"details","time":1490598884,"u":"62","run":"447.02","mem":"42.62","data":"Not sending importbuddy."}
{"event":"details","time":1490598884,"u":"62","run":"447.02","mem":"42.63","data":"Fileoptions `send-ev65r85jtaot.txt` saved. 648 bytes written."}
{"event":"details","time":1490598884,"u":"62","run":"447.02","mem":"42.63","data":"Unlocked fileoptions lock file `send-ev65r85jtaot.txt.lock` in with lock ID `58d8213496f741.18117944`."}
{"event":"details","time":1490598884,"u":"62","run":"447.02","mem":"42.78","data":"Calling destination send() function."}
{"event":"details","time":1490598884,"u":"62","run":"447.02","mem":"42.79","data":"Adding status serial `remote_send-ev65r85jtaot`."}
{"event":"details","time":1490598884,"u":"62","run":"447.02","mem":"42.79","data":"----- Initiating master send function for BackupBuddy v7.2.2.6 for basename file: `backup-loanss_com_au-2017_03_27-07_07am-full-j43fuvajbs.zip`. Post-send deletion: 1"}
{"event":"details","time":1490598884,"u":"62","run":"447.02","mem":"42.80","data":"Created fileoptions lock file `send-ev65r85jtaot.txt.lock` with ID: 58d821349906f2.70421159."}
{"event":"details","time":1490598884,"u":"62","run":"447.02","mem":"42.81","data":"Fileoptions load using 0.01 MB of memory."}
{"event":"details","time":1490598884,"u":"62","run":"447.02","mem":"42.81","data":"Fileoptions `send-ev65r85jtaot.txt` saved. 1528 bytes written."}
{"event":"details","time":1490598884,"u":"62","run":"447.03","mem":"42.81","data":"Initializing destination."}
{"event":"details","time":1490598884,"u":"63","run":"447.03","mem":"42.82","data":"Loading destination init file `\/home\/loanssco\/public_html\/wp-content\/plugins\/backupbuddy\/destinations\/s32\/init.php`."}
{"event":"details","time":1490598884,"u":"64","run":"447.04","mem":"43.06","data":"Destination init loaded."}
{"event":"details","time":1490598884,"u":"64","run":"447.04","mem":"43.06","data":"Initialized `s32` destination."}
{"event":"details","time":1490598884,"u":"64","run":"447.04","mem":"43.06","data":"Applying destination-specific defaults."}
{"event":"details","time":1490598884,"u":"64","run":"447.04","mem":"43.08","data":"Applying global destination defaults."}
{"event":"details","time":1490598884,"u":"64","run":"447.04","mem":"43.08","data":"Calling destination-specific send method."}
{"event":"details","time":1490598884,"u":"64","run":"447.05","mem":"43.09","data":"Starting S32 send()."}
{"event":"details","time":1490598884,"u":"66","run":"447.06","mem":"43.54","data":"Using bundled cacert.pem file based on destination settings."}
{"event":"details","time":1490598884,"u":"83","run":"447.24","mem":"45.56","data":"Guzzle client cainfo: `\/home\/loanssco\/public_html\/wp-content\/plugins\/backupbuddy\/destinations\/_s3lib2\/Guzzle\/Http\/Resources\/cacert.pem`. capath: `n\/a`."}
{"event":"details","time":1490598884,"u":"93","run":"447.34","mem":"46.05","data":"File size of `73.74 MB`."}
{"event":"details","time":1490598884,"u":"93","run":"447.34","mem":"46.06","data":"AWS Multipart cleanup beginning."}
{"event":"details","time":1490598885,"u":"31","run":"447.71","mem":"47.83","data":"Multipart upload check retrieved. Found `0` multipart uploads in progress \/ stalled. Old BackupBuddy parts will be cleaned up (if any found) ..."}
{"event":"details","time":1490598885,"u":"31","run":"447.71","mem":"47.84","data":"AWS Multipart cleanup finished."}
{"event":"details","time":1490598885,"u":"31","run":"447.71","mem":"47.84","data":"Initiating multipart transfer."}
{"event":"details","time":1490598885,"u":"33","run":"447.74","mem":"47.98","data":"Initiated multipart upload with ID `altF8Df1oVxv8Ixjnfhck8HfQ79KzY6dD1i5G7ji1IYvLcRbI4yuWbXBPo5UoKwTvftWqO_gcGN8DgEP5VxD5DfEGNUtCmHh6gW2nuUP2sc-`."}
{"event":"details","time":1490598885,"u":"33","run":"447.74","mem":"47.99","data":"Detecting backup type if possible."}
{"event":"details","time":1490598885,"u":"33","run":"447.74","mem":"47.99","data":"Detected backup type as `full` via filename."}
{"event":"details","time":1490598885,"u":"34","run":"447.74","mem":"48.00","data":"Multipart initiated; passing over to send first chunk this run. Burst size: `15 MB`."}
{"event":"details","time":1490598885,"u":"34","run":"447.74","mem":"48.00","data":"Max time not set in settings so detecting server max PHP runtime."}
{"event":"details","time":1490598885,"u":"34","run":"447.74","mem":"48.01","data":"Using max runtime: `356`."}
{"event":"details","time":1490598885,"u":"34","run":"447.74","mem":"48.01","data":"About to read in part contents of part `1` of `5` parts of file `\/home\/loanssco\/public_html\/wp-content\/uploads\/backupbuddy_backups\/backup-loanss_com_au-2017_03_27-07_07am-full-j43fuvajbs.zip` to remote location `Loans\/backup-loanss_com_au-2017_03_27-07_07am-full-j43fuvajbs.zip` with multipart ID `altF8Df1oVxv8Ixjnfhck8HfQ79KzY6dD1i5G7ji1IYvLcRbI4yuWbXBPo5UoKwTvftWqO_gcGN8DgEP5VxD5DfEGNUtCmHh6gW2nuUP2sc-`."}
{"event":"details","time":1490598885,"u":"35","run":"447.75","mem":"63.03","data":"Beginning upload."}
{"event":"details","time":1490598896,"u":"24","run":"458.64","mem":"63.23","data":"Success sending chunk. Enable full logging for upload result details."}
{"event":"details","time":1490598896,"u":"24","run":"458.64","mem":"63.23","data":"Uploaded size this burst: `15 MB`, Start time: `1490559285.34`. Finish time: `1490559296.25`. Elapsed: `10.906195879`. Speed: `1.38 MB`\/sec."}
{"event":"details","time":1490598896,"u":"24","run":"458.65","mem":"63.24","data":"About to load fileoptions data."}
{"event":"details","time":1490598896,"u":"24","run":"458.65","mem":"63.24","data":"Fileoptions instance #10."}
{"event":"details","time":1490598896,"u":"24","run":"458.65","mem":"63.25","data":"Created fileoptions lock file `send-ev65r85jtaot.txt.lock` with ID: 58d821403cccb1.32274242."}
{"event":"details","time":1490598896,"u":"24","run":"458.65","mem":"63.26","data":"Fileoptions load using 0.01 MB of memory."}
{"event":"details","time":1490598896,"u":"25","run":"458.65","mem":"63.26","data":"Fileoptions data loaded."}
{"event":"details","time":1490598896,"u":"25","run":"458.65","mem":"63.26","data":"S3 multipart upload has more parts left."}
{"event":"details","time":1490598896,"u":"25","run":"458.65","mem":"63.27","data":"Not approaching limits. Proceeding to next burst this run."}
{"event":"details","time":1490598896,"u":"25","run":"458.65","mem":"63.28","data":"Fileoptions `send-ev65r85jtaot.txt` saved. 1756 bytes written."}
{"event":"details","time":1490598896,"u":"25","run":"458.65","mem":"63.28","data":"About to read in part contents of part `2` of `5` parts of file `\/home\/loanssco\/public_html\/wp-content\/uploads\/backupbuddy_backups\/backup-loanss_com_au-2017_03_27-07_07am-full-j43fuvajbs.zip` to remote location `Loans\/backup-loanss_com_au-2017_03_27-07_07am-full-j43fuvajbs.zip` with multipart ID `altF8Df1oVxv8Ixjnfhck8HfQ79KzY6dD1i5G7ji1IYvLcRbI4yuWbXBPo5UoKwTvftWqO_gcGN8DgEP5VxD5DfEGNUtCmHh6gW2nuUP2sc-`."}
{"event":"details","time":1490598896,"u":"26","run":"458.66","mem":"63.28","data":"Beginning upload."}
{"event":"details","time":1490598912,"u":"09","run":"474.49","mem":"63.29","data":"Success sending chunk. Enable full logging for upload result details."}
{"event":"details","time":1490598912,"u":"09","run":"474.49","mem":"63.29","data":"Uploaded size this burst: `15 MB`, Start time: `1490559296.25`. Finish time: `1490559312.09`. Elapsed: `15.8408460617`. Speed: `970 KB`\/sec."}
{"event":"details","time":1490598912,"u":"09","run":"474.49","mem":"63.30","data":"fileoptions already loaded from prior pass."}
{"event":"details","time":1490598912,"u":"09","run":"474.49","mem":"63.30","data":"S3 multipart upload has more parts left."}
{"event":"details","time":1490598912,"u":"09","run":"474.49","mem":"63.31","data":"Not approaching limits. Proceeding to next burst this run."}
{"event":"details","time":1490598912,"u":"09","run":"474.49","mem":"63.31","data":"Fileoptions `send-ev65r85jtaot.txt` saved. 1756 bytes written."}
{"event":"details","time":1490598912,"u":"09","run":"474.49","mem":"63.32","data":"About to read in part contents of part `3` of `5` parts of file `\/home\/loanssco\/public_html\/wp-content\/uploads\/backupbuddy_backups\/backup-loanss_com_au-2017_03_27-07_07am-full-j43fuvajbs.zip` to remote location `Loans\/backup-loanss_com_au-2017_03_27-07_07am-full-j43fuvajbs.zip` with multipart ID `altF8Df1oVxv8Ixjnfhck8HfQ79KzY6dD1i5G7ji1IYvLcRbI4yuWbXBPo5UoKwTvftWqO_gcGN8DgEP5VxD5DfEGNUtCmHh6gW2nuUP2sc-`."}
{"event":"details","time":1490598912,"u":"10","run":"474.50","mem":"63.32","data":"Beginning upload."}
{"event":"details","time":1490598912,"u":"98","run":"475.38","mem":"63.32","data":"Success sending chunk. Enable full logging for upload result details."}
{"event":"details","time":1490598912,"u":"98","run":"475.38","mem":"63.33","data":"Uploaded size this burst: `15 MB`, Start time: `1490559312.1`. Finish time: `1490559312.99`. Elapsed: `0.892346143723`. Speed: `16.81 MB`\/sec."}
{"event":"details","time":1490598912,"u":"98","run":"475.39","mem":"63.33","data":"fileoptions already loaded from prior pass."}
{"event":"details","time":1490598912,"u":"98","run":"475.39","mem":"63.34","data":"S3 multipart upload has more parts left."}
{"event":"details","time":1490598912,"u":"98","run":"475.39","mem":"63.34","data":"Not approaching limits. Proceeding to next burst this run."}
{"event":"details","time":1490598912,"u":"99","run":"475.39","mem":"63.35","data":"Fileoptions `send-ev65r85jtaot.txt` saved. 1756 bytes written."}
{"event":"details","time":1490598912,"u":"99","run":"475.39","mem":"63.35","data":"About to read in part contents of part `4` of `5` parts of file `\/home\/loanssco\/public_html\/wp-content\/uploads\/backupbuddy_backups\/backup-loanss_com_au-2017_03_27-07_07am-full-j43fuvajbs.zip` to remote location `Loans\/backup-loanss_com_au-2017_03_27-07_07am-full-j43fuvajbs.zip` with multipart ID `altF8Df1oVxv8Ixjnfhck8HfQ79KzY6dD1i5G7ji1IYvLcRbI4yuWbXBPo5UoKwTvftWqO_gcGN8DgEP5VxD5DfEGNUtCmHh6gW2nuUP2sc-`."}
{"event":"details","time":1490598913,"u":"00","run":"475.40","mem":"63.35","data":"Beginning upload."}
{"event":"details","time":1490598914,"u":"01","run":"476.41","mem":"63.36","data":"Success sending chunk. Enable full logging for upload result details."}
{"event":"details","time":1490598914,"u":"01","run":"476.41","mem":"63.36","data":"Uploaded size this burst: `15 MB`, Start time: `1490559313`. Finish time: `1490559314.02`. Elapsed: `1.02085804939`. Speed: `14.69 MB`\/sec."}
{"event":"details","time":1490598914,"u":"01","run":"476.42","mem":"63.37","data":"fileoptions already loaded from prior pass."}
{"event":"details","time":1490598914,"u":"01","run":"476.42","mem":"63.37","data":"S3 multipart upload has more parts left."}
{"event":"details","time":1490598914,"u":"01","run":"476.42","mem":"63.38","data":"Not approaching limits. Proceeding to next burst this run."}
{"event":"details","time":1490598914,"u":"02","run":"476.42","mem":"63.38","data":"Fileoptions `send-ev65r85jtaot.txt` saved. 1756 bytes written."}
{"event":"details","time":1490598914,"u":"02","run":"476.42","mem":"63.39","data":"About to read in part contents of part `5` of `5` parts of file `\/home\/loanssco\/public_html\/wp-content\/uploads\/backupbuddy_backups\/backup-loanss_com_au-2017_03_27-07_07am-full-j43fuvajbs.zip` to remote location `Loans\/backup-loanss_com_au-2017_03_27-07_07am-full-j43fuvajbs.zip` with multipart ID `altF8Df1oVxv8Ixjnfhck8HfQ79KzY6dD1i5G7ji1IYvLcRbI4yuWbXBPo5UoKwTvftWqO_gcGN8DgEP5VxD5DfEGNUtCmHh6gW2nuUP2sc-`."}
{"event":"details","time":1490598914,"u":"02","run":"476.42","mem":"62.13","data":"Beginning upload."}
{"event":"details","time":1490598914,"u":"79","run":"477.19","mem":"62.13","data":"Success sending chunk. Enable full logging for upload result details."}
{"event":"details","time":1490598914,"u":"79","run":"477.19","mem":"62.14","data":"Uploaded size this burst: `13.74 MB`, Start time: `1490559314.02`. Finish time: `1490559314.79`. Elapsed: `0.772845029831`. Speed: `17.78 MB`\/sec."}
{"event":"details","time":1490598914,"u":"79","run":"477.19","mem":"62.14","data":"fileoptions already loaded from prior pass."}
{"event":"details","time":1490598914,"u":"79","run":"477.19","mem":"62.15","data":"Getting etags and notifying of multipart upload completion."}
{"event":"details","time":1490598915,"u":"03","run":"477.43","mem":"62.20","data":"Server notified of multipart completion."}
{"event":"details","time":1490598915,"u":"03","run":"477.43","mem":"62.21","data":"No more parts left for this multipart upload. Clearing multipart instance variables."}
{"event":"details","time":1490598915,"u":"03","run":"477.43","mem":"62.21","data":"Upload speed average of all chunks: `3.56 MB`."}
{"event":"details","time":1490598915,"u":"03","run":"477.44","mem":"62.22","data":"Fileoptions `send-ev65r85jtaot.txt` saved. 1688 bytes written."}
{"event":"details","time":1490598915,"u":"03","run":"477.44","mem":"62.21","data":"Full backup archive limit of `5` of type `full` based on destination settings."}
{"event":"details","time":1490598915,"u":"03","run":"477.44","mem":"62.21","data":"Archive limit enforcement beginning."}
{"event":"details","time":1490598915,"u":"54","run":"477.94","mem":"62.24","data":"Found `6` backups of this type when checking archive limits out of `6` total files in this location."}
{"event":"details","time":1490598915,"u":"54","run":"477.94","mem":"62.25","data":"More archives (6) than limit (5) allows. Trimming..."}
{"event":"details","time":1490598915,"u":"54","run":"477.94","mem":"62.25","data":"Trimming excess file `backup-loanss_com_au-2017_03_16-07_30am-full-rx4m4254cs.zip`..."}
{"event":"details","time":1490598915,"u":"57","run":"477.97","mem":"62.26","data":"Finished trimming excess backups."}
{"event":"details","time":1490598915,"u":"57","run":"477.97","mem":"62.26","data":"Stash completed archive limiting."}
{"event":"details","time":1490598915,"u":"57","run":"477.98","mem":"48.48","data":"Completed send function. Success."}
{"event":"details","time":1490598915,"u":"57","run":"477.98","mem":"48.49","data":"About to load fileoptions data."}
{"event":"details","time":1490598915,"u":"57","run":"477.98","mem":"48.49","data":"Fileoptions instance #16."}
{"event":"details","time":1490598915,"u":"57","run":"477.98","mem":"48.50","data":"Created fileoptions lock file `send-ev65r85jtaot.txt.lock` with ID: 58d821538d8a57.46997574."}
{"event":"details","time":1490598915,"u":"58","run":"477.98","mem":"48.51","data":"Fileoptions load using 0.01 MB of memory."}
{"event":"details","time":1490598915,"u":"58","run":"477.98","mem":"48.51","data":"Fileoptions data loaded."}
{"event":"details","time":1490598915,"u":"58","run":"477.98","mem":"48.51","data":"Post-send deletion enabled."}
{"event":"details","time":1490598915,"u":"58","run":"477.98","mem":"48.52","data":"Performing post-send deletion since transfer succeeded."}
{"event":"details","time":1490598915,"u":"58","run":"477.98","mem":"48.52","data":"Deleting local file `\/home\/loanssco\/public_html\/wp-content\/uploads\/backupbuddy_backups\/backup-loanss_com_au-2017_03_27-07_07am-full-j43fuvajbs.zip`."}
{"event":"details","time":1490598915,"u":"59","run":"477.99","mem":"48.53","data":"Deleted local file after successful remote destination send based on settings."}
{"event":"archiveDeleted","time":1490598915,"u":"59","run":"477.99","mem":"48.53","data":""}
{"event":"details","time":1490598915,"u":"59","run":"478.00","mem":"48.54","data":"Finished sending email NOT enabled. Skipping."}
{"event":"details","time":1490598915,"u":"61","run":"478.01","mem":"48.59","data":"Ending send() function pass."}
{"event":"details","time":1490598915,"u":"61","run":"478.01","mem":"48.58","data":"Finished destination send() function."}
{"event":"details","time":1490598915,"u":"61","run":"478.01","mem":"48.58","data":"Database kicker loaded. Database object class: `W3TC\\DbCache_Wpdb` with database of type `mysqli`."}
{"event":"details","time":1490598915,"u":"61","run":"478.01","mem":"48.58","data":"Pinging mysqli."}
{"event":"details","time":1490598915,"u":"61","run":"478.01","mem":"48.58","data":"Database Server connection status verified."}
{"event":"details","time":1490598915,"u":"61","run":"478.01","mem":"48.59","data":"About to load fileoptions data for saving send status."}
{"event":"details","time":1490598915,"u":"61","run":"478.01","mem":"48.59","data":"Fileoptions instance #34."}
{"event":"details","time":1490598915,"u":"61","run":"478.01","mem":"48.59","data":"Created fileoptions lock file `send-ev65r85jtaot.txt.lock` with ID: 58d821539648f6.85302504."}
{"event":"details","time":1490598915,"u":"61","run":"478.01","mem":"48.60","data":"Fileoptions load using 0.01 MB of memory."}
{"event":"details","time":1490598915,"u":"61","run":"478.01","mem":"48.60","data":"Fileoptions data loaded for ID `ev65r85jtaot`."}
{"event":"details","time":1490598915,"u":"61","run":"478.01","mem":"48.60","data":"Remote send SUCCESS."}
{"event":"details","time":1490598915,"u":"61","run":"478.01","mem":"48.61","data":"Fileoptions `send-ev65r85jtaot.txt` saved. 1800 bytes written."}
{"event":"details","time":1490598915,"u":"61","run":"478.01","mem":"48.61","data":"Fileoptions `j43fuvajbs.txt` saved. 7928 bytes written."}
{"event":"details","time":1490598915,"u":"61","run":"478.01","mem":"48.60","data":"Finished function `send_remote_destination`. Peak memory usage: 93.623 MB with BackupBuddy v7.2.2.6"}
{"event":"finishFunction","time":1490598915,"u":"61","run":"478.02","mem":"48.60","data":"{\"function\":\"send_remote_destination\"}"}
{"event":"details","time":1490598915,"u":"61","run":"478.02","mem":"48.60","data":"-----"}
{"event":"details","time":1490598915,"u":"61","run":"478.02","mem":"48.61","data":"No more backup steps remain. Finishing..."}
{"event":"details","time":1490598915,"u":"61","run":"478.02","mem":"48.62","data":"Fileoptions `j43fuvajbs.txt` saved. 7968 bytes written."}
{"event":"startFunction","time":1490598915,"u":"61","run":"478.02","mem":"48.61","data":"{\"function\":\"backup_success\",\"title\":\"Backup completed successfully.\"}"}
{"event":"finishFunction","time":1490598915,"u":"61","run":"478.02","mem":"48.61","data":"{\"function\":\"backup_success\"}"}
{"event":"details","time":1490598915,"u":"62","run":"478.02","mem":"48.61","data":"Closing & unlocking fileoptions."}
{"event":"details","time":1490598915,"u":"62","run":"478.02","mem":"48.64","data":"Completed step function `send_remote_destination`."}
{"event":"details","time":1490598915,"u":"62","run":"478.02","mem":"48.51","data":"Completed step function `post_backup`."}
{"event":"details","time":1490598915,"u":"62","run":"478.02","mem":"48.51","data":"Completed step function `integrity_check`."}
{"event":"details","time":1490598915,"u":"62","run":"478.02","mem":"48.51","data":"Completed step function `backup_zip_files`."}
{"event":"details","time":1490598915,"u":"62","run":"478.02","mem":"48.51","data":"Completed step function `backup_create_database_dump`."}
{"event":"details","time":1490598915,"u":"62","run":"478.02","mem":"48.52","data":"Completed step function `backup_create_database_dump`."}
{"event":"details","time":1490598915,"u":"62","run":"478.02","mem":"48.51","data":"Completed step function `backup_create_database_dump`."}
{"event":"details","time":1490598915,"u":"62","run":"478.02","mem":"48.51","data":"Finished cron_process_scheduled_backup."}
