{"event":"details","time":1489905614,"u":"87","run":"8.77","mem":"40.55","data":"BackupBuddy v7.2.2.6 using WordPress v4.7.3 on Linux."}
{"event":"details","time":1489905615,"u":"00","run":"8.90","mem":"40.56","data":"Calculated archive file: `\/home\/loanssco\/public_html\/wp-content\/uploads\/backupbuddy_backups\/backup-loanss_com_au-2017_03_19-06_40am-full-bioyr5i2vc.zip`."}
{"event":"startFunction","time":1489905615,"u":"00","run":"8.90","mem":"40.57","data":"{\"function\":\"pre_backup\",\"title\":\"Getting ready to backup\"}"}
{"event":"details","time":1489905615,"u":"00","run":"8.90","mem":"40.57","data":"Performing pre-backup procedures."}
{"event":"message","time":1489905615,"u":"00","run":"8.90","mem":"40.57","data":"Full backup mode."}
{"event":"details","time":1489905615,"u":"00","run":"8.90","mem":"40.57","data":"Flushing will not be skipped (default)."}
{"event":"details","time":1489905615,"u":"00","run":"8.90","mem":"40.58","data":"Verifying directories ..."}
{"event":"details","time":1489905615,"u":"00","run":"8.90","mem":"40.58","data":"Temporary directory invalid. Updating from `\/home\/loanssco\/public_html\/wp-content\/uploads\/backupbuddy_temp\/` to default."}
{"event":"details","time":1489905615,"u":"00","run":"8.90","mem":"40.59","data":"Directories verified."}
{"event":"details","time":1489905615,"u":"00","run":"8.90","mem":"40.59","data":"Backup serial generated: `bioyr5i2vc`."}
{"event":"details","time":1489905615,"u":"00","run":"8.90","mem":"40.59","data":"About to load fileoptions data in create mode."}
{"event":"details","time":1489905615,"u":"00","run":"8.90","mem":"40.59","data":"Fileoptions instance #40."}
{"event":"details","time":1489905615,"u":"00","run":"8.90","mem":"40.60","data":"Created fileoptions lock file `bioyr5i2vc.txt.lock` with ID: 58cd8d1f013438.08956321."}
{"event":"details","time":1489905615,"u":"00","run":"8.90","mem":"40.60","data":"Fileoptions load using 0 MB of memory."}
{"event":"details","time":1489905615,"u":"00","run":"8.90","mem":"40.60","data":"Fileoptions data loaded."}
{"event":"details","time":1489905615,"u":"00","run":"8.90","mem":"40.60","data":"Updating statistics for last backup start."}
{"event":"details","time":1489905615,"u":"00","run":"8.90","mem":"40.62","data":"Active WordPress plugins (9): `alcapiform\/alcapiform.php; backupbuddy\/backupbuddy.php; better-wp-security\/better-wp-security.php; contact-form-7\/wp-contact-form-7.php; impreza_js_composer\/impreza_js_composer.php; w3-total-cache\/w3-total-cache.php; wordpress-importer\/wordpress-importer.php; wordpress-seo\/wp-seo.php; wp-sitemap-page\/wp-sitemap-page.php`."}
{"event":"startSubFunction","time":1489905615,"u":"00","run":"8.90","mem":"40.62","data":"{\"function\":\"wp_plugins_found\",\"title\":\"Found 9 active WordPress plugins.\"}"}
{"event":"details","time":1489905615,"u":"00","run":"8.90","mem":"40.62","data":"Initially calculated relative backup storage directory: `\/wp-content\/uploads\/backupbuddy_backups\/."}
{"event":"details","time":1489905615,"u":"00","run":"8.90","mem":"40.63","data":"Initial directory exclusions (after filter): `\/.sucuriquarantine\/; \/wp-content\/uploads\/sucuri\/; \/wp-content\/envato-backups\/; \/wp-content\/uploads\/backwpup; \/wp-content\/backup-db\/; \/wp-snapshots\/; \/wp-content\/ai1wm-backups\/; \/wp-content\/plugins\/wordfence\/tmp\/; \/wp-content\/cache\/supercache\/; \/error_log; \/wp-content\/uploads\/backupbuddy_backups\/; \/wp-content\/uploads\/pb_backupbuddy\/; \/importbuddy\/; \/importbuddy.php`."}
{"event":"startSubFunction","time":1489905615,"u":"00","run":"8.90","mem":"40.64","data":"{\"function\":\"file_excludes\",\"title\":\"Found 14 file or directory exclusions.\"}"}
{"event":"details","time":1489905615,"u":"00","run":"8.91","mem":"40.64","data":"Temp directory: `\/home\/loanssco\/public_html\/wp-content\/uploads\/backupbuddy_temp\/bioyr5i2vc\/`."}
{"event":"details","time":1489905615,"u":"00","run":"8.91","mem":"40.64","data":"Backup root: `\/home\/loanssco\/public_html\/`."}
{"event":"details","time":1489905615,"u":"00","run":"8.91","mem":"40.64","data":"wp-config.php found in normal location."}
{"event":"details","time":1489905615,"u":"00","run":"8.91","mem":"40.65","data":"Calculating mysql database tables to backup."}
{"event":"details","time":1489905615,"u":"01","run":"8.91","mem":"40.65","data":"Base database dump mode (before inclusions\/exclusions): `prefix`."}
{"event":"details","time":1489905615,"u":"01","run":"8.91","mem":"40.65","data":"Determining database tables with prefix `ycaawd_`."}
{"event":"startAction","time":1489905615,"u":"01","run":"8.91","mem":"40.65","data":"schemaTables"}
{"event":"finishAction","time":1489905615,"u":"02","run":"8.92","mem":"40.66","data":"schemaTables"}
{"event":"details","time":1489905615,"u":"02","run":"8.92","mem":"40.65","data":"Base database tables based on settings (15 tables): `ycaawd_commentmeta,ycaawd_comments,ycaawd_itsec_lockouts,ycaawd_itsec_log,ycaawd_itsec_temp,ycaawd_links,ycaawd_options,ycaawd_postmeta,ycaawd_posts,ycaawd_term_relationships,ycaawd_term_taxonomy,ycaawd_termmeta,ycaawd_terms,ycaawd_usermeta,ycaawd_users`"}
{"event":"details","time":1489905615,"u":"02","run":"8.92","mem":"40.66","data":"Database tables after addition (15 tables): `ycaawd_commentmeta,ycaawd_comments,ycaawd_itsec_lockouts,ycaawd_itsec_log,ycaawd_itsec_temp,ycaawd_links,ycaawd_options,ycaawd_postmeta,ycaawd_posts,ycaawd_term_relationships,ycaawd_term_taxonomy,ycaawd_termmeta,ycaawd_terms,ycaawd_usermeta,ycaawd_users`"}
{"event":"details","time":1489905615,"u":"02","run":"8.92","mem":"40.66","data":"Database tables after exclusion (15 tables): `ycaawd_commentmeta,ycaawd_comments,ycaawd_itsec_lockouts,ycaawd_itsec_log,ycaawd_itsec_temp,ycaawd_links,ycaawd_options,ycaawd_postmeta,ycaawd_posts,ycaawd_term_relationships,ycaawd_term_taxonomy,ycaawd_termmeta,ycaawd_terms,ycaawd_usermeta,ycaawd_users`"}
{"event":"startSubFunction","time":1489905615,"u":"02","run":"8.92","mem":"40.66","data":"{\"function\":\"calculate_tables\",\"title\":\"Found 15 tables to backup based on settings.\",\"more\":\"Tables: ycaawd_commentmeta, ycaawd_comments, ycaawd_itsec_lockouts, ycaawd_itsec_log, ycaawd_itsec_temp, ycaawd_links, ycaawd_options, ycaawd_postmeta, ycaawd_posts, ycaawd_term_relationships, ycaawd_term_taxonomy, ycaawd_termmeta, ycaawd_terms, ycaawd_usermeta, ycaawd_users\"}"}
{"event":"details","time":1489905615,"u":"15","run":"9.05","mem":"40.71","data":"Total calculated database size: `7.61 MB`."}
{"event":"details","time":1489905615,"u":"15","run":"9.05","mem":"40.71","data":"Breaking out tables ENABLED based on settings. Tables to be broken out into individual steps: `ycaawd_posts, ycaawd_postmeta`."}
{"event":"details","time":1489905615,"u":"15","run":"9.05","mem":"40.72","data":"Integrity check will be performed based on settings for this profile."}
{"event":"details","time":1489905615,"u":"15","run":"9.05","mem":"40.74","data":"Fileoptions `bioyr5i2vc.txt` saved. 6432 bytes written."}
{"event":"details","time":1489905615,"u":"15","run":"9.05","mem":"40.74","data":"Creating DAT (data) file snapshotting site & backup information."}
{"event":"details","time":1489905615,"u":"15","run":"9.05","mem":"40.74","data":"wp-config.php found in normal location."}
{"event":"startSubFunction","time":1489905615,"u":"16","run":"9.06","mem":"40.71","data":"{\"function\":\"post_count\",\"title\":\"Found 23 posts, 19 pages, and 9 comments.\"}"}
{"event":"startSubFunction","time":1489905615,"u":"16","run":"9.06","mem":"40.71","data":"{\"function\":\"post_count\",\"title\":\"Found 3 user accounts.\"}"}
{"event":"details","time":1489905615,"u":"16","run":"9.06","mem":"40.74","data":"DAT file contents (sans database user\/pass): Array; (;     [backupbuddy_version] => 7.2.2.6;     [wordpress_version] => 4.7.3;     [backup_time] => 1489866015;     [backup_type] => full;     [profile] => Array;         (;             [type] => full;             [title] => Complete Backup;             [skip_database_dump] => 0;             [mysqldump_additional_includes] => ;             [mysqldump_additional_excludes] => ;             [backup_nonwp_tables] => 0;             [excludes] => ;             [integrity_check] => 1;             [profile_globaltables] => 1;             [profile_globalexcludes] => 1;             [backup_mode] => 1;         ); ;     [default_profile] => Array;         (;             [type] => defaults;             [title] => Global Defaults;             [skip_database_dump] => 0;             [mysqldump_additional_includes] => ;             [mysqldump_additional_excludes] => ;             [backup_nonwp_tables] => 0;             [excludes] => ;             [integrity_check] => 1;             [profile_globaltables] => 1;             [profile_globalexcludes] => 1;             [backup_mode] => -1;         ); ;     [serial] => bioyr5i2vc;     [trigger] => scheduled;     [wp-config_in_parent] => ;     [deployment_direction] => ;     [abspath] => \/home\/loanssco\/public_html\/;     [siteurl] => http:\/\/loanss.com.au;     [homeurl] => http:\/\/loanss.com.au;     [blogname] => loanss.com.au;     [blogdescription] => loanss.com.au;     [active_plugins] => alcapiform\/alcapiform.php, backupbuddy\/backupbuddy.php, better-wp-security\/better-wp-security.php, contact-form-7\/wp-contact-form-7.php, impreza_js_composer\/impreza_js_composer.php, w3-total-cache\/w3-total-cache.php, wordpress-importer\/wordpress-importer.php, wordpress-seo\/wp-seo.php, wp-sitemap-page\/wp-sitemap-page.php;     [posts] => 23;     [pages] => 19;     [comments] => 9;     [users] => 3;     [wp_content_url] => http:\/\/loanss.com.au\/wp-content;     [wp_content_dir] => \/home\/loanssco\/public_html\/wp-content;     [db_charset] => utf8mb4;     [db_collate] => utf8mb4_unicode_ci;     [db_prefix] => ycaawd_;     [db_server] => localhost;     [db_name] => loanssco_a6H5x;     [db_user] => ;     [db_password] => ;     [db_exclusions] => ;     [db_inclusions] => ;     [db_version] => 5.5.5;     [breakout_tables] => Array;         (;             [0] => ycaawd_posts;             [1] => ycaawd_postmeta;         ); ;     [tables_sizes] => Array;         (;             [ycaawd_commentmeta] => 12480;             [ycaawd_comments] => 126672;             [ycaawd_itsec_lockouts] => 98304;             [ycaawd_itsec_log] => 4243456;             [ycaawd_itsec_temp] => 81920;             [ycaawd_links] => 3700;             [ycaawd_options] => 1597824;             [ycaawd_postmeta] => 370552;             [ycaawd_posts] => 1373628;             [ycaawd_term_relationships] => 14834;             [ycaawd_term_taxonomy] => 12760;             [ycaawd_termmeta] => 4096;             [ycaawd_terms] => 13908;             [ycaawd_usermeta] => 20476;             [ycaawd_users] => 5568;         ); ;     [force_single_db_file] => ;     [skip_database_dump] => 0;     [is_multisite] => ;     [is_multisite_export] => ;     [domain] => ;     [path] => ;     [upload_url] => ;     [upload_url_rewrite] => ; ); "}
{"event":"details","time":1489905615,"u":"16","run":"9.06","mem":"40.73","data":"Finished creating DAT (data) file."}
{"event":"details","time":1489905615,"u":"16","run":"9.06","mem":"40.73","data":"Generating ImportBuddy tool to include in backup archive: `\/home\/loanssco\/public_html\/wp-content\/uploads\/backupbuddy_temp\/bioyr5i2vc\/importbuddy.php`."}
{"event":"startAction","time":1489905615,"u":"16","run":"9.06","mem":"40.73","data":"importbuddyCreation"}
{"event":"details","time":1489905615,"u":"16","run":"9.06","mem":"40.73","data":"Checking max PHP execution time settings."}
{"event":"details","time":1489905615,"u":"16","run":"9.06","mem":"40.73","data":"Skipped attempting to override max PHP execution time based on settings."}
{"event":"details","time":1489905615,"u":"16","run":"9.06","mem":"40.74","data":"Reported PHP execution time - Configured: 60; Original: 600; Current: 600"}
{"event":"details","time":1489905615,"u":"16","run":"9.06","mem":"40.74","data":"Attempted to set PHP memory limit to user defined WP_MAX_MEMORY_LIMIT (256M) or over-ridden value"}
{"event":"details","time":1489905615,"u":"16","run":"9.06","mem":"40.74","data":"Reported PHP memory limits - Configured: 128M; Original: 128M; Current: 128M"}
{"event":"warning","time":1489905615,"u":"16","run":"9.06","mem":"40.74","data":"Warning #9032 - You have not set an ImportBuddy password on the BackupBuddy Settings page. Once this password is set a copy of the importbuddy.php file needed to restore your backup will be included in Full backup zip files for convenience. It may manually be downloaded from the Restore \/ Migrate page."}
{"event":"finishAction","time":1489905615,"u":"16","run":"9.06","mem":"40.75","data":"importbuddyCreation"}
{"event":"details","time":1489905615,"u":"16","run":"9.06","mem":"40.75","data":"ImportBuddy generation complete."}
{"event":"details","time":1489905615,"u":"16","run":"9.06","mem":"40.76","data":"Deleting malware transient."}
{"event":"details","time":1489905615,"u":"16","run":"9.07","mem":"40.78","data":"Fileoptions `bioyr5i2vc.txt` saved. 6600 bytes written."}
{"event":"details","time":1489905615,"u":"17","run":"9.07","mem":"40.77","data":"Finished pre-backup procedures."}
{"event":"milestone","time":1489905615,"u":"17","run":"9.07","mem":"40.77","data":"finish_settings"}
{"event":"finishFunction","time":1489905615,"u":"17","run":"9.07","mem":"40.77","data":"{\"function\":\"pre_backup\"}"}
{"event":"message","time":1489905615,"u":"17","run":"9.07","mem":"40.77","data":"Running in classic backup mode based on settings."}
{"event":"details","time":1489905615,"u":"18","run":"9.08","mem":"40.80","data":"Fileoptions `bioyr5i2vc.txt` saved. 6640 bytes written."}
{"event":"details","time":1489905615,"u":"19","run":"9.09","mem":"40.79","data":"Found next step to run: `backup_create_database_dump`."}
{"event":"details","time":1489905615,"u":"19","run":"9.09","mem":"40.79","data":"Peak memory usage: 40.975 MB"}
{"event":"details","time":1489905615,"u":"19","run":"9.09","mem":"40.80","data":"-----"}
{"event":"details","time":1489905615,"u":"19","run":"9.09","mem":"40.80","data":"Starting step function `backup_create_database_dump`. Attempt #1."}
{"event":"startFunction","time":1489905615,"u":"19","run":"9.09","mem":"40.80","data":"{\"function\":\"backup_create_database_dump\",\"title\":\"Backing up database\"}"}
{"event":"milestone","time":1489905615,"u":"19","run":"9.09","mem":"40.80","data":"start_database"}
{"event":"message","time":1489905615,"u":"19","run":"9.09","mem":"40.81","data":"Starting database backup process."}
{"event":"details","time":1489905615,"u":"31","run":"9.21","mem":"41.05","data":"PHP-based mysqldump (if applicable) max rows per select set to 1000."}
{"event":"details","time":1489905615,"u":"32","run":"9.22","mem":"41.07","data":"Database host for dumping: `localhost`"}
{"event":"details","time":1489905615,"u":"32","run":"9.22","mem":"41.07","data":"Loading mysqlbuddy library."}
{"event":"details","time":1489905615,"u":"32","run":"9.22","mem":"41.07","data":"Mysql server default directories: `\/usr\/bin\/,\/usr\/bin\/mysql\/,\/usr\/local\/bin\/`"}
{"event":"details","time":1489905615,"u":"32","run":"9.22","mem":"41.07","data":"mysqlbuddy: Force method of `1` passed."}
{"event":"message","time":1489905615,"u":"32","run":"9.22","mem":"41.08","data":"mysqlbuddy: Settings overriding automatic detection of available database dump methods. Using forced override methods: `php`."}
{"event":"message","time":1489905615,"u":"32","run":"9.22","mem":"41.08","data":"mysqlbuddy: Detected database dump methods: `php`."}
{"event":"details","time":1489905615,"u":"32","run":"9.22","mem":"41.08","data":"Max execution time chunking disabled by passing -1 to constructor. No chunking will be used for the database dump."}
{"event":"details","time":1489905615,"u":"32","run":"9.22","mem":"41.08","data":"This server's mysql version: `5.5.5`."}
{"event":"milestone","time":1489905615,"u":"32","run":"9.22","mem":"41.08","data":"start_database"}
{"event":"message","time":1489905615,"u":"32","run":"9.22","mem":"41.09","data":"Starting database dump procedure."}
{"event":"details","time":1489905615,"u":"32","run":"9.22","mem":"41.09","data":"mysqlbuddy: Output directory: `\/home\/loanssco\/public_html\/wp-content\/uploads\/backupbuddy_temp\/bioyr5i2vc\/`."}
{"event":"details","time":1489905615,"u":"32","run":"9.22","mem":"41.09","data":"Table dump count: `13`."}
{"event":"details","time":1489905615,"u":"32","run":"9.23","mem":"41.09","data":"Preparing to dump using available method(s) by priority. Methods: `php`"}
{"event":"details","time":1489905615,"u":"32","run":"9.23","mem":"41.09","data":"mysqlbuddy: Attempting dump method `php`."}
{"event":"details","time":1489905615,"u":"33","run":"9.23","mem":"41.10","data":"Loading DB kicker for use leter in case database goes away."}
{"event":"details","time":1489905615,"u":"33","run":"9.23","mem":"41.13","data":"Database kicker loaded. Database object class: `W3TC\\DbCache_Wpdb` with database of type `mysqli`."}
{"event":"details","time":1489905615,"u":"33","run":"9.23","mem":"41.13","data":"Dumping database table `ycaawd_commentmeta`. Max rows per select: 1000. Starting at row `0`."}
{"event":"startTableDump","time":1489905615,"u":"33","run":"9.24","mem":"41.13","data":"ycaawd_commentmeta"}
{"event":"details","time":1489905615,"u":"34","run":"9.24","mem":"41.13","data":"SQL dump file `\/home\/loanssco\/public_html\/wp-content\/uploads\/backupbuddy_temp\/bioyr5i2vc\/ycaawd_commentmeta.sql`."}
{"event":"details","time":1489905615,"u":"34","run":"9.24","mem":"41.14","data":"Database max execution time chunking disabled based on -1 passed."}
{"event":"sqlFile","time":1489905615,"u":"34","run":"9.24","mem":"41.14","data":"ycaawd_commentmeta.sql"}
{"event":"details","time":1489905615,"u":"34","run":"9.24","mem":"41.15","data":"Got `0` rows from `ycaawd_commentmeta` of `1000` max."}
{"event":"details","time":1489905615,"u":"34","run":"9.24","mem":"41.16","data":"Dumped `0` rows total from `ycaawd_commentmeta`. No rows remain."}
{"event":"details","time":1489905615,"u":"34","run":"9.24","mem":"41.16","data":"Pinging mysqli."}
{"event":"details","time":1489905615,"u":"34","run":"9.24","mem":"41.16","data":"Database Server connection status verified."}
{"event":"details","time":1489905615,"u":"34","run":"9.24","mem":"41.17","data":"Finished dumping database table `ycaawd_commentmeta`."}
{"event":"finishTableDump","time":1489905615,"u":"34","run":"9.24","mem":"41.17","data":"ycaawd_commentmeta"}
{"event":"details","time":1489905615,"u":"34","run":"9.24","mem":"41.17","data":"Database SQL dump file (ycaawd_commentmeta.sql) size: 562 Bytes"}
{"event":"sqlSize","time":1489905615,"u":"34","run":"9.24","mem":"41.18","data":"562"}
{"event":"details","time":1489905615,"u":"34","run":"9.24","mem":"41.18","data":"About to flush..."}
{"event":"details","time":1489905615,"u":"34","run":"9.24","mem":"41.18","data":"Dumping database table `ycaawd_comments`. Max rows per select: 1000. Starting at row `0`."}
{"event":"startTableDump","time":1489905615,"u":"34","run":"9.25","mem":"41.18","data":"ycaawd_comments"}
{"event":"details","time":1489905615,"u":"35","run":"9.25","mem":"41.18","data":"SQL dump file `\/home\/loanssco\/public_html\/wp-content\/uploads\/backupbuddy_temp\/bioyr5i2vc\/ycaawd_comments.sql`."}
{"event":"details","time":1489905615,"u":"35","run":"9.25","mem":"41.19","data":"Database max execution time chunking disabled based on -1 passed."}
{"event":"sqlFile","time":1489905615,"u":"35","run":"9.25","mem":"41.19","data":"ycaawd_comments.sql"}
{"event":"details","time":1489905615,"u":"35","run":"9.26","mem":"41.20","data":"Got `3` rows from `ycaawd_comments` of `1000` max."}
{"event":"details","time":1489905615,"u":"36","run":"9.26","mem":"41.24","data":"Dumped `3` rows total from `ycaawd_comments`. No rows remain."}
{"event":"details","time":1489905615,"u":"36","run":"9.26","mem":"41.24","data":"Pinging mysqli."}
{"event":"details","time":1489905615,"u":"36","run":"9.26","mem":"41.24","data":"Database Server connection status verified."}
{"event":"details","time":1489905615,"u":"36","run":"9.26","mem":"41.24","data":"Finished dumping database table `ycaawd_comments`."}
{"event":"finishTableDump","time":1489905615,"u":"36","run":"9.26","mem":"41.24","data":"ycaawd_comments"}
{"event":"details","time":1489905615,"u":"36","run":"9.26","mem":"41.25","data":"Database SQL dump file (ycaawd_comments.sql) size: 5 KB"}
{"event":"sqlSize","time":1489905615,"u":"36","run":"9.26","mem":"41.25","data":"4950"}
{"event":"details","time":1489905615,"u":"36","run":"9.26","mem":"41.25","data":"About to flush..."}
{"event":"details","time":1489905615,"u":"36","run":"9.26","mem":"41.25","data":"Dumping database table `ycaawd_itsec_lockouts`. Max rows per select: 1000. Starting at row `0`."}
{"event":"startTableDump","time":1489905615,"u":"36","run":"9.26","mem":"41.26","data":"ycaawd_itsec_lockouts"}
{"event":"details","time":1489905615,"u":"36","run":"9.26","mem":"41.26","data":"SQL dump file `\/home\/loanssco\/public_html\/wp-content\/uploads\/backupbuddy_temp\/bioyr5i2vc\/ycaawd_itsec_lockouts.sql`."}
{"event":"details","time":1489905615,"u":"36","run":"9.26","mem":"41.26","data":"Database max execution time chunking disabled based on -1 passed."}
{"event":"sqlFile","time":1489905615,"u":"36","run":"9.26","mem":"41.26","data":"ycaawd_itsec_lockouts.sql"}
{"event":"details","time":1489905615,"u":"37","run":"9.27","mem":"41.22","data":"Got `0` rows from `ycaawd_itsec_lockouts` of `1000` max."}
{"event":"details","time":1489905615,"u":"37","run":"9.27","mem":"41.25","data":"Dumped `0` rows total from `ycaawd_itsec_lockouts`. No rows remain."}
{"event":"details","time":1489905615,"u":"37","run":"9.27","mem":"41.25","data":"Pinging mysqli."}
{"event":"details","time":1489905615,"u":"37","run":"9.27","mem":"41.25","data":"Database Server connection status verified."}
{"event":"details","time":1489905615,"u":"37","run":"9.27","mem":"41.25","data":"Finished dumping database table `ycaawd_itsec_lockouts`."}
{"event":"finishTableDump","time":1489905615,"u":"37","run":"9.27","mem":"41.26","data":"ycaawd_itsec_lockouts"}
{"event":"details","time":1489905615,"u":"37","run":"9.27","mem":"41.26","data":"Database SQL dump file (ycaawd_itsec_lockouts.sql) size: 895 Bytes"}
{"event":"sqlSize","time":1489905615,"u":"37","run":"9.27","mem":"41.26","data":"895"}
{"event":"details","time":1489905615,"u":"37","run":"9.27","mem":"41.26","data":"About to flush..."}
{"event":"details","time":1489905615,"u":"37","run":"9.27","mem":"41.26","data":"Dumping database table `ycaawd_itsec_log`. Max rows per select: 1000. Starting at row `0`."}
{"event":"startTableDump","time":1489905615,"u":"38","run":"9.29","mem":"41.27","data":"ycaawd_itsec_log"}
{"event":"details","time":1489905615,"u":"38","run":"9.29","mem":"41.27","data":"SQL dump file `\/home\/loanssco\/public_html\/wp-content\/uploads\/backupbuddy_temp\/bioyr5i2vc\/ycaawd_itsec_log.sql`."}
{"event":"details","time":1489905615,"u":"39","run":"9.29","mem":"41.27","data":"Database max execution time chunking disabled based on -1 passed."}
{"event":"sqlFile","time":1489905615,"u":"39","run":"9.29","mem":"41.27","data":"ycaawd_itsec_log.sql"}
{"event":"details","time":1489905615,"u":"52","run":"9.42","mem":"42.99","data":"Got `482` rows from `ycaawd_itsec_log` of `1000` max."}
{"event":"details","time":1489905619,"u":"62","run":"13.52","mem":"43.01","data":"Dumped `482` rows total from `ycaawd_itsec_log`. No rows remain."}
{"event":"details","time":1489905619,"u":"62","run":"13.52","mem":"43.02","data":"Pinging mysqli."}
{"event":"details","time":1489905619,"u":"62","run":"13.52","mem":"43.02","data":"Database Server connection status verified."}
{"event":"details","time":1489905619,"u":"62","run":"13.52","mem":"43.02","data":"Finished dumping database table `ycaawd_itsec_log`."}
{"event":"finishTableDump","time":1489905619,"u":"62","run":"13.52","mem":"43.02","data":"ycaawd_itsec_log"}
{"event":"details","time":1489905619,"u":"62","run":"13.52","mem":"43.02","data":"Database SQL dump file (ycaawd_itsec_log.sql) size: 2.47 MB"}
{"event":"sqlSize","time":1489905619,"u":"62","run":"13.52","mem":"43.03","data":"2588653"}
{"event":"details","time":1489905619,"u":"62","run":"13.52","mem":"43.03","data":"About to flush..."}
{"event":"details","time":1489905619,"u":"62","run":"13.52","mem":"43.03","data":"Dumping database table `ycaawd_itsec_temp`. Max rows per select: 1000. Starting at row `0`."}
{"event":"startTableDump","time":1489905619,"u":"62","run":"13.52","mem":"43.03","data":"ycaawd_itsec_temp"}
{"event":"details","time":1489905619,"u":"62","run":"13.52","mem":"43.03","data":"SQL dump file `\/home\/loanssco\/public_html\/wp-content\/uploads\/backupbuddy_temp\/bioyr5i2vc\/ycaawd_itsec_temp.sql`."}
{"event":"details","time":1489905619,"u":"62","run":"13.52","mem":"43.04","data":"Database max execution time chunking disabled based on -1 passed."}
{"event":"sqlFile","time":1489905619,"u":"62","run":"13.52","mem":"43.04","data":"ycaawd_itsec_temp.sql"}
{"event":"details","time":1489905619,"u":"64","run":"13.54","mem":"41.29","data":"Got `2` rows from `ycaawd_itsec_temp` of `1000` max."}
{"event":"details","time":1489905619,"u":"64","run":"13.54","mem":"41.31","data":"Dumped `2` rows total from `ycaawd_itsec_temp`. No rows remain."}
{"event":"details","time":1489905619,"u":"64","run":"13.54","mem":"41.31","data":"Pinging mysqli."}
{"event":"details","time":1489905619,"u":"64","run":"13.54","mem":"41.31","data":"Database Server connection status verified."}
{"event":"details","time":1489905619,"u":"64","run":"13.54","mem":"41.31","data":"Finished dumping database table `ycaawd_itsec_temp`."}
{"event":"finishTableDump","time":1489905619,"u":"64","run":"13.54","mem":"41.31","data":"ycaawd_itsec_temp"}
{"event":"details","time":1489905619,"u":"64","run":"13.54","mem":"41.32","data":"Database SQL dump file (ycaawd_itsec_temp.sql) size: 943 Bytes"}
{"event":"sqlSize","time":1489905619,"u":"64","run":"13.54","mem":"41.32","data":"943"}
{"event":"details","time":1489905619,"u":"64","run":"13.54","mem":"41.32","data":"About to flush..."}
{"event":"details","time":1489905619,"u":"64","run":"13.54","mem":"41.32","data":"Dumping database table `ycaawd_links`. Max rows per select: 1000. Starting at row `0`."}
{"event":"startTableDump","time":1489905619,"u":"64","run":"13.54","mem":"41.32","data":"ycaawd_links"}
{"event":"details","time":1489905619,"u":"64","run":"13.54","mem":"41.33","data":"SQL dump file `\/home\/loanssco\/public_html\/wp-content\/uploads\/backupbuddy_temp\/bioyr5i2vc\/ycaawd_links.sql`."}
{"event":"details","time":1489905619,"u":"64","run":"13.54","mem":"41.33","data":"Database max execution time chunking disabled based on -1 passed."}
{"event":"sqlFile","time":1489905619,"u":"64","run":"13.54","mem":"41.33","data":"ycaawd_links.sql"}
{"event":"details","time":1489905619,"u":"65","run":"13.55","mem":"41.35","data":"Got `8` rows from `ycaawd_links` of `1000` max."}
{"event":"details","time":1489905619,"u":"65","run":"13.55","mem":"41.38","data":"Dumped `8` rows total from `ycaawd_links`. No rows remain."}
{"event":"details","time":1489905619,"u":"65","run":"13.55","mem":"41.38","data":"Pinging mysqli."}
{"event":"details","time":1489905619,"u":"65","run":"13.55","mem":"41.38","data":"Database Server connection status verified."}
{"event":"details","time":1489905619,"u":"65","run":"13.55","mem":"41.38","data":"Finished dumping database table `ycaawd_links`."}
{"event":"finishTableDump","time":1489905619,"u":"65","run":"13.55","mem":"41.39","data":"ycaawd_links"}
{"event":"details","time":1489905619,"u":"65","run":"13.55","mem":"41.39","data":"Database SQL dump file (ycaawd_links.sql) size: 2 KB"}
{"event":"sqlSize","time":1489905619,"u":"65","run":"13.56","mem":"41.39","data":"2169"}
{"event":"details","time":1489905619,"u":"65","run":"13.56","mem":"41.39","data":"About to flush..."}
{"event":"details","time":1489905619,"u":"66","run":"13.56","mem":"41.40","data":"Dumping database table `ycaawd_options`. Max rows per select: 1000. Starting at row `0`."}
{"event":"startTableDump","time":1489905619,"u":"66","run":"13.56","mem":"41.40","data":"ycaawd_options"}
{"event":"details","time":1489905619,"u":"66","run":"13.56","mem":"41.40","data":"SQL dump file `\/home\/loanssco\/public_html\/wp-content\/uploads\/backupbuddy_temp\/bioyr5i2vc\/ycaawd_options.sql`."}
{"event":"details","time":1489905619,"u":"66","run":"13.56","mem":"41.40","data":"Database max execution time chunking disabled based on -1 passed."}
{"event":"sqlFile","time":1489905619,"u":"66","run":"13.56","mem":"41.40","data":"ycaawd_options.sql"}
{"event":"details","time":1489905619,"u":"67","run":"13.57","mem":"41.72","data":"Got `229` rows from `ycaawd_options` of `1000` max."}
{"event":"details","time":1489905620,"u":"61","run":"14.51","mem":"41.72","data":"Dumped `229` rows total from `ycaawd_options`. No rows remain."}
{"event":"details","time":1489905620,"u":"61","run":"14.51","mem":"41.73","data":"Pinging mysqli."}
{"event":"details","time":1489905620,"u":"61","run":"14.51","mem":"41.73","data":"Database Server connection status verified."}
{"event":"details","time":1489905620,"u":"61","run":"14.51","mem":"41.73","data":"Finished dumping database table `ycaawd_options`."}
{"event":"finishTableDump","time":1489905620,"u":"61","run":"14.51","mem":"41.73","data":"ycaawd_options"}
{"event":"details","time":1489905620,"u":"61","run":"14.51","mem":"41.73","data":"Database SQL dump file (ycaawd_options.sql) size: 1.27 MB"}
{"event":"sqlSize","time":1489905620,"u":"61","run":"14.51","mem":"41.74","data":"1336427"}
{"event":"details","time":1489905620,"u":"61","run":"14.51","mem":"41.74","data":"About to flush..."}
{"event":"details","time":1489905620,"u":"61","run":"14.51","mem":"41.74","data":"Dumping database table `ycaawd_term_relationships`. Max rows per select: 1000. Starting at row `0`."}
{"event":"startTableDump","time":1489905620,"u":"61","run":"14.51","mem":"41.74","data":"ycaawd_term_relationships"}
{"event":"details","time":1489905620,"u":"61","run":"14.51","mem":"41.74","data":"SQL dump file `\/home\/loanssco\/public_html\/wp-content\/uploads\/backupbuddy_temp\/bioyr5i2vc\/ycaawd_term_relationships.sql`."}
{"event":"details","time":1489905620,"u":"61","run":"14.51","mem":"41.75","data":"Database max execution time chunking disabled based on -1 passed."}
{"event":"sqlFile","time":1489905620,"u":"61","run":"14.51","mem":"41.75","data":"ycaawd_term_relationships.sql"}
{"event":"details","time":1489905620,"u":"62","run":"14.52","mem":"41.62","data":"Got `170` rows from `ycaawd_term_relationships` of `1000` max."}
{"event":"details","time":1489905620,"u":"62","run":"14.52","mem":"41.62","data":"Dumped `170` rows total from `ycaawd_term_relationships`. No rows remain."}
{"event":"details","time":1489905620,"u":"62","run":"14.52","mem":"41.62","data":"Pinging mysqli."}
{"event":"details","time":1489905620,"u":"62","run":"14.52","mem":"41.63","data":"Database Server connection status verified."}
{"event":"details","time":1489905620,"u":"62","run":"14.52","mem":"41.63","data":"Finished dumping database table `ycaawd_term_relationships`."}
{"event":"finishTableDump","time":1489905620,"u":"62","run":"14.52","mem":"41.63","data":"ycaawd_term_relationships"}
{"event":"details","time":1489905620,"u":"62","run":"14.52","mem":"41.63","data":"Database SQL dump file (ycaawd_term_relationships.sql) size: 12 KB"}
{"event":"sqlSize","time":1489905620,"u":"62","run":"14.52","mem":"41.63","data":"11842"}
{"event":"details","time":1489905620,"u":"62","run":"14.52","mem":"41.64","data":"About to flush..."}
{"event":"details","time":1489905620,"u":"62","run":"14.52","mem":"41.64","data":"Dumping database table `ycaawd_term_taxonomy`. Max rows per select: 1000. Starting at row `0`."}
{"event":"startTableDump","time":1489905620,"u":"62","run":"14.52","mem":"41.64","data":"ycaawd_term_taxonomy"}
{"event":"details","time":1489905620,"u":"62","run":"14.52","mem":"41.64","data":"SQL dump file `\/home\/loanssco\/public_html\/wp-content\/uploads\/backupbuddy_temp\/bioyr5i2vc\/ycaawd_term_taxonomy.sql`."}
{"event":"details","time":1489905620,"u":"62","run":"14.52","mem":"41.64","data":"Database max execution time chunking disabled based on -1 passed."}
{"event":"sqlFile","time":1489905620,"u":"62","run":"14.52","mem":"41.65","data":"ycaawd_term_taxonomy.sql"}
{"event":"details","time":1489905620,"u":"62","run":"14.52","mem":"41.61","data":"Got `96` rows from `ycaawd_term_taxonomy` of `1000` max."}
{"event":"details","time":1489905620,"u":"63","run":"14.53","mem":"41.63","data":"Dumped `96` rows total from `ycaawd_term_taxonomy`. No rows remain."}
{"event":"details","time":1489905620,"u":"63","run":"14.53","mem":"41.63","data":"Pinging mysqli."}
{"event":"details","time":1489905620,"u":"63","run":"14.53","mem":"41.63","data":"Database Server connection status verified."}
{"event":"details","time":1489905620,"u":"63","run":"14.53","mem":"41.63","data":"Finished dumping database table `ycaawd_term_taxonomy`."}
{"event":"finishTableDump","time":1489905620,"u":"63","run":"14.53","mem":"41.63","data":"ycaawd_term_taxonomy"}
{"event":"details","time":1489905620,"u":"63","run":"14.53","mem":"41.64","data":"Database SQL dump file (ycaawd_term_taxonomy.sql) size: 8 KB"}
{"event":"sqlSize","time":1489905620,"u":"63","run":"14.53","mem":"41.64","data":"8485"}
{"event":"details","time":1489905620,"u":"63","run":"14.53","mem":"41.64","data":"About to flush..."}
{"event":"details","time":1489905620,"u":"63","run":"14.53","mem":"41.64","data":"Dumping database table `ycaawd_termmeta`. Max rows per select: 1000. Starting at row `0`."}
{"event":"startTableDump","time":1489905620,"u":"63","run":"14.53","mem":"41.64","data":"ycaawd_termmeta"}
{"event":"details","time":1489905620,"u":"63","run":"14.53","mem":"41.65","data":"SQL dump file `\/home\/loanssco\/public_html\/wp-content\/uploads\/backupbuddy_temp\/bioyr5i2vc\/ycaawd_termmeta.sql`."}
{"event":"details","time":1489905620,"u":"63","run":"14.53","mem":"41.65","data":"Database max execution time chunking disabled based on -1 passed."}
{"event":"sqlFile","time":1489905620,"u":"63","run":"14.53","mem":"41.65","data":"ycaawd_termmeta.sql"}
{"event":"details","time":1489905620,"u":"63","run":"14.53","mem":"41.44","data":"Got `0` rows from `ycaawd_termmeta` of `1000` max."}
{"event":"details","time":1489905620,"u":"63","run":"14.53","mem":"41.46","data":"Dumped `0` rows total from `ycaawd_termmeta`. No rows remain."}
{"event":"details","time":1489905620,"u":"63","run":"14.53","mem":"41.46","data":"Pinging mysqli."}
{"event":"details","time":1489905620,"u":"63","run":"14.53","mem":"41.46","data":"Database Server connection status verified."}
{"event":"details","time":1489905620,"u":"63","run":"14.53","mem":"41.46","data":"Finished dumping database table `ycaawd_termmeta`."}
{"event":"finishTableDump","time":1489905620,"u":"63","run":"14.53","mem":"41.46","data":"ycaawd_termmeta"}
{"event":"details","time":1489905620,"u":"63","run":"14.53","mem":"41.46","data":"Database SQL dump file (ycaawd_termmeta.sql) size: 525 Bytes"}
{"event":"sqlSize","time":1489905620,"u":"63","run":"14.53","mem":"41.47","data":"525"}
{"event":"details","time":1489905620,"u":"63","run":"14.53","mem":"41.47","data":"About to flush..."}
{"event":"details","time":1489905620,"u":"63","run":"14.53","mem":"41.47","data":"Dumping database table `ycaawd_terms`. Max rows per select: 1000. Starting at row `0`."}
{"event":"startTableDump","time":1489905620,"u":"63","run":"14.53","mem":"41.47","data":"ycaawd_terms"}
{"event":"details","time":1489905620,"u":"63","run":"14.53","mem":"41.48","data":"SQL dump file `\/home\/loanssco\/public_html\/wp-content\/uploads\/backupbuddy_temp\/bioyr5i2vc\/ycaawd_terms.sql`."}
{"event":"details","time":1489905620,"u":"63","run":"14.53","mem":"41.48","data":"Database max execution time chunking disabled based on -1 passed."}
{"event":"sqlFile","time":1489905620,"u":"63","run":"14.53","mem":"41.48","data":"ycaawd_terms.sql"}
{"event":"details","time":1489905620,"u":"63","run":"14.53","mem":"41.63","data":"Got `96` rows from `ycaawd_terms` of `1000` max."}
{"event":"details","time":1489905621,"u":"75","run":"15.65","mem":"41.64","data":"Dumped `96` rows total from `ycaawd_terms`. No rows remain."}
{"event":"details","time":1489905621,"u":"75","run":"15.65","mem":"41.64","data":"Pinging mysqli."}
{"event":"details","time":1489905621,"u":"75","run":"15.65","mem":"41.64","data":"Database Server connection status verified."}
{"event":"details","time":1489905621,"u":"75","run":"15.66","mem":"41.65","data":"Finished dumping database table `ycaawd_terms`."}
{"event":"finishTableDump","time":1489905621,"u":"76","run":"15.66","mem":"41.65","data":"ycaawd_terms"}
{"event":"details","time":1489905621,"u":"76","run":"15.66","mem":"41.65","data":"Database SQL dump file (ycaawd_terms.sql) size: 8 KB"}
{"event":"sqlSize","time":1489905621,"u":"76","run":"15.66","mem":"41.65","data":"7859"}
{"event":"details","time":1489905621,"u":"76","run":"15.66","mem":"41.65","data":"About to flush..."}
{"event":"details","time":1489905621,"u":"76","run":"15.66","mem":"41.66","data":"Dumping database table `ycaawd_usermeta`. Max rows per select: 1000. Starting at row `0`."}
{"event":"startTableDump","time":1489905621,"u":"76","run":"15.66","mem":"41.66","data":"ycaawd_usermeta"}
{"event":"details","time":1489905621,"u":"76","run":"15.66","mem":"41.66","data":"SQL dump file `\/home\/loanssco\/public_html\/wp-content\/uploads\/backupbuddy_temp\/bioyr5i2vc\/ycaawd_usermeta.sql`."}
{"event":"details","time":1489905621,"u":"76","run":"15.66","mem":"41.66","data":"Database max execution time chunking disabled based on -1 passed."}
{"event":"sqlFile","time":1489905621,"u":"76","run":"15.66","mem":"41.67","data":"ycaawd_usermeta.sql"}
{"event":"details","time":1489905621,"u":"76","run":"15.67","mem":"41.63","data":"Got `78` rows from `ycaawd_usermeta` of `1000` max."}
{"event":"details","time":1489905621,"u":"77","run":"15.67","mem":"41.64","data":"Dumped `78` rows total from `ycaawd_usermeta`. No rows remain."}
{"event":"details","time":1489905621,"u":"77","run":"15.67","mem":"41.65","data":"Pinging mysqli."}
{"event":"details","time":1489905621,"u":"77","run":"15.67","mem":"41.65","data":"Database Server connection status verified."}
{"event":"details","time":1489905621,"u":"77","run":"15.67","mem":"41.65","data":"Finished dumping database table `ycaawd_usermeta`."}
{"event":"finishTableDump","time":1489905621,"u":"77","run":"15.67","mem":"41.65","data":"ycaawd_usermeta"}
{"event":"details","time":1489905621,"u":"77","run":"15.68","mem":"41.65","data":"Database SQL dump file (ycaawd_usermeta.sql) size: 9 KB"}
{"event":"sqlSize","time":1489905621,"u":"77","run":"15.68","mem":"41.66","data":"9232"}
{"event":"details","time":1489905621,"u":"78","run":"15.68","mem":"41.66","data":"About to flush..."}
{"event":"details","time":1489905621,"u":"78","run":"15.68","mem":"41.66","data":"Dumping database table `ycaawd_users`. Max rows per select: 1000. Starting at row `0`."}
{"event":"startTableDump","time":1489905621,"u":"78","run":"15.68","mem":"41.66","data":"ycaawd_users"}
{"event":"details","time":1489905621,"u":"78","run":"15.68","mem":"41.66","data":"SQL dump file `\/home\/loanssco\/public_html\/wp-content\/uploads\/backupbuddy_temp\/bioyr5i2vc\/ycaawd_users.sql`."}
{"event":"details","time":1489905621,"u":"78","run":"15.68","mem":"41.67","data":"Database max execution time chunking disabled based on -1 passed."}
{"event":"sqlFile","time":1489905621,"u":"78","run":"15.68","mem":"41.67","data":"ycaawd_users.sql"}
{"event":"details","time":1489905621,"u":"79","run":"15.69","mem":"41.55","data":"Got `3` rows from `ycaawd_users` of `1000` max."}
{"event":"details","time":1489905621,"u":"79","run":"15.69","mem":"41.58","data":"Dumped `3` rows total from `ycaawd_users`. No rows remain."}
{"event":"details","time":1489905621,"u":"79","run":"15.69","mem":"41.58","data":"Pinging mysqli."}
{"event":"details","time":1489905621,"u":"79","run":"15.69","mem":"41.58","data":"Database Server connection status verified."}
{"event":"details","time":1489905621,"u":"79","run":"15.69","mem":"41.58","data":"Finished dumping database table `ycaawd_users`."}
{"event":"finishTableDump","time":1489905621,"u":"79","run":"15.69","mem":"41.58","data":"ycaawd_users"}
{"event":"details","time":1489905621,"u":"79","run":"15.69","mem":"41.59","data":"Database SQL dump file (ycaawd_users.sql) size: 1 KB"}
{"event":"sqlSize","time":1489905621,"u":"79","run":"15.69","mem":"41.59","data":"1380"}
{"event":"details","time":1489905621,"u":"79","run":"15.69","mem":"41.59","data":"About to flush..."}
{"event":"details","time":1489905621,"u":"79","run":"15.69","mem":"41.59","data":"Finished PHP based SQL dump method. Ran for 6.468 sec."}
{"event":"details","time":1489905621,"u":"79","run":"15.70","mem":"41.58","data":"mysqlbuddy: Dump method `php` completed successfully."}
{"event":"milestone","time":1489905621,"u":"80","run":"15.70","mem":"41.58","data":"finish_database"}
{"event":"message","time":1489905621,"u":"80","run":"15.70","mem":"41.58","data":"Database dump procedure succeeded."}
{"event":"details","time":1489905621,"u":"80","run":"15.70","mem":"41.60","data":"Fileoptions `bioyr5i2vc.txt` saved. 6708 bytes written."}
{"event":"details","time":1489905621,"u":"80","run":"15.70","mem":"41.59","data":"Finished function `backup_create_database_dump`. Peak memory usage: 44.893 MB with BackupBuddy v7.2.2.6"}
{"event":"finishFunction","time":1489905621,"u":"80","run":"15.70","mem":"41.59","data":"{\"function\":\"backup_create_database_dump\"}"}
{"event":"details","time":1489905621,"u":"80","run":"15.70","mem":"41.59","data":"-----"}
{"event":"details","time":1489905621,"u":"80","run":"15.70","mem":"41.59","data":"Classic mode; skipping cron & triggering next step."}
{"event":"details","time":1489905621,"u":"80","run":"15.70","mem":"41.61","data":"Fileoptions `bioyr5i2vc.txt` saved. 6752 bytes written."}
{"event":"details","time":1489905621,"u":"80","run":"15.70","mem":"41.60","data":"Found next step to run: `backup_create_database_dump`."}
{"event":"details","time":1489905621,"u":"80","run":"15.70","mem":"41.60","data":"Peak memory usage: 44.893 MB"}
{"event":"details","time":1489905621,"u":"80","run":"15.70","mem":"41.60","data":"-----"}
{"event":"details","time":1489905621,"u":"80","run":"15.71","mem":"41.61","data":"Starting step function `backup_create_database_dump`. Attempt #1."}
{"event":"startFunction","time":1489905621,"u":"80","run":"15.71","mem":"41.61","data":"{\"function\":\"backup_create_database_dump\",\"title\":\"Backing up database\"}"}
{"event":"milestone","time":1489905621,"u":"81","run":"15.71","mem":"41.61","data":"start_database"}
{"event":"message","time":1489905621,"u":"81","run":"15.71","mem":"41.61","data":"Starting database backup process."}
{"event":"details","time":1489905621,"u":"81","run":"15.71","mem":"41.62","data":"PHP-based mysqldump (if applicable) max rows per select set to 1000."}
{"event":"details","time":1489905621,"u":"81","run":"15.71","mem":"41.62","data":"Database host for dumping: `localhost`"}
{"event":"details","time":1489905621,"u":"81","run":"15.71","mem":"41.62","data":"Loading mysqlbuddy library."}
{"event":"details","time":1489905621,"u":"81","run":"15.71","mem":"41.62","data":"Mysql server default directories: `\/usr\/bin\/,\/usr\/bin\/mysql\/,\/usr\/local\/bin\/`"}
{"event":"details","time":1489905621,"u":"81","run":"15.71","mem":"41.63","data":"mysqlbuddy: Force method of `1` passed."}
{"event":"message","time":1489905621,"u":"81","run":"15.71","mem":"41.63","data":"mysqlbuddy: Settings overriding automatic detection of available database dump methods. Using forced override methods: `php`."}
{"event":"message","time":1489905621,"u":"81","run":"15.71","mem":"41.63","data":"mysqlbuddy: Detected database dump methods: `php`."}
{"event":"details","time":1489905621,"u":"81","run":"15.71","mem":"41.63","data":"Max execution time chunking disabled by passing -1 to constructor. No chunking will be used for the database dump."}
{"event":"details","time":1489905621,"u":"81","run":"15.71","mem":"41.63","data":"This server's mysql version: `5.5.5`."}
{"event":"milestone","time":1489905621,"u":"81","run":"15.71","mem":"41.63","data":"start_database"}
{"event":"message","time":1489905621,"u":"81","run":"15.71","mem":"41.63","data":"Starting database dump procedure."}
{"event":"details","time":1489905621,"u":"81","run":"15.72","mem":"41.64","data":"mysqlbuddy: Output directory: `\/home\/loanssco\/public_html\/wp-content\/uploads\/backupbuddy_temp\/bioyr5i2vc\/`."}
{"event":"details","time":1489905621,"u":"81","run":"15.72","mem":"41.64","data":"Dumping single table `ycaawd_posts`."}
{"event":"details","time":1489905621,"u":"82","run":"15.72","mem":"41.64","data":"Preparing to dump using available method(s) by priority. Methods: `php`"}
{"event":"details","time":1489905621,"u":"82","run":"15.72","mem":"41.64","data":"mysqlbuddy: Attempting dump method `php`."}
{"event":"details","time":1489905621,"u":"82","run":"15.72","mem":"41.65","data":"Loading DB kicker for use leter in case database goes away."}
{"event":"details","time":1489905621,"u":"82","run":"15.72","mem":"41.65","data":"Database kicker loaded. Database object class: `W3TC\\DbCache_Wpdb` with database of type `mysqli`."}
{"event":"details","time":1489905621,"u":"82","run":"15.72","mem":"41.65","data":"Dumping database table `ycaawd_posts`. Max rows per select: 1000. Starting at row `0`."}
{"event":"startTableDump","time":1489905621,"u":"82","run":"15.72","mem":"41.66","data":"ycaawd_posts"}
{"event":"details","time":1489905621,"u":"82","run":"15.72","mem":"41.66","data":"SQL dump file `\/home\/loanssco\/public_html\/wp-content\/uploads\/backupbuddy_temp\/bioyr5i2vc\/ycaawd_posts.sql`."}
{"event":"details","time":1489905621,"u":"82","run":"15.72","mem":"41.66","data":"Database max execution time chunking disabled based on -1 passed."}
{"event":"sqlFile","time":1489905621,"u":"82","run":"15.72","mem":"41.66","data":"ycaawd_posts.sql"}
{"event":"details","time":1489905621,"u":"86","run":"15.76","mem":"44.18","data":"Got `394` rows from `ycaawd_posts` of `1000` max."}
{"event":"details","time":1489905621,"u":"91","run":"15.81","mem":"44.24","data":"Dumped `394` rows total from `ycaawd_posts`. No rows remain."}
{"event":"details","time":1489905621,"u":"91","run":"15.81","mem":"44.24","data":"Pinging mysqli."}
{"event":"details","time":1489905621,"u":"91","run":"15.81","mem":"44.24","data":"Database Server connection status verified."}
{"event":"details","time":1489905621,"u":"91","run":"15.81","mem":"44.25","data":"Finished dumping database table `ycaawd_posts`."}
{"event":"finishTableDump","time":1489905621,"u":"91","run":"15.81","mem":"44.25","data":"ycaawd_posts"}
{"event":"details","time":1489905621,"u":"91","run":"15.81","mem":"44.25","data":"Database SQL dump file (ycaawd_posts.sql) size: 1.38 MB"}
{"event":"sqlSize","time":1489905621,"u":"91","run":"15.81","mem":"44.26","data":"1442873"}
{"event":"details","time":1489905621,"u":"91","run":"15.81","mem":"44.26","data":"About to flush..."}
{"event":"details","time":1489905621,"u":"91","run":"15.81","mem":"44.26","data":"Finished PHP based SQL dump method. Ran for 0.092 sec."}
{"event":"details","time":1489905621,"u":"91","run":"15.81","mem":"43.30","data":"mysqlbuddy: Dump method `php` completed successfully."}
{"event":"milestone","time":1489905621,"u":"91","run":"15.81","mem":"43.30","data":"finish_database"}
{"event":"message","time":1489905621,"u":"91","run":"15.81","mem":"43.31","data":"Database dump procedure succeeded."}
{"event":"details","time":1489905621,"u":"91","run":"15.81","mem":"43.32","data":"Fileoptions `bioyr5i2vc.txt` saved. 6796 bytes written."}
{"event":"details","time":1489905621,"u":"91","run":"15.81","mem":"43.31","data":"Finished function `backup_create_database_dump`. Peak memory usage: 44.893 MB with BackupBuddy v7.2.2.6"}
{"event":"finishFunction","time":1489905621,"u":"91","run":"15.81","mem":"43.31","data":"{\"function\":\"backup_create_database_dump\"}"}
{"event":"details","time":1489905621,"u":"91","run":"15.81","mem":"43.31","data":"-----"}
{"event":"details","time":1489905621,"u":"91","run":"15.81","mem":"43.32","data":"Classic mode; skipping cron & triggering next step."}
{"event":"details","time":1489905621,"u":"91","run":"15.81","mem":"43.33","data":"Fileoptions `bioyr5i2vc.txt` saved. 6836 bytes written."}
{"event":"details","time":1489905621,"u":"91","run":"15.81","mem":"43.32","data":"Found next step to run: `backup_create_database_dump`."}
{"event":"details","time":1489905621,"u":"91","run":"15.81","mem":"43.33","data":"Peak memory usage: 44.893 MB"}
{"event":"details","time":1489905621,"u":"91","run":"15.81","mem":"43.33","data":"-----"}
{"event":"details","time":1489905621,"u":"91","run":"15.81","mem":"43.33","data":"Starting step function `backup_create_database_dump`. Attempt #1."}
{"event":"startFunction","time":1489905621,"u":"91","run":"15.81","mem":"43.33","data":"{\"function\":\"backup_create_database_dump\",\"title\":\"Backing up database\"}"}
{"event":"milestone","time":1489905621,"u":"91","run":"15.81","mem":"43.33","data":"start_database"}
{"event":"message","time":1489905621,"u":"91","run":"15.81","mem":"43.34","data":"Starting database backup process."}
{"event":"details","time":1489905621,"u":"91","run":"15.81","mem":"43.34","data":"PHP-based mysqldump (if applicable) max rows per select set to 1000."}
{"event":"details","time":1489905621,"u":"91","run":"15.81","mem":"43.34","data":"Database host for dumping: `localhost`"}
{"event":"details","time":1489905621,"u":"91","run":"15.81","mem":"43.34","data":"Loading mysqlbuddy library."}
{"event":"details","time":1489905621,"u":"91","run":"15.82","mem":"43.35","data":"Mysql server default directories: `\/usr\/bin\/,\/usr\/bin\/mysql\/,\/usr\/local\/bin\/`"}
{"event":"details","time":1489905621,"u":"91","run":"15.82","mem":"43.35","data":"mysqlbuddy: Force method of `1` passed."}
{"event":"message","time":1489905621,"u":"91","run":"15.82","mem":"43.35","data":"mysqlbuddy: Settings overriding automatic detection of available database dump methods. Using forced override methods: `php`."}
{"event":"message","time":1489905621,"u":"91","run":"15.82","mem":"43.35","data":"mysqlbuddy: Detected database dump methods: `php`."}
{"event":"details","time":1489905621,"u":"92","run":"15.82","mem":"43.36","data":"Max execution time chunking disabled by passing -1 to constructor. No chunking will be used for the database dump."}
{"event":"details","time":1489905621,"u":"92","run":"15.82","mem":"43.36","data":"This server's mysql version: `5.5.5`."}
{"event":"milestone","time":1489905621,"u":"92","run":"15.82","mem":"43.35","data":"start_database"}
{"event":"message","time":1489905621,"u":"92","run":"15.82","mem":"43.36","data":"Starting database dump procedure."}
{"event":"details","time":1489905621,"u":"92","run":"15.82","mem":"43.36","data":"mysqlbuddy: Output directory: `\/home\/loanssco\/public_html\/wp-content\/uploads\/backupbuddy_temp\/bioyr5i2vc\/`."}
{"event":"details","time":1489905621,"u":"92","run":"15.82","mem":"43.36","data":"Dumping single table `ycaawd_postmeta`."}
{"event":"details","time":1489905621,"u":"92","run":"15.82","mem":"43.36","data":"Preparing to dump using available method(s) by priority. Methods: `php`"}
{"event":"details","time":1489905621,"u":"92","run":"15.82","mem":"43.37","data":"mysqlbuddy: Attempting dump method `php`."}
{"event":"details","time":1489905621,"u":"92","run":"15.82","mem":"43.37","data":"Loading DB kicker for use leter in case database goes away."}
{"event":"details","time":1489905621,"u":"92","run":"15.82","mem":"43.37","data":"Database kicker loaded. Database object class: `W3TC\\DbCache_Wpdb` with database of type `mysqli`."}
{"event":"details","time":1489905621,"u":"92","run":"15.82","mem":"43.38","data":"Dumping database table `ycaawd_postmeta`. Max rows per select: 1000. Starting at row `0`."}
{"event":"startTableDump","time":1489905621,"u":"92","run":"15.82","mem":"43.38","data":"ycaawd_postmeta"}
{"event":"details","time":1489905621,"u":"92","run":"15.82","mem":"43.38","data":"SQL dump file `\/home\/loanssco\/public_html\/wp-content\/uploads\/backupbuddy_temp\/bioyr5i2vc\/ycaawd_postmeta.sql`."}
{"event":"details","time":1489905621,"u":"92","run":"15.82","mem":"43.38","data":"Database max execution time chunking disabled based on -1 passed."}
{"event":"sqlFile","time":1489905621,"u":"92","run":"15.82","mem":"43.39","data":"ycaawd_postmeta.sql"}
{"event":"details","time":1489905621,"u":"93","run":"15.83","mem":"43.33","data":"Got `1000` rows from `ycaawd_postmeta` of `1000` max."}
{"event":"details","time":1489905621,"u":"94","run":"15.84","mem":"43.34","data":"Working... Dumped `500` rows from `ycaawd_postmeta` so far."}
{"event":"details","time":1489905623,"u":"48","run":"17.38","mem":"43.34","data":"Working... Dumped `1000` rows from `ycaawd_postmeta` so far."}
{"event":"details","time":1489905623,"u":"48","run":"17.38","mem":"43.35","data":"Pinging mysqli."}
{"event":"details","time":1489905623,"u":"48","run":"17.38","mem":"43.35","data":"Database Server connection status verified."}
{"event":"details","time":1489905623,"u":"48","run":"17.39","mem":"43.35","data":"Got `1000` rows from `ycaawd_postmeta` of `1000` max."}
{"event":"details","time":1489905623,"u":"49","run":"17.39","mem":"43.36","data":"Working... Dumped `1500` rows from `ycaawd_postmeta` so far."}
{"event":"details","time":1489905623,"u":"58","run":"17.48","mem":"43.36","data":"Working... Dumped `2000` rows from `ycaawd_postmeta` so far."}
{"event":"details","time":1489905623,"u":"58","run":"17.48","mem":"43.36","data":"Pinging mysqli."}
{"event":"details","time":1489905623,"u":"58","run":"17.48","mem":"43.36","data":"Database Server connection status verified."}
{"event":"details","time":1489905623,"u":"59","run":"17.49","mem":"41.97","data":"Got `126` rows from `ycaawd_postmeta` of `1000` max."}
{"event":"details","time":1489905623,"u":"59","run":"17.49","mem":"41.98","data":"Dumped `2126` rows total from `ycaawd_postmeta`. No rows remain."}
{"event":"details","time":1489905623,"u":"59","run":"17.49","mem":"41.99","data":"Pinging mysqli."}
{"event":"details","time":1489905623,"u":"59","run":"17.49","mem":"41.99","data":"Database Server connection status verified."}
{"event":"details","time":1489905623,"u":"59","run":"17.49","mem":"41.99","data":"Finished dumping database table `ycaawd_postmeta`."}
{"event":"finishTableDump","time":1489905623,"u":"59","run":"17.49","mem":"41.99","data":"ycaawd_postmeta"}
{"event":"details","time":1489905623,"u":"59","run":"17.49","mem":"42.00","data":"Database SQL dump file (ycaawd_postmeta.sql) size: 360 KB"}
{"event":"sqlSize","time":1489905623,"u":"59","run":"17.49","mem":"42.00","data":"368909"}
{"event":"details","time":1489905623,"u":"59","run":"17.49","mem":"42.00","data":"About to flush..."}
{"event":"details","time":1489905623,"u":"59","run":"17.49","mem":"42.01","data":"Finished PHP based SQL dump method. Ran for 1.675 sec."}
{"event":"details","time":1489905623,"u":"59","run":"17.49","mem":"41.92","data":"mysqlbuddy: Dump method `php` completed successfully."}
{"event":"milestone","time":1489905623,"u":"59","run":"17.49","mem":"41.92","data":"finish_database"}
{"event":"message","time":1489905623,"u":"59","run":"17.49","mem":"41.92","data":"Database dump procedure succeeded."}
{"event":"details","time":1489905623,"u":"59","run":"17.49","mem":"41.94","data":"Fileoptions `bioyr5i2vc.txt` saved. 6880 bytes written."}
{"event":"details","time":1489905623,"u":"59","run":"17.49","mem":"41.93","data":"Finished function `backup_create_database_dump`. Peak memory usage: 44.893 MB with BackupBuddy v7.2.2.6"}
{"event":"finishFunction","time":1489905623,"u":"59","run":"17.49","mem":"41.93","data":"{\"function\":\"backup_create_database_dump\"}"}
{"event":"details","time":1489905623,"u":"59","run":"17.49","mem":"41.93","data":"-----"}
{"event":"details","time":1489905623,"u":"59","run":"17.50","mem":"41.93","data":"Classic mode; skipping cron & triggering next step."}
{"event":"details","time":1489905623,"u":"59","run":"17.50","mem":"41.95","data":"Fileoptions `bioyr5i2vc.txt` saved. 6920 bytes written."}
{"event":"details","time":1489905623,"u":"60","run":"17.50","mem":"41.94","data":"Found next step to run: `backup_zip_files`."}
{"event":"details","time":1489905623,"u":"60","run":"17.50","mem":"41.94","data":"Peak memory usage: 44.893 MB"}
{"event":"details","time":1489905623,"u":"60","run":"17.50","mem":"41.94","data":"-----"}
{"event":"details","time":1489905623,"u":"60","run":"17.50","mem":"41.95","data":"Starting step function `backup_zip_files`. Attempt #1."}
{"event":"startFunction","time":1489905623,"u":"60","run":"17.50","mem":"41.95","data":"{\"function\":\"backup_zip_files\",\"title\":\"Zipping up files\"}"}
{"event":"milestone","time":1489905623,"u":"60","run":"17.50","mem":"41.95","data":"start_files"}
{"event":"details","time":1489905623,"u":"60","run":"17.50","mem":"41.96","data":"Backup root: `\/home\/loanssco\/public_html\/`."}
{"event":"message","time":1489905623,"u":"60","run":"17.50","mem":"41.84","data":"Running standard ZIP system based on settings."}
{"event":"details","time":1489905623,"u":"60","run":"17.50","mem":"41.84","data":"Running under 64-bit PHP"}
{"event":"details","time":1489905623,"u":"60","run":"17.50","mem":"41.84","data":"Server API: cgi-fcgi"}
{"event":"details","time":1489905623,"u":"60","run":"17.50","mem":"41.84","data":"Using Best Available zip method based on settings."}
{"event":"details","time":1489905623,"u":"60","run":"17.50","mem":"41.85","data":"Creating ZIP file `\/home\/loanssco\/public_html\/wp-content\/uploads\/backupbuddy_backups\/backup-loanss_com_au-2017_03_19-06_40am-full-bioyr5i2vc.zip`. Adding directory `\/home\/loanssco\/public_html\/`. Excludes: \/.sucuriquarantine\/,\/wp-content\/uploads\/sucuri\/,\/wp-content\/envato-backups\/,\/wp-content\/uploads\/backwpup,\/wp-content\/backup-db\/,\/wp-snapshots\/,\/wp-content\/ai1wm-backups\/,\/wp-content\/plugins\/wordfence\/tmp\/,\/wp-content\/cache\/supercache\/,\/error_log,\/wp-content\/uploads\/backupbuddy_backups\/,\/wp-content\/uploads\/pb_backupbuddy\/,\/importbuddy\/,\/importbuddy.php"}
{"event":"details","time":1489905623,"u":"61","run":"17.51","mem":"41.90","data":"Trying exec method for ZIP."}
{"event":"details","time":1489905623,"u":"61","run":"17.51","mem":"41.91","data":"Using zip version: 3.0"}
{"event":"details","time":1489905623,"u":"61","run":"17.51","mem":"41.91","data":"Zip archive creation compression enabled based on settings."}
{"event":"details","time":1489905623,"u":"61","run":"17.51","mem":"41.92","data":"Zip archive creation symbolic links will not be followed based on settings."}
{"event":"details","time":1489905623,"u":"61","run":"17.51","mem":"41.92","data":"Zip archive creation actionable warnings will not be ignored based on settings."}
{"event":"details","time":1489905623,"u":"61","run":"17.51","mem":"41.92","data":"Creating backup exclusions file `\/home\/loanssco\/public_html\/wp-content\/uploads\/backupbuddy_backups\/temp_zip_bioyr5i2vc\/exclusions.txt`."}
{"event":"details","time":1489905623,"u":"61","run":"17.51","mem":"41.92","data":"Omitting exclusion as file\/directory does not currently exist: `\/.sucuriquarantine\/`."}
{"event":"details","time":1489905623,"u":"61","run":"17.51","mem":"41.93","data":"Omitting exclusion as file\/directory does not currently exist: `\/wp-content\/uploads\/sucuri\/`."}
{"event":"details","time":1489905623,"u":"61","run":"17.51","mem":"41.93","data":"Omitting exclusion as file\/directory does not currently exist: `\/wp-content\/envato-backups\/`."}
{"event":"details","time":1489905623,"u":"61","run":"17.51","mem":"41.93","data":"Omitting exclusion as file\/directory does not currently exist: `\/wp-content\/uploads\/backwpup`."}
{"event":"details","time":1489905623,"u":"61","run":"17.51","mem":"41.93","data":"Omitting exclusion as file\/directory does not currently exist: `\/wp-content\/backup-db\/`."}
{"event":"details","time":1489905623,"u":"61","run":"17.51","mem":"41.94","data":"Omitting exclusion as file\/directory does not currently exist: `\/wp-snapshots\/`."}
{"event":"details","time":1489905623,"u":"61","run":"17.51","mem":"41.94","data":"Omitting exclusion as file\/directory does not currently exist: `\/wp-content\/ai1wm-backups\/`."}
{"event":"details","time":1489905623,"u":"61","run":"17.51","mem":"41.94","data":"Omitting exclusion as file\/directory does not currently exist: `\/wp-content\/plugins\/wordfence\/tmp\/`."}
{"event":"details","time":1489905623,"u":"61","run":"17.51","mem":"41.94","data":"Omitting exclusion as file\/directory does not currently exist: `\/wp-content\/cache\/supercache\/`."}
{"event":"details","time":1489905623,"u":"61","run":"17.51","mem":"41.94","data":"Excluding file `\/error_log`."}
{"event":"details","time":1489905623,"u":"61","run":"17.51","mem":"41.95","data":"Excluding directory `\/wp-content\/uploads\/backupbuddy_backups\/`."}
{"event":"details","time":1489905623,"u":"61","run":"17.51","mem":"41.95","data":"Excluding directory `\/wp-content\/uploads\/pb_backupbuddy\/`."}
{"event":"details","time":1489905623,"u":"61","run":"17.51","mem":"41.95","data":"Omitting exclusion as file\/directory does not currently exist: `\/importbuddy\/`."}
{"event":"details","time":1489905623,"u":"61","run":"17.51","mem":"41.95","data":"Omitting exclusion as file\/directory does not currently exist: `\/importbuddy.php`."}
{"event":"details","time":1489905623,"u":"61","run":"17.51","mem":"41.95","data":"Backup exclusions file created."}
{"event":"details","time":1489905623,"u":"61","run":"17.51","mem":"41.96","data":"Using exclusion file `\/home\/loanssco\/public_html\/wp-content\/uploads\/backupbuddy_backups\/temp_zip_bioyr5i2vc\/exclusions.txt`"}
{"event":"details","time":1489905623,"u":"61","run":"17.51","mem":"41.96","data":"exec command: zip -r -q -y -lf '\/home\/loanssco\/public_html\/wp-content\/uploads\/backupbuddy_backups\/temp_zip_bioyr5i2vc\/temp_zip_exec_log.txt' -li -b '\/home\/loanssco\/public_html\/wp-content\/uploads\/backupbuddy_backups\/temp_zip_bioyr5i2vc\/' '\/home\/loanssco\/public_html\/wp-content\/uploads\/backupbuddy_backups\/temp_zip_bioyr5i2vc\/backup-loanss_com_au-2017_03_19-06_40am-full-bioyr5i2vc.zip' . -x@'\/home\/loanssco\/public_html\/wp-content\/uploads\/backupbuddy_backups\/temp_zip_bioyr5i2vc\/exclusions.txt'"}
{"event":"details","time":1489905967,"u":"93","run":"361.83","mem":"41.96","data":"Zip process exit code: 0"}
{"event":"details","time":1489905967,"u":"93","run":"361.83","mem":"41.96","data":"Zip process reported: 0 warnings"}
{"event":"details","time":1489905967,"u":"93","run":"361.83","mem":"41.96","data":"Moving Zip Archive file to local archive directory."}
{"event":"details","time":1489905967,"u":"93","run":"361.83","mem":"41.97","data":"Zip Archive file moved to local archive directory."}
{"event":"message","time":1489905967,"u":"93","run":"361.83","mem":"41.97","data":"Zip Archive file successfully created with no errors or actionable warnings."}
{"event":"details","time":1489905967,"u":"93","run":"361.83","mem":"41.98","data":"Zip Archive file size: 78140951 bytes, owned by user:group 542:554 with permissions 0600"}
{"event":"details","time":1489905967,"u":"93","run":"361.84","mem":"41.97","data":"Removing temporary directory."}
{"event":"details","time":1489905967,"u":"93","run":"361.84","mem":"41.97","data":"The exec method for ZIP was successful."}
{"event":"message","time":1489905967,"u":"93","run":"361.84","mem":"41.94","data":"Backup ZIP file successfully created."}
{"event":"details","time":1489905967,"u":"94","run":"361.84","mem":"41.95","data":"Chmod of ZIP file to 0644 succeeded."}
{"event":"details","time":1489905967,"u":"94","run":"361.84","mem":"41.95","data":"Saving meta data to zip comment."}
{"event":"startAction","time":1489905967,"u":"94","run":"361.84","mem":"41.96","data":"zipCommentMeta"}
{"event":"details","time":1489906036,"u":"28","run":"430.18","mem":"41.97","data":"exec (zip) set comment in file \/home\/loanssco\/public_html\/wp-content\/uploads\/backupbuddy_backups\/backup-loanss_com_au-2017_03_19-06_40am-full-bioyr5i2vc.zip"}
{"event":"finishAction","time":1489906036,"u":"28","run":"430.18","mem":"41.96","data":"zipCommentMeta"}
{"event":"details","time":1489906036,"u":"28","run":"430.18","mem":"41.96","data":"Saved meta data to zip comment."}
{"event":"details","time":1489906036,"u":"28","run":"430.18","mem":"41.97","data":"Database kicker loaded. Database object class: `W3TC\\DbCache_Wpdb` with database of type `mysqli`."}
{"event":"details","time":1489906036,"u":"28","run":"430.18","mem":"41.97","data":"Pinging mysqli."}
{"event":"details","time":1489906036,"u":"28","run":"430.18","mem":"41.97","data":"Database Server connection status verified."}
{"event":"details","time":1489906036,"u":"28","run":"430.18","mem":"41.98","data":"Fileoptions `bioyr5i2vc.txt` saved. 6964 bytes written."}
{"event":"details","time":1489906036,"u":"28","run":"430.18","mem":"41.97","data":"Finished function `backup_zip_files`. Peak memory usage: 44.893 MB with BackupBuddy v7.2.2.6"}
{"event":"finishFunction","time":1489906036,"u":"28","run":"430.18","mem":"41.97","data":"{\"function\":\"backup_zip_files\"}"}
{"event":"details","time":1489906036,"u":"28","run":"430.18","mem":"41.97","data":"-----"}
{"event":"details","time":1489906036,"u":"28","run":"430.19","mem":"41.98","data":"Classic mode; skipping cron & triggering next step."}
{"event":"details","time":1489906036,"u":"29","run":"430.19","mem":"41.99","data":"Fileoptions `bioyr5i2vc.txt` saved. 7008 bytes written."}
{"event":"details","time":1489906036,"u":"29","run":"430.19","mem":"41.98","data":"Found next step to run: `integrity_check`."}
{"event":"details","time":1489906036,"u":"29","run":"430.19","mem":"41.98","data":"Peak memory usage: 44.893 MB"}
{"event":"details","time":1489906036,"u":"29","run":"430.19","mem":"41.99","data":"-----"}
{"event":"details","time":1489906036,"u":"29","run":"430.19","mem":"41.99","data":"Starting step function `integrity_check`. Attempt #1."}
{"event":"startFunction","time":1489906036,"u":"29","run":"430.19","mem":"41.99","data":"{\"function\":\"integrity_check\",\"title\":\"Verifying backup file integrity\"}"}
{"event":"milestone","time":1489906036,"u":"29","run":"430.19","mem":"41.99","data":"start_integrity"}
{"event":"message","time":1489906036,"u":"29","run":"430.19","mem":"42.00","data":"Scanning and verifying backup file integrity."}
{"event":"details","time":1489906036,"u":"29","run":"430.19","mem":"42.00","data":"Starting integrity check on `\/home\/loanssco\/public_html\/wp-content\/uploads\/backupbuddy_backups\/backup-loanss_com_au-2017_03_19-06_40am-full-bioyr5i2vc.zip`."}
{"event":"details","time":1489906036,"u":"29","run":"430.20","mem":"42.11","data":"Started backup_integrity_check() function for `bioyr5i2vc` for file `\/home\/loanssco\/public_html\/wp-content\/uploads\/backupbuddy_backups\/backup-loanss_com_au-2017_03_19-06_40am-full-bioyr5i2vc.zip`."}
{"event":"details","time":1489906036,"u":"30","run":"430.20","mem":"42.11","data":"Verifying comment in zip archive."}
{"event":"details","time":1489906036,"u":"33","run":"430.23","mem":"42.12","data":"exec (unzip) retrieved comment in file \/home\/loanssco\/public_html\/wp-content\/uploads\/backupbuddy_backups\/backup-loanss_com_au-2017_03_19-06_40am-full-bioyr5i2vc.zip"}
{"event":"details","time":1489906036,"u":"33","run":"430.23","mem":"42.12","data":"NOTE: It is normal to see several \"File not found\" messages in the next several log lines."}
{"event":"details","time":1489906036,"u":"33","run":"430.23","mem":"42.13","data":"Verifying DAT file in zip archive."}
{"event":"details","time":1489906036,"u":"35","run":"430.25","mem":"42.13","data":"File found (exec): wp-content\/uploads\/backupbuddy_temp\/bioyr5i2vc\/backupbuddy_dat.php"}
{"event":"details","time":1489906036,"u":"36","run":"430.27","mem":"42.14","data":"File not found (exec): wp-content\/uploads\/temp_bioyr5i2vc\/backupbuddy_dat.php"}
{"event":"details","time":1489906036,"u":"37","run":"430.28","mem":"42.14","data":"File not found (exec): backupbuddy_dat.php"}
{"event":"details","time":1489906036,"u":"37","run":"430.28","mem":"42.13","data":"Verifying database SQL file in zip archive."}
{"event":"details","time":1489906036,"u":"38","run":"430.28","mem":"42.14","data":"Forcing to a single db_1.sql file was NOT enabled for this backup."}
{"event":"details","time":1489906036,"u":"38","run":"430.28","mem":"42.14","data":"BackupBuddy v5.0+ format database detected."}
{"event":"details","time":1489906036,"u":"38","run":"430.28","mem":"42.14","data":"Not database-only type backup."}
{"event":"details","time":1489906036,"u":"39","run":"430.29","mem":"42.15","data":"File not found (exec): wp-content\/uploads\/backupbuddy_temp\/bioyr5i2vc\/db_1.sql"}
{"event":"details","time":1489906036,"u":"39","run":"430.29","mem":"42.15","data":"PHP based database dump type."}
{"event":"details","time":1489906036,"u":"41","run":"430.31","mem":"42.15","data":"File found (exec): wp-content\/uploads\/backupbuddy_temp\/bioyr5i2vc\/ycaawd_commentmeta.sql"}
{"event":"details","time":1489906036,"u":"43","run":"430.33","mem":"42.16","data":"File found (exec): wp-content\/uploads\/backupbuddy_temp\/bioyr5i2vc\/ycaawd_comments.sql"}
{"event":"details","time":1489906036,"u":"45","run":"430.35","mem":"42.16","data":"File found (exec): wp-content\/uploads\/backupbuddy_temp\/bioyr5i2vc\/ycaawd_itsec_lockouts.sql"}
{"event":"details","time":1489906036,"u":"48","run":"430.38","mem":"42.16","data":"File found (exec): wp-content\/uploads\/backupbuddy_temp\/bioyr5i2vc\/ycaawd_itsec_log.sql"}
{"event":"details","time":1489906036,"u":"50","run":"430.40","mem":"42.16","data":"File found (exec): wp-content\/uploads\/backupbuddy_temp\/bioyr5i2vc\/ycaawd_itsec_temp.sql"}
{"event":"details","time":1489906036,"u":"52","run":"430.42","mem":"42.17","data":"File found (exec): wp-content\/uploads\/backupbuddy_temp\/bioyr5i2vc\/ycaawd_links.sql"}
{"event":"details","time":1489906036,"u":"55","run":"430.45","mem":"42.17","data":"File found (exec): wp-content\/uploads\/backupbuddy_temp\/bioyr5i2vc\/ycaawd_options.sql"}
{"event":"details","time":1489906036,"u":"56","run":"430.47","mem":"42.17","data":"File found (exec): wp-content\/uploads\/backupbuddy_temp\/bioyr5i2vc\/ycaawd_postmeta.sql"}
{"event":"details","time":1489906036,"u":"59","run":"430.49","mem":"42.17","data":"File found (exec): wp-content\/uploads\/backupbuddy_temp\/bioyr5i2vc\/ycaawd_posts.sql"}
{"event":"details","time":1489906036,"u":"61","run":"430.51","mem":"42.17","data":"File found (exec): wp-content\/uploads\/backupbuddy_temp\/bioyr5i2vc\/ycaawd_term_relationships.sql"}
{"event":"details","time":1489906036,"u":"62","run":"430.52","mem":"42.18","data":"File found (exec): wp-content\/uploads\/backupbuddy_temp\/bioyr5i2vc\/ycaawd_term_taxonomy.sql"}
{"event":"details","time":1489906036,"u":"64","run":"430.54","mem":"42.18","data":"File found (exec): wp-content\/uploads\/backupbuddy_temp\/bioyr5i2vc\/ycaawd_termmeta.sql"}
{"event":"details","time":1489906036,"u":"66","run":"430.56","mem":"42.18","data":"File found (exec): wp-content\/uploads\/backupbuddy_temp\/bioyr5i2vc\/ycaawd_terms.sql"}
{"event":"details","time":1489906036,"u":"68","run":"430.58","mem":"42.18","data":"File found (exec): wp-content\/uploads\/backupbuddy_temp\/bioyr5i2vc\/ycaawd_usermeta.sql"}
{"event":"details","time":1489906036,"u":"70","run":"430.60","mem":"42.18","data":"File found (exec): wp-content\/uploads\/backupbuddy_temp\/bioyr5i2vc\/ycaawd_users.sql"}
{"event":"details","time":1489906036,"u":"70","run":"430.60","mem":"42.18","data":"Verifying WordPress wp-config.php configuration file in zip archive."}
{"event":"details","time":1489906036,"u":"71","run":"430.61","mem":"42.19","data":"File found (exec): wp-config.php"}
{"event":"details","time":1489906036,"u":"73","run":"430.63","mem":"42.19","data":"File not found (exec): wp-content\/uploads\/backupbuddy_temp\/bioyr5i2vc\/wp-config.php"}
{"event":"details","time":1489906036,"u":"73","run":"430.63","mem":"42.19","data":"Retrieving zip scan log."}
{"event":"details","time":1489906036,"u":"73","run":"430.63","mem":"42.19","data":"Calculating integrity scan status,"}
{"event":"details","time":1489906036,"u":"73","run":"430.63","mem":"42.19","data":"Status: `Pass`. Description: ``."}
{"event":"details","time":1489906036,"u":"73","run":"430.63","mem":"42.20","data":"Getting file details such as size, timestamp, etc."}
{"event":"details","time":1489906036,"u":"73","run":"430.63","mem":"42.20","data":"Saving backup file integrity check details."}
{"event":"details","time":1489906036,"u":"73","run":"430.63","mem":"42.34","data":"Fileoptions `bioyr5i2vc.txt` saved. 7704 bytes written."}
{"event":"milestone","time":1489906036,"u":"73","run":"430.63","mem":"42.09","data":"finish_integrity"}
{"event":"details","time":1489906036,"u":"73","run":"430.63","mem":"42.10","data":"Fileoptions `bioyr5i2vc.txt` saved. 7748 bytes written."}
{"event":"details","time":1489906036,"u":"73","run":"430.63","mem":"42.09","data":"Finished function `integrity_check`. Peak memory usage: 44.893 MB with BackupBuddy v7.2.2.6"}
{"event":"finishFunction","time":1489906036,"u":"73","run":"430.63","mem":"42.09","data":"{\"function\":\"integrity_check\"}"}
{"event":"details","time":1489906036,"u":"73","run":"430.63","mem":"42.10","data":"-----"}
{"event":"details","time":1489906036,"u":"73","run":"430.64","mem":"42.10","data":"Classic mode; skipping cron & triggering next step."}
{"event":"details","time":1489906036,"u":"73","run":"430.64","mem":"42.12","data":"Fileoptions `bioyr5i2vc.txt` saved. 7784 bytes written."}
{"event":"details","time":1489906036,"u":"73","run":"430.64","mem":"42.11","data":"Found next step to run: `post_backup`."}
{"event":"details","time":1489906036,"u":"74","run":"430.64","mem":"42.11","data":"Peak memory usage: 44.893 MB"}
{"event":"details","time":1489906036,"u":"74","run":"430.64","mem":"42.11","data":"-----"}
{"event":"details","time":1489906036,"u":"74","run":"430.64","mem":"42.11","data":"Starting step function `post_backup`. Attempt #1."}
{"event":"startFunction","time":1489906036,"u":"74","run":"430.64","mem":"42.11","data":"{\"function\":\"post_backup\",\"title\":\"Cleaning up\"}"}
{"event":"message","time":1489906036,"u":"74","run":"430.64","mem":"42.12","data":"Cleaning up after backup."}
{"event":"details","time":1489906036,"u":"74","run":"430.64","mem":"42.12","data":"Removing temp data directory."}
{"event":"details","time":1489906036,"u":"74","run":"430.64","mem":"42.25","data":"Trimming old archives (if needed)."}
{"event":"details","time":1489906036,"u":"74","run":"430.64","mem":"42.26","data":"Trimmed 0 old archives based on settings archive limits."}
{"event":"details","time":1489906036,"u":"74","run":"430.64","mem":"42.13","data":"Final ZIP file size: 74.52 MB"}
{"event":"archiveSize","time":1489906036,"u":"74","run":"430.64","mem":"42.13","data":"74.52 MB"}
{"event":"details","time":1489906036,"u":"74","run":"430.64","mem":"42.14","data":"Updating statistics for last backup completed and number of edits since last backup."}
{"event":"details","time":1489906036,"u":"74","run":"430.65","mem":"42.43","data":"Cleaning up any old temporary zip directories in: `\/home\/loanssco\/public_html\/wp-content\/uploads\/backupbuddy_temp\/`. If no recent backups then the temp directory will also be purged."}
{"event":"details","time":1489906036,"u":"75","run":"430.65","mem":"42.43","data":"Sending scheduled backup complete email notification."}
{"event":"details","time":1489906036,"u":"75","run":"430.65","mem":"42.56","data":"Fileoptions instance #37."}
{"event":"details","time":1489906036,"u":"75","run":"430.65","mem":"42.60","data":"Fileoptions load using 0.03 MB of memory."}
{"event":"details","time":1489906036,"u":"75","run":"430.65","mem":"42.63","data":"Sending email schedule notification. Subject: `BackupBuddy Scheduled Backup Complete - http:\/\/loanss.com.au`; recipient(s): ``."}
{"event":"message","time":1489906036,"u":"75","run":"430.65","mem":"42.45","data":"Finished cleaning up."}
{"event":"archiveInfo","time":1489906036,"u":"75","run":"430.65","mem":"42.45","data":"{\"file\":\"backup-loanss_com_au-2017_03_19-06_40am-full-bioyr5i2vc.zip\",\"url\":\"http:\\\/\\\/loanss.com.au\\\/wp-admin\\\/admin-ajax.php?action=pb_backupbuddy_backupbuddy&function=download_archive&backupbuddy_backup=backup-loanss_com_au-2017_03_19-06_40am-full-bioyr5i2vc.zip\"}"}
{"event":"details","time":1489906036,"u":"75","run":"430.65","mem":"42.47","data":"Fileoptions `bioyr5i2vc.txt` saved. 7852 bytes written."}
{"event":"details","time":1489906036,"u":"75","run":"430.65","mem":"42.46","data":"Finished function `post_backup`. Peak memory usage: 44.893 MB with BackupBuddy v7.2.2.6"}
{"event":"finishFunction","time":1489906036,"u":"75","run":"430.65","mem":"42.46","data":"{\"function\":\"post_backup\"}"}
{"event":"details","time":1489906036,"u":"75","run":"430.65","mem":"42.46","data":"-----"}
{"event":"details","time":1489906036,"u":"75","run":"430.65","mem":"42.46","data":"Classic mode; skipping cron & triggering next step."}
{"event":"details","time":1489906036,"u":"75","run":"430.65","mem":"42.61","data":"Fileoptions `bioyr5i2vc.txt` saved. 7892 bytes written."}
{"event":"details","time":1489906036,"u":"75","run":"430.65","mem":"42.60","data":"Found next step to run: `send_remote_destination`."}
{"event":"details","time":1489906036,"u":"75","run":"430.65","mem":"42.60","data":"Peak memory usage: 44.893 MB"}
{"event":"details","time":1489906036,"u":"75","run":"430.65","mem":"42.60","data":"-----"}
{"event":"details","time":1489906036,"u":"75","run":"430.65","mem":"42.60","data":"Starting step function `send_remote_destination`. Attempt #1."}
{"event":"startFunction","time":1489906036,"u":"75","run":"430.65","mem":"42.60","data":"{\"function\":\"send_remote_destination\",\"title\":\"send_remote_destination\"}"}
{"event":"details","time":1489906036,"u":"75","run":"430.65","mem":"42.61","data":"Sending file to remote destination ID: `0`. Delete after: `1`."}
{"event":"details","time":1489906036,"u":"75","run":"430.65","mem":"42.61","data":"IMPORTANT: If the transfer is set to be chunked then only the first chunk status will be displayed during this process. Subsequent chunks will happen after this has finished."}
{"event":"details","time":1489906036,"u":"75","run":"430.65","mem":"42.61","data":"Sending file `\/home\/loanssco\/public_html\/wp-content\/uploads\/backupbuddy_backups\/backup-loanss_com_au-2017_03_19-06_40am-full-bioyr5i2vc.zip` to remote destination `0` with ID `hifrw2wuhqh9` triggered by ``."}
{"event":"details","time":1489906036,"u":"75","run":"430.65","mem":"42.61","data":"Fileoptions instance #35."}
{"event":"details","time":1489906036,"u":"75","run":"430.65","mem":"42.62","data":"Created fileoptions lock file `send-hifrw2wuhqh9.txt.lock` with ID: 58cd8ec4b90619.98053469."}
{"event":"details","time":1489906036,"u":"75","run":"430.65","mem":"42.62","data":"Fileoptions load using 0 MB of memory."}
{"event":"details","time":1489906036,"u":"75","run":"430.66","mem":"42.63","data":"Not sending importbuddy."}
{"event":"details","time":1489906036,"u":"76","run":"430.66","mem":"42.64","data":"Fileoptions `send-hifrw2wuhqh9.txt` saved. 648 bytes written."}
{"event":"details","time":1489906036,"u":"76","run":"430.66","mem":"42.64","data":"Unlocked fileoptions lock file `send-hifrw2wuhqh9.txt.lock` in with lock ID `58cd8ec4b90619.98053469`."}
{"event":"details","time":1489906036,"u":"76","run":"430.66","mem":"42.80","data":"Calling destination send() function."}
{"event":"details","time":1489906036,"u":"76","run":"430.66","mem":"42.80","data":"Adding status serial `remote_send-hifrw2wuhqh9`."}
{"event":"details","time":1489906036,"u":"76","run":"430.66","mem":"42.80","data":"----- Initiating master send function for BackupBuddy v7.2.2.6 for basename file: `backup-loanss_com_au-2017_03_19-06_40am-full-bioyr5i2vc.zip`. Post-send deletion: 1"}
{"event":"details","time":1489906036,"u":"76","run":"430.66","mem":"42.81","data":"Created fileoptions lock file `send-hifrw2wuhqh9.txt.lock` with ID: 58cd8ec4ba3f24.04883955."}
{"event":"details","time":1489906036,"u":"76","run":"430.66","mem":"42.82","data":"Fileoptions load using 0.01 MB of memory."}
{"event":"details","time":1489906036,"u":"76","run":"430.66","mem":"42.83","data":"Fileoptions `send-hifrw2wuhqh9.txt` saved. 1528 bytes written."}
{"event":"details","time":1489906036,"u":"76","run":"430.66","mem":"42.82","data":"Initializing destination."}
{"event":"details","time":1489906036,"u":"76","run":"430.66","mem":"42.83","data":"Loading destination init file `\/home\/loanssco\/public_html\/wp-content\/plugins\/backupbuddy\/destinations\/s32\/init.php`."}
{"event":"details","time":1489906036,"u":"76","run":"430.66","mem":"43.07","data":"Destination init loaded."}
{"event":"details","time":1489906036,"u":"76","run":"430.66","mem":"43.07","data":"Initialized `s32` destination."}
{"event":"details","time":1489906036,"u":"76","run":"430.66","mem":"43.08","data":"Applying destination-specific defaults."}
{"event":"details","time":1489906036,"u":"76","run":"430.66","mem":"43.09","data":"Applying global destination defaults."}
{"event":"details","time":1489906036,"u":"76","run":"430.67","mem":"43.09","data":"Calling destination-specific send method."}
{"event":"details","time":1489906036,"u":"76","run":"430.67","mem":"43.10","data":"Starting S32 send()."}
{"event":"details","time":1489906036,"u":"77","run":"430.67","mem":"43.55","data":"Using bundled cacert.pem file based on destination settings."}
{"event":"details","time":1489906036,"u":"79","run":"430.69","mem":"45.57","data":"Guzzle client cainfo: `\/home\/loanssco\/public_html\/wp-content\/plugins\/backupbuddy\/destinations\/_s3lib2\/Guzzle\/Http\/Resources\/cacert.pem`. capath: `n\/a`."}
{"event":"details","time":1489906036,"u":"79","run":"430.69","mem":"46.06","data":"File size of `74.52 MB`."}
{"event":"details","time":1489906036,"u":"79","run":"430.69","mem":"46.07","data":"AWS Multipart cleanup beginning."}
{"event":"details","time":1489906037,"u":"08","run":"430.99","mem":"47.85","data":"Multipart upload check retrieved. Found `0` multipart uploads in progress \/ stalled. Old BackupBuddy parts will be cleaned up (if any found) ..."}
{"event":"details","time":1489906037,"u":"08","run":"430.99","mem":"47.85","data":"AWS Multipart cleanup finished."}
{"event":"details","time":1489906037,"u":"09","run":"430.99","mem":"47.85","data":"Initiating multipart transfer."}
{"event":"details","time":1489906037,"u":"11","run":"431.01","mem":"47.99","data":"Initiated multipart upload with ID `xzKW6Qm7rKsOhWGuZMSf52vO5IXtLZCor5k2tpYU_HNg4TnX8icNkC51kWBdwRqO8xVKNS7gKNR2_igvAeXlkNKwRNhevns_CXcKqMYx4FE-`."}
{"event":"details","time":1489906037,"u":"11","run":"431.01","mem":"48.00","data":"Detecting backup type if possible."}
{"event":"details","time":1489906037,"u":"11","run":"431.02","mem":"48.00","data":"Detected backup type as `full` via filename."}
{"event":"details","time":1489906037,"u":"11","run":"431.02","mem":"48.01","data":"Multipart initiated; passing over to send first chunk this run. Burst size: `15 MB`."}
{"event":"details","time":1489906037,"u":"12","run":"431.02","mem":"48.01","data":"Max time not set in settings so detecting server max PHP runtime."}
{"event":"details","time":1489906037,"u":"12","run":"431.02","mem":"48.02","data":"Using max runtime: `306`."}
{"event":"details","time":1489906037,"u":"12","run":"431.02","mem":"48.03","data":"About to read in part contents of part `1` of `5` parts of file `\/home\/loanssco\/public_html\/wp-content\/uploads\/backupbuddy_backups\/backup-loanss_com_au-2017_03_19-06_40am-full-bioyr5i2vc.zip` to remote location `Loans\/backup-loanss_com_au-2017_03_19-06_40am-full-bioyr5i2vc.zip` with multipart ID `xzKW6Qm7rKsOhWGuZMSf52vO5IXtLZCor5k2tpYU_HNg4TnX8icNkC51kWBdwRqO8xVKNS7gKNR2_igvAeXlkNKwRNhevns_CXcKqMYx4FE-`."}
{"event":"details","time":1489906037,"u":"13","run":"431.03","mem":"63.04","data":"Beginning upload."}
{"event":"details","time":1489906052,"u":"97","run":"446.87","mem":"63.24","data":"Success sending chunk. Enable full logging for upload result details."}
{"event":"details","time":1489906052,"u":"97","run":"446.87","mem":"63.24","data":"Uploaded size this burst: `15 MB`, Start time: `1489866437.12`. Finish time: `1489866452.98`. Elapsed: `15.8571090698`. Speed: `969 KB`\/sec."}
{"event":"details","time":1489906052,"u":"97","run":"446.87","mem":"63.25","data":"About to load fileoptions data."}
{"event":"details","time":1489906052,"u":"97","run":"446.88","mem":"63.25","data":"Fileoptions instance #10."}
{"event":"details","time":1489906052,"u":"97","run":"446.88","mem":"63.26","data":"Created fileoptions lock file `send-hifrw2wuhqh9.txt.lock` with ID: 58cd8ed4ef2131.00431970."}
{"event":"details","time":1489906052,"u":"98","run":"446.88","mem":"63.27","data":"Fileoptions load using 0.01 MB of memory."}
{"event":"details","time":1489906052,"u":"98","run":"446.88","mem":"63.27","data":"Fileoptions data loaded."}
{"event":"details","time":1489906052,"u":"98","run":"446.88","mem":"63.28","data":"S3 multipart upload has more parts left."}
{"event":"details","time":1489906052,"u":"98","run":"446.88","mem":"63.28","data":"Not approaching limits. Proceeding to next burst this run."}
{"event":"details","time":1489906052,"u":"98","run":"446.88","mem":"63.29","data":"Fileoptions `send-hifrw2wuhqh9.txt` saved. 1756 bytes written."}
{"event":"details","time":1489906052,"u":"98","run":"446.88","mem":"63.29","data":"About to read in part contents of part `2` of `5` parts of file `\/home\/loanssco\/public_html\/wp-content\/uploads\/backupbuddy_backups\/backup-loanss_com_au-2017_03_19-06_40am-full-bioyr5i2vc.zip` to remote location `Loans\/backup-loanss_com_au-2017_03_19-06_40am-full-bioyr5i2vc.zip` with multipart ID `xzKW6Qm7rKsOhWGuZMSf52vO5IXtLZCor5k2tpYU_HNg4TnX8icNkC51kWBdwRqO8xVKNS7gKNR2_igvAeXlkNKwRNhevns_CXcKqMYx4FE-`."}
{"event":"details","time":1489906052,"u":"99","run":"446.89","mem":"63.30","data":"Beginning upload."}
{"event":"details","time":1489906067,"u":"35","run":"461.25","mem":"63.30","data":"Success sending chunk. Enable full logging for upload result details."}
{"event":"details","time":1489906067,"u":"35","run":"461.25","mem":"63.30","data":"Uploaded size this burst: `15 MB`, Start time: `1489866452.98`. Finish time: `1489866467.35`. Elapsed: `14.3703598976`. Speed: `1.04 MB`\/sec."}
{"event":"details","time":1489906067,"u":"35","run":"461.25","mem":"63.31","data":"fileoptions already loaded from prior pass."}
{"event":"details","time":1489906067,"u":"35","run":"461.25","mem":"63.31","data":"S3 multipart upload has more parts left."}
{"event":"details","time":1489906067,"u":"35","run":"461.25","mem":"63.32","data":"Not approaching limits. Proceeding to next burst this run."}
{"event":"details","time":1489906067,"u":"35","run":"461.25","mem":"63.33","data":"Fileoptions `send-hifrw2wuhqh9.txt` saved. 1756 bytes written."}
{"event":"details","time":1489906067,"u":"35","run":"461.25","mem":"63.33","data":"About to read in part contents of part `3` of `5` parts of file `\/home\/loanssco\/public_html\/wp-content\/uploads\/backupbuddy_backups\/backup-loanss_com_au-2017_03_19-06_40am-full-bioyr5i2vc.zip` to remote location `Loans\/backup-loanss_com_au-2017_03_19-06_40am-full-bioyr5i2vc.zip` with multipart ID `xzKW6Qm7rKsOhWGuZMSf52vO5IXtLZCor5k2tpYU_HNg4TnX8icNkC51kWBdwRqO8xVKNS7gKNR2_igvAeXlkNKwRNhevns_CXcKqMYx4FE-`."}
{"event":"details","time":1489906067,"u":"36","run":"461.26","mem":"63.33","data":"Beginning upload."}
{"event":"details","time":1489906068,"u":"21","run":"462.11","mem":"63.34","data":"Success sending chunk. Enable full logging for upload result details."}
{"event":"details","time":1489906068,"u":"21","run":"462.11","mem":"63.34","data":"Uploaded size this burst: `15 MB`, Start time: `1489866467.36`. Finish time: `1489866468.22`. Elapsed: `0.860835075378`. Speed: `17.43 MB`\/sec."}
{"event":"details","time":1489906068,"u":"21","run":"462.11","mem":"63.34","data":"fileoptions already loaded from prior pass."}
{"event":"details","time":1489906068,"u":"21","run":"462.11","mem":"63.35","data":"S3 multipart upload has more parts left."}
{"event":"details","time":1489906068,"u":"21","run":"462.11","mem":"63.35","data":"Not approaching limits. Proceeding to next burst this run."}
{"event":"details","time":1489906068,"u":"21","run":"462.11","mem":"63.36","data":"Fileoptions `send-hifrw2wuhqh9.txt` saved. 1756 bytes written."}
{"event":"details","time":1489906068,"u":"21","run":"462.11","mem":"63.36","data":"About to read in part contents of part `4` of `5` parts of file `\/home\/loanssco\/public_html\/wp-content\/uploads\/backupbuddy_backups\/backup-loanss_com_au-2017_03_19-06_40am-full-bioyr5i2vc.zip` to remote location `Loans\/backup-loanss_com_au-2017_03_19-06_40am-full-bioyr5i2vc.zip` with multipart ID `xzKW6Qm7rKsOhWGuZMSf52vO5IXtLZCor5k2tpYU_HNg4TnX8icNkC51kWBdwRqO8xVKNS7gKNR2_igvAeXlkNKwRNhevns_CXcKqMYx4FE-`."}
{"event":"details","time":1489906068,"u":"22","run":"462.12","mem":"63.37","data":"Beginning upload."}
{"event":"details","time":1489906069,"u":"32","run":"463.22","mem":"63.37","data":"Success sending chunk. Enable full logging for upload result details."}
{"event":"details","time":1489906069,"u":"32","run":"463.22","mem":"63.37","data":"Uploaded size this burst: `15 MB`, Start time: `1489866468.22`. Finish time: `1489866469.33`. Elapsed: `1.10856986046`. Speed: `13.53 MB`\/sec."}
{"event":"details","time":1489906069,"u":"32","run":"463.22","mem":"63.38","data":"fileoptions already loaded from prior pass."}
{"event":"details","time":1489906069,"u":"32","run":"463.22","mem":"63.38","data":"S3 multipart upload has more parts left."}
{"event":"details","time":1489906069,"u":"32","run":"463.22","mem":"63.39","data":"Not approaching limits. Proceeding to next burst this run."}
{"event":"details","time":1489906069,"u":"32","run":"463.23","mem":"63.39","data":"Fileoptions `send-hifrw2wuhqh9.txt` saved. 1756 bytes written."}
{"event":"details","time":1489906069,"u":"32","run":"463.23","mem":"63.40","data":"About to read in part contents of part `5` of `5` parts of file `\/home\/loanssco\/public_html\/wp-content\/uploads\/backupbuddy_backups\/backup-loanss_com_au-2017_03_19-06_40am-full-bioyr5i2vc.zip` to remote location `Loans\/backup-loanss_com_au-2017_03_19-06_40am-full-bioyr5i2vc.zip` with multipart ID `xzKW6Qm7rKsOhWGuZMSf52vO5IXtLZCor5k2tpYU_HNg4TnX8icNkC51kWBdwRqO8xVKNS7gKNR2_igvAeXlkNKwRNhevns_CXcKqMYx4FE-`."}
{"event":"details","time":1489906069,"u":"33","run":"463.23","mem":"62.92","data":"Beginning upload."}
{"event":"details","time":1489906070,"u":"26","run":"464.16","mem":"62.93","data":"Success sending chunk. Enable full logging for upload result details."}
{"event":"details","time":1489906070,"u":"26","run":"464.16","mem":"62.93","data":"Uploaded size this burst: `14.52 MB`, Start time: `1489866469.33`. Finish time: `1489866470.26`. Elapsed: `0.933088064194`. Speed: `15.56 MB`\/sec."}
{"event":"details","time":1489906070,"u":"26","run":"464.16","mem":"62.93","data":"fileoptions already loaded from prior pass."}
{"event":"details","time":1489906070,"u":"26","run":"464.16","mem":"62.94","data":"Getting etags and notifying of multipart upload completion."}
{"event":"details","time":1489906070,"u":"42","run":"464.32","mem":"63.00","data":"Server notified of multipart completion."}
{"event":"details","time":1489906070,"u":"42","run":"464.32","mem":"63.00","data":"No more parts left for this multipart upload. Clearing multipart instance variables."}
{"event":"details","time":1489906070,"u":"42","run":"464.32","mem":"63.01","data":"Upload speed average of all chunks: `3.11 MB`."}
{"event":"details","time":1489906070,"u":"42","run":"464.32","mem":"63.01","data":"Fileoptions `send-hifrw2wuhqh9.txt` saved. 1692 bytes written."}
{"event":"details","time":1489906070,"u":"42","run":"464.32","mem":"63.00","data":"Full backup archive limit of `5` of type `full` based on destination settings."}
{"event":"details","time":1489906070,"u":"42","run":"464.32","mem":"63.01","data":"Archive limit enforcement beginning."}
{"event":"details","time":1489906070,"u":"92","run":"464.82","mem":"63.03","data":"Found `6` backups of this type when checking archive limits out of `6` total files in this location."}
{"event":"details","time":1489906070,"u":"92","run":"464.82","mem":"63.04","data":"More archives (6) than limit (5) allows. Trimming..."}
{"event":"details","time":1489906070,"u":"92","run":"464.82","mem":"63.04","data":"Trimming excess file `backup-loanss_com_au-2017_03_12-07_58am-full-eoxwnpegmd.zip`..."}
{"event":"details","time":1489906070,"u":"95","run":"464.85","mem":"63.05","data":"Finished trimming excess backups."}
{"event":"details","time":1489906070,"u":"95","run":"464.85","mem":"63.05","data":"Stash completed archive limiting."}
{"event":"details","time":1489906070,"u":"95","run":"464.85","mem":"48.49","data":"Completed send function. Success."}
{"event":"details","time":1489906070,"u":"95","run":"464.86","mem":"48.50","data":"About to load fileoptions data."}
{"event":"details","time":1489906070,"u":"96","run":"464.86","mem":"48.50","data":"Fileoptions instance #16."}
{"event":"details","time":1489906070,"u":"96","run":"464.86","mem":"48.51","data":"Created fileoptions lock file `send-hifrw2wuhqh9.txt.lock` with ID: 58cd8ee6eab399.50772518."}
{"event":"details","time":1489906070,"u":"96","run":"464.86","mem":"48.52","data":"Fileoptions load using 0.01 MB of memory."}
{"event":"details","time":1489906070,"u":"96","run":"464.86","mem":"48.52","data":"Fileoptions data loaded."}
{"event":"details","time":1489906070,"u":"96","run":"464.86","mem":"48.53","data":"Post-send deletion enabled."}
{"event":"details","time":1489906070,"u":"96","run":"464.86","mem":"48.53","data":"Performing post-send deletion since transfer succeeded."}
{"event":"details","time":1489906070,"u":"96","run":"464.86","mem":"48.53","data":"Deleting local file `\/home\/loanssco\/public_html\/wp-content\/uploads\/backupbuddy_backups\/backup-loanss_com_au-2017_03_19-06_40am-full-bioyr5i2vc.zip`."}
{"event":"details","time":1489906070,"u":"99","run":"464.89","mem":"48.54","data":"Deleted local file after successful remote destination send based on settings."}
{"event":"archiveDeleted","time":1489906070,"u":"99","run":"464.89","mem":"48.54","data":""}
{"event":"details","time":1489906070,"u":"99","run":"464.89","mem":"48.55","data":"Finished sending email NOT enabled. Skipping."}
{"event":"details","time":1489906071,"u":"00","run":"464.90","mem":"48.60","data":"Ending send() function pass."}
{"event":"details","time":1489906071,"u":"00","run":"464.90","mem":"48.59","data":"Finished destination send() function."}
{"event":"details","time":1489906071,"u":"00","run":"464.90","mem":"48.59","data":"Database kicker loaded. Database object class: `W3TC\\DbCache_Wpdb` with database of type `mysqli`."}
{"event":"details","time":1489906071,"u":"00","run":"464.90","mem":"48.59","data":"Pinging mysqli."}
{"event":"details","time":1489906071,"u":"00","run":"464.90","mem":"48.60","data":"Database Server connection status verified."}
{"event":"details","time":1489906071,"u":"00","run":"464.90","mem":"48.60","data":"About to load fileoptions data for saving send status."}
{"event":"details","time":1489906071,"u":"00","run":"464.90","mem":"48.60","data":"Fileoptions instance #34."}
{"event":"details","time":1489906071,"u":"00","run":"464.90","mem":"48.60","data":"Created fileoptions lock file `send-hifrw2wuhqh9.txt.lock` with ID: 58cd8ee701d0f2.18919610."}
{"event":"details","time":1489906071,"u":"00","run":"464.90","mem":"48.61","data":"Fileoptions load using 0.01 MB of memory."}
{"event":"details","time":1489906071,"u":"00","run":"464.90","mem":"48.61","data":"Fileoptions data loaded for ID `hifrw2wuhqh9`."}
{"event":"details","time":1489906071,"u":"00","run":"464.91","mem":"48.61","data":"Remote send SUCCESS."}
{"event":"details","time":1489906071,"u":"01","run":"464.91","mem":"48.62","data":"Fileoptions `send-hifrw2wuhqh9.txt` saved. 1796 bytes written."}
{"event":"details","time":1489906071,"u":"01","run":"464.91","mem":"48.62","data":"Fileoptions `bioyr5i2vc.txt` saved. 7932 bytes written."}
{"event":"details","time":1489906071,"u":"01","run":"464.91","mem":"48.61","data":"Finished function `send_remote_destination`. Peak memory usage: 93.634 MB with BackupBuddy v7.2.2.6"}
{"event":"finishFunction","time":1489906071,"u":"01","run":"464.91","mem":"48.61","data":"{\"function\":\"send_remote_destination\"}"}
{"event":"details","time":1489906071,"u":"01","run":"464.91","mem":"48.61","data":"-----"}
{"event":"details","time":1489906071,"u":"01","run":"464.91","mem":"48.62","data":"No more backup steps remain. Finishing..."}
{"event":"details","time":1489906071,"u":"01","run":"464.91","mem":"48.63","data":"Fileoptions `bioyr5i2vc.txt` saved. 7972 bytes written."}
{"event":"startFunction","time":1489906071,"u":"01","run":"464.91","mem":"48.62","data":"{\"function\":\"backup_success\",\"title\":\"Backup completed successfully.\"}"}
{"event":"finishFunction","time":1489906071,"u":"01","run":"464.91","mem":"48.62","data":"{\"function\":\"backup_success\"}"}
{"event":"details","time":1489906071,"u":"01","run":"464.91","mem":"48.63","data":"Closing & unlocking fileoptions."}
{"event":"details","time":1489906071,"u":"02","run":"464.92","mem":"48.65","data":"Completed step function `send_remote_destination`."}
{"event":"details","time":1489906071,"u":"02","run":"464.92","mem":"48.52","data":"Completed step function `post_backup`."}
{"event":"details","time":1489906071,"u":"02","run":"464.92","mem":"48.52","data":"Completed step function `integrity_check`."}
{"event":"details","time":1489906071,"u":"02","run":"464.92","mem":"48.52","data":"Completed step function `backup_zip_files`."}
{"event":"details","time":1489906071,"u":"02","run":"464.92","mem":"48.53","data":"Completed step function `backup_create_database_dump`."}
{"event":"details","time":1489906071,"u":"02","run":"464.92","mem":"48.53","data":"Completed step function `backup_create_database_dump`."}
{"event":"details","time":1489906071,"u":"02","run":"464.92","mem":"48.52","data":"Completed step function `backup_create_database_dump`."}
{"event":"details","time":1489906071,"u":"02","run":"464.92","mem":"48.52","data":"Finished cron_process_scheduled_backup."}
