{"event":"details","time":1489475462,"u":"61","run":"11.59","mem":"40.54","data":"BackupBuddy v7.2.2.6 using WordPress v4.7.3 on Linux."}
{"event":"details","time":1489475462,"u":"61","run":"11.59","mem":"40.55","data":"Calculated archive file: `\/home\/loanssco\/public_html\/wp-content\/uploads\/backupbuddy_backups\/backup-loanss_com_au-2017_03_14-07_11am-full-2j4n4nbu4n.zip`."}
{"event":"startFunction","time":1489475462,"u":"61","run":"11.59","mem":"40.55","data":"{\"function\":\"pre_backup\",\"title\":\"Getting ready to backup\"}"}
{"event":"details","time":1489475462,"u":"61","run":"11.59","mem":"40.55","data":"Performing pre-backup procedures."}
{"event":"message","time":1489475462,"u":"61","run":"11.59","mem":"40.56","data":"Full backup mode."}
{"event":"details","time":1489475462,"u":"61","run":"11.59","mem":"40.56","data":"Flushing will not be skipped (default)."}
{"event":"details","time":1489475462,"u":"61","run":"11.59","mem":"40.56","data":"Verifying directories ..."}
{"event":"details","time":1489475462,"u":"61","run":"11.59","mem":"40.56","data":"Temporary directory invalid. Updating from `\/home\/loanssco\/public_html\/wp-content\/uploads\/backupbuddy_temp\/` to default."}
{"event":"details","time":1489475462,"u":"61","run":"11.59","mem":"40.57","data":"Directories verified."}
{"event":"details","time":1489475462,"u":"61","run":"11.59","mem":"40.57","data":"Backup serial generated: `2j4n4nbu4n`."}
{"event":"details","time":1489475462,"u":"61","run":"11.59","mem":"40.58","data":"About to load fileoptions data in create mode."}
{"event":"details","time":1489475462,"u":"61","run":"11.59","mem":"40.58","data":"Fileoptions instance #40."}
{"event":"details","time":1489475462,"u":"61","run":"11.59","mem":"40.58","data":"Created fileoptions lock file `2j4n4nbu4n.txt.lock` with ID: 58c6fcd6963076.49799721."}
{"event":"details","time":1489475462,"u":"61","run":"11.59","mem":"40.58","data":"Fileoptions load using 0 MB of memory."}
{"event":"details","time":1489475462,"u":"61","run":"11.59","mem":"40.59","data":"Fileoptions data loaded."}
{"event":"details","time":1489475462,"u":"61","run":"11.59","mem":"40.59","data":"Updating statistics for last backup start."}
{"event":"details","time":1489475462,"u":"61","run":"11.59","mem":"40.60","data":"Active WordPress plugins (9): `alcapiform\/alcapiform.php; backupbuddy\/backupbuddy.php; better-wp-security\/better-wp-security.php; contact-form-7\/wp-contact-form-7.php; impreza_js_composer\/impreza_js_composer.php; w3-total-cache\/w3-total-cache.php; wordpress-importer\/wordpress-importer.php; wordpress-seo\/wp-seo.php; wp-sitemap-page\/wp-sitemap-page.php`."}
{"event":"startSubFunction","time":1489475462,"u":"61","run":"11.59","mem":"40.60","data":"{\"function\":\"wp_plugins_found\",\"title\":\"Found 9 active WordPress plugins.\"}"}
{"event":"details","time":1489475462,"u":"61","run":"11.60","mem":"40.61","data":"Initially calculated relative backup storage directory: `\/wp-content\/uploads\/backupbuddy_backups\/."}
{"event":"details","time":1489475462,"u":"61","run":"11.60","mem":"40.61","data":"Initial directory exclusions (after filter): `\/.sucuriquarantine\/; \/wp-content\/uploads\/sucuri\/; \/wp-content\/envato-backups\/; \/wp-content\/uploads\/backwpup; \/wp-content\/backup-db\/; \/wp-snapshots\/; \/wp-content\/ai1wm-backups\/; \/wp-content\/plugins\/wordfence\/tmp\/; \/wp-content\/cache\/supercache\/; \/error_log; \/wp-content\/uploads\/backupbuddy_backups\/; \/wp-content\/uploads\/pb_backupbuddy\/; \/importbuddy\/; \/importbuddy.php`."}
{"event":"startSubFunction","time":1489475462,"u":"61","run":"11.60","mem":"40.62","data":"{\"function\":\"file_excludes\",\"title\":\"Found 14 file or directory exclusions.\"}"}
{"event":"details","time":1489475462,"u":"61","run":"11.60","mem":"40.62","data":"Temp directory: `\/home\/loanssco\/public_html\/wp-content\/uploads\/backupbuddy_temp\/2j4n4nbu4n\/`."}
{"event":"details","time":1489475462,"u":"61","run":"11.60","mem":"40.62","data":"Backup root: `\/home\/loanssco\/public_html\/`."}
{"event":"details","time":1489475462,"u":"61","run":"11.60","mem":"40.63","data":"wp-config.php found in normal location."}
{"event":"details","time":1489475462,"u":"61","run":"11.60","mem":"40.63","data":"Calculating mysql database tables to backup."}
{"event":"details","time":1489475462,"u":"62","run":"11.60","mem":"40.63","data":"Base database dump mode (before inclusions\/exclusions): `prefix`."}
{"event":"details","time":1489475462,"u":"62","run":"11.60","mem":"40.64","data":"Determining database tables with prefix `ycaawd_`."}
{"event":"startAction","time":1489475462,"u":"62","run":"11.60","mem":"40.64","data":"schemaTables"}
{"event":"finishAction","time":1489475462,"u":"62","run":"11.60","mem":"40.64","data":"schemaTables"}
{"event":"details","time":1489475462,"u":"62","run":"11.60","mem":"40.64","data":"Base database tables based on settings (15 tables): `ycaawd_commentmeta,ycaawd_comments,ycaawd_itsec_lockouts,ycaawd_itsec_log,ycaawd_itsec_temp,ycaawd_links,ycaawd_options,ycaawd_postmeta,ycaawd_posts,ycaawd_term_relationships,ycaawd_term_taxonomy,ycaawd_termmeta,ycaawd_terms,ycaawd_usermeta,ycaawd_users`"}
{"event":"details","time":1489475462,"u":"62","run":"11.60","mem":"40.64","data":"Database tables after addition (15 tables): `ycaawd_commentmeta,ycaawd_comments,ycaawd_itsec_lockouts,ycaawd_itsec_log,ycaawd_itsec_temp,ycaawd_links,ycaawd_options,ycaawd_postmeta,ycaawd_posts,ycaawd_term_relationships,ycaawd_term_taxonomy,ycaawd_termmeta,ycaawd_terms,ycaawd_usermeta,ycaawd_users`"}
{"event":"details","time":1489475462,"u":"62","run":"11.60","mem":"40.64","data":"Database tables after exclusion (15 tables): `ycaawd_commentmeta,ycaawd_comments,ycaawd_itsec_lockouts,ycaawd_itsec_log,ycaawd_itsec_temp,ycaawd_links,ycaawd_options,ycaawd_postmeta,ycaawd_posts,ycaawd_term_relationships,ycaawd_term_taxonomy,ycaawd_termmeta,ycaawd_terms,ycaawd_usermeta,ycaawd_users`"}
{"event":"startSubFunction","time":1489475462,"u":"62","run":"11.60","mem":"40.64","data":"{\"function\":\"calculate_tables\",\"title\":\"Found 15 tables to backup based on settings.\",\"more\":\"Tables: ycaawd_commentmeta, ycaawd_comments, ycaawd_itsec_lockouts, ycaawd_itsec_log, ycaawd_itsec_temp, ycaawd_links, ycaawd_options, ycaawd_postmeta, ycaawd_posts, ycaawd_term_relationships, ycaawd_term_taxonomy, ycaawd_termmeta, ycaawd_terms, ycaawd_usermeta, ycaawd_users\"}"}
{"event":"details","time":1489475462,"u":"76","run":"11.74","mem":"40.69","data":"Total calculated database size: `7.61 MB`."}
{"event":"details","time":1489475462,"u":"76","run":"11.74","mem":"40.70","data":"Breaking out tables ENABLED based on settings. Tables to be broken out into individual steps: `ycaawd_posts, ycaawd_postmeta`."}
{"event":"details","time":1489475462,"u":"76","run":"11.74","mem":"40.70","data":"Integrity check will be performed based on settings for this profile."}
{"event":"details","time":1489475462,"u":"76","run":"11.74","mem":"40.72","data":"Fileoptions `2j4n4nbu4n.txt` saved. 6432 bytes written."}
{"event":"details","time":1489475462,"u":"76","run":"11.74","mem":"40.72","data":"Creating DAT (data) file snapshotting site & backup information."}
{"event":"details","time":1489475462,"u":"76","run":"11.74","mem":"40.72","data":"wp-config.php found in normal location."}
{"event":"startSubFunction","time":1489475462,"u":"76","run":"11.75","mem":"40.70","data":"{\"function\":\"post_count\",\"title\":\"Found 23 posts, 19 pages, and 6 comments.\"}"}
{"event":"startSubFunction","time":1489475462,"u":"76","run":"11.75","mem":"40.70","data":"{\"function\":\"post_count\",\"title\":\"Found 3 user accounts.\"}"}
{"event":"details","time":1489475462,"u":"77","run":"11.75","mem":"40.72","data":"DAT file contents (sans database user\/pass): Array; (;     [backupbuddy_version] => 7.2.2.6;     [wordpress_version] => 4.7.3;     [backup_time] => 1489435862;     [backup_type] => full;     [profile] => Array;         (;             [type] => full;             [title] => Complete Backup;             [skip_database_dump] => 0;             [mysqldump_additional_includes] => ;             [mysqldump_additional_excludes] => ;             [backup_nonwp_tables] => 0;             [excludes] => ;             [integrity_check] => 1;             [profile_globaltables] => 1;             [profile_globalexcludes] => 1;             [backup_mode] => 1;         ); ;     [default_profile] => Array;         (;             [type] => defaults;             [title] => Global Defaults;             [skip_database_dump] => 0;             [mysqldump_additional_includes] => ;             [mysqldump_additional_excludes] => ;             [backup_nonwp_tables] => 0;             [excludes] => ;             [integrity_check] => 1;             [profile_globaltables] => 1;             [profile_globalexcludes] => 1;             [backup_mode] => -1;         ); ;     [serial] => 2j4n4nbu4n;     [trigger] => scheduled;     [wp-config_in_parent] => ;     [deployment_direction] => ;     [abspath] => \/home\/loanssco\/public_html\/;     [siteurl] => http:\/\/loanss.com.au;     [homeurl] => http:\/\/loanss.com.au;     [blogname] => loanss.com.au;     [blogdescription] => loanss.com.au;     [active_plugins] => alcapiform\/alcapiform.php, backupbuddy\/backupbuddy.php, better-wp-security\/better-wp-security.php, contact-form-7\/wp-contact-form-7.php, impreza_js_composer\/impreza_js_composer.php, w3-total-cache\/w3-total-cache.php, wordpress-importer\/wordpress-importer.php, wordpress-seo\/wp-seo.php, wp-sitemap-page\/wp-sitemap-page.php;     [posts] => 23;     [pages] => 19;     [comments] => 6;     [users] => 3;     [wp_content_url] => http:\/\/loanss.com.au\/wp-content;     [wp_content_dir] => \/home\/loanssco\/public_html\/wp-content;     [db_charset] => utf8mb4;     [db_collate] => utf8mb4_unicode_ci;     [db_prefix] => ycaawd_;     [db_server] => localhost;     [db_name] => loanssco_a6H5x;     [db_user] => ;     [db_password] => ;     [db_exclusions] => ;     [db_inclusions] => ;     [db_version] => 5.5.5;     [breakout_tables] => Array;         (;             [0] => ycaawd_posts;             [1] => ycaawd_postmeta;         ); ;     [tables_sizes] => Array;         (;             [ycaawd_commentmeta] => 12480;             [ycaawd_comments] => 126672;             [ycaawd_itsec_lockouts] => 98304;             [ycaawd_itsec_log] => 4243456;             [ycaawd_itsec_temp] => 81920;             [ycaawd_links] => 3700;             [ycaawd_options] => 1597824;             [ycaawd_postmeta] => 370552;             [ycaawd_posts] => 1373628;             [ycaawd_term_relationships] => 14834;             [ycaawd_term_taxonomy] => 12760;             [ycaawd_termmeta] => 4096;             [ycaawd_terms] => 13908;             [ycaawd_usermeta] => 20476;             [ycaawd_users] => 5568;         ); ;     [force_single_db_file] => ;     [skip_database_dump] => 0;     [is_multisite] => ;     [is_multisite_export] => ;     [domain] => ;     [path] => ;     [upload_url] => ;     [upload_url_rewrite] => ; ); "}
{"event":"details","time":1489475462,"u":"77","run":"11.75","mem":"40.72","data":"Finished creating DAT (data) file."}
{"event":"details","time":1489475462,"u":"77","run":"11.75","mem":"40.71","data":"Generating ImportBuddy tool to include in backup archive: `\/home\/loanssco\/public_html\/wp-content\/uploads\/backupbuddy_temp\/2j4n4nbu4n\/importbuddy.php`."}
{"event":"startAction","time":1489475462,"u":"77","run":"11.75","mem":"40.71","data":"importbuddyCreation"}
{"event":"details","time":1489475462,"u":"77","run":"11.75","mem":"40.72","data":"Checking max PHP execution time settings."}
{"event":"details","time":1489475462,"u":"77","run":"11.75","mem":"40.72","data":"Skipped attempting to override max PHP execution time based on settings."}
{"event":"details","time":1489475462,"u":"77","run":"11.75","mem":"40.72","data":"Reported PHP execution time - Configured: 60; Original: 600; Current: 600"}
{"event":"details","time":1489475462,"u":"77","run":"11.75","mem":"40.72","data":"Attempted to set PHP memory limit to user defined WP_MAX_MEMORY_LIMIT (256M) or over-ridden value"}
{"event":"details","time":1489475462,"u":"77","run":"11.75","mem":"40.73","data":"Reported PHP memory limits - Configured: 128M; Original: 128M; Current: 128M"}
{"event":"warning","time":1489475462,"u":"77","run":"11.75","mem":"40.73","data":"Warning #9032 - You have not set an ImportBuddy password on the BackupBuddy Settings page. Once this password is set a copy of the importbuddy.php file needed to restore your backup will be included in Full backup zip files for convenience. It may manually be downloaded from the Restore \/ Migrate page."}
{"event":"finishAction","time":1489475462,"u":"77","run":"11.75","mem":"40.73","data":"importbuddyCreation"}
{"event":"details","time":1489475462,"u":"77","run":"11.75","mem":"40.73","data":"ImportBuddy generation complete."}
{"event":"details","time":1489475462,"u":"77","run":"11.75","mem":"40.75","data":"Deleting malware transient."}
{"event":"details","time":1489475462,"u":"77","run":"11.76","mem":"40.76","data":"Fileoptions `2j4n4nbu4n.txt` saved. 6600 bytes written."}
{"event":"details","time":1489475462,"u":"77","run":"11.76","mem":"40.75","data":"Finished pre-backup procedures."}
{"event":"milestone","time":1489475462,"u":"77","run":"11.76","mem":"40.75","data":"finish_settings"}
{"event":"finishFunction","time":1489475462,"u":"77","run":"11.76","mem":"40.76","data":"{\"function\":\"pre_backup\"}"}
{"event":"message","time":1489475462,"u":"77","run":"11.76","mem":"40.75","data":"Running in classic backup mode based on settings."}
{"event":"details","time":1489475462,"u":"78","run":"11.76","mem":"40.79","data":"Fileoptions `2j4n4nbu4n.txt` saved. 6640 bytes written."}
{"event":"details","time":1489475462,"u":"78","run":"11.76","mem":"40.78","data":"Found next step to run: `backup_create_database_dump`."}
{"event":"details","time":1489475462,"u":"78","run":"11.76","mem":"40.78","data":"Peak memory usage: 40.962 MB"}
{"event":"details","time":1489475462,"u":"78","run":"11.76","mem":"40.78","data":"-----"}
{"event":"details","time":1489475462,"u":"78","run":"11.76","mem":"40.78","data":"Starting step function `backup_create_database_dump`. Attempt #1."}
{"event":"startFunction","time":1489475462,"u":"78","run":"11.76","mem":"40.78","data":"{\"function\":\"backup_create_database_dump\",\"title\":\"Backing up database\"}"}
{"event":"milestone","time":1489475462,"u":"78","run":"11.76","mem":"40.79","data":"start_database"}
{"event":"message","time":1489475462,"u":"78","run":"11.76","mem":"40.79","data":"Starting database backup process."}
{"event":"details","time":1489475462,"u":"80","run":"11.78","mem":"41.04","data":"PHP-based mysqldump (if applicable) max rows per select set to 1000."}
{"event":"details","time":1489475462,"u":"81","run":"11.79","mem":"41.05","data":"Database host for dumping: `localhost`"}
{"event":"details","time":1489475462,"u":"81","run":"11.79","mem":"41.05","data":"Loading mysqlbuddy library."}
{"event":"details","time":1489475462,"u":"81","run":"11.79","mem":"41.06","data":"Mysql server default directories: `\/usr\/bin\/,\/usr\/bin\/mysql\/,\/usr\/local\/bin\/`"}
{"event":"details","time":1489475462,"u":"81","run":"11.79","mem":"41.06","data":"mysqlbuddy: Force method of `1` passed."}
{"event":"message","time":1489475462,"u":"81","run":"11.79","mem":"41.06","data":"mysqlbuddy: Settings overriding automatic detection of available database dump methods. Using forced override methods: `php`."}
{"event":"message","time":1489475462,"u":"81","run":"11.79","mem":"41.06","data":"mysqlbuddy: Detected database dump methods: `php`."}
{"event":"details","time":1489475462,"u":"81","run":"11.79","mem":"41.06","data":"Max execution time chunking disabled by passing -1 to constructor. No chunking will be used for the database dump."}
{"event":"details","time":1489475462,"u":"81","run":"11.79","mem":"41.07","data":"This server's mysql version: `5.5.5`."}
{"event":"milestone","time":1489475462,"u":"81","run":"11.79","mem":"41.07","data":"start_database"}
{"event":"message","time":1489475462,"u":"81","run":"11.79","mem":"41.07","data":"Starting database dump procedure."}
{"event":"details","time":1489475462,"u":"81","run":"11.79","mem":"41.07","data":"mysqlbuddy: Output directory: `\/home\/loanssco\/public_html\/wp-content\/uploads\/backupbuddy_temp\/2j4n4nbu4n\/`."}
{"event":"details","time":1489475462,"u":"81","run":"11.79","mem":"41.07","data":"Table dump count: `13`."}
{"event":"details","time":1489475462,"u":"81","run":"11.79","mem":"41.08","data":"Preparing to dump using available method(s) by priority. Methods: `php`"}
{"event":"details","time":1489475462,"u":"81","run":"11.79","mem":"41.08","data":"mysqlbuddy: Attempting dump method `php`."}
{"event":"details","time":1489475462,"u":"81","run":"11.79","mem":"41.09","data":"Loading DB kicker for use leter in case database goes away."}
{"event":"details","time":1489475462,"u":"81","run":"11.79","mem":"41.11","data":"Database kicker loaded. Database object class: `W3TC\\DbCache_Wpdb` with database of type `mysqli`."}
{"event":"details","time":1489475462,"u":"81","run":"11.79","mem":"41.11","data":"Dumping database table `ycaawd_commentmeta`. Max rows per select: 1000. Starting at row `0`."}
{"event":"startTableDump","time":1489475462,"u":"81","run":"11.79","mem":"41.12","data":"ycaawd_commentmeta"}
{"event":"details","time":1489475462,"u":"81","run":"11.79","mem":"41.12","data":"SQL dump file `\/home\/loanssco\/public_html\/wp-content\/uploads\/backupbuddy_temp\/2j4n4nbu4n\/ycaawd_commentmeta.sql`."}
{"event":"details","time":1489475462,"u":"81","run":"11.79","mem":"41.12","data":"Database max execution time chunking disabled based on -1 passed."}
{"event":"sqlFile","time":1489475462,"u":"81","run":"11.79","mem":"41.12","data":"ycaawd_commentmeta.sql"}
{"event":"details","time":1489475462,"u":"81","run":"11.80","mem":"41.13","data":"Got `0` rows from `ycaawd_commentmeta` of `1000` max."}
{"event":"details","time":1489475462,"u":"81","run":"11.80","mem":"41.14","data":"Dumped `0` rows total from `ycaawd_commentmeta`. No rows remain."}
{"event":"details","time":1489475462,"u":"81","run":"11.80","mem":"41.15","data":"Pinging mysqli."}
{"event":"details","time":1489475462,"u":"81","run":"11.80","mem":"41.15","data":"Database Server connection status verified."}
{"event":"details","time":1489475462,"u":"81","run":"11.80","mem":"41.15","data":"Finished dumping database table `ycaawd_commentmeta`."}
{"event":"finishTableDump","time":1489475462,"u":"81","run":"11.80","mem":"41.15","data":"ycaawd_commentmeta"}
{"event":"details","time":1489475462,"u":"82","run":"11.80","mem":"41.16","data":"Database SQL dump file (ycaawd_commentmeta.sql) size: 562 Bytes"}
{"event":"sqlSize","time":1489475462,"u":"82","run":"11.80","mem":"41.16","data":"562"}
{"event":"details","time":1489475462,"u":"82","run":"11.80","mem":"41.16","data":"About to flush..."}
{"event":"details","time":1489475462,"u":"82","run":"11.80","mem":"41.16","data":"Dumping database table `ycaawd_comments`. Max rows per select: 1000. Starting at row `0`."}
{"event":"startTableDump","time":1489475462,"u":"82","run":"11.80","mem":"41.17","data":"ycaawd_comments"}
{"event":"details","time":1489475462,"u":"82","run":"11.80","mem":"41.17","data":"SQL dump file `\/home\/loanssco\/public_html\/wp-content\/uploads\/backupbuddy_temp\/2j4n4nbu4n\/ycaawd_comments.sql`."}
{"event":"details","time":1489475462,"u":"82","run":"11.80","mem":"41.17","data":"Database max execution time chunking disabled based on -1 passed."}
{"event":"sqlFile","time":1489475462,"u":"82","run":"11.80","mem":"41.17","data":"ycaawd_comments.sql"}
{"event":"details","time":1489475462,"u":"82","run":"11.81","mem":"41.18","data":"Got `2` rows from `ycaawd_comments` of `1000` max."}
{"event":"details","time":1489475462,"u":"82","run":"11.81","mem":"41.22","data":"Dumped `2` rows total from `ycaawd_comments`. No rows remain."}
{"event":"details","time":1489475462,"u":"82","run":"11.81","mem":"41.22","data":"Pinging mysqli."}
{"event":"details","time":1489475462,"u":"82","run":"11.81","mem":"41.22","data":"Database Server connection status verified."}
{"event":"details","time":1489475462,"u":"83","run":"11.81","mem":"41.22","data":"Finished dumping database table `ycaawd_comments`."}
{"event":"finishTableDump","time":1489475462,"u":"83","run":"11.81","mem":"41.22","data":"ycaawd_comments"}
{"event":"details","time":1489475462,"u":"83","run":"11.81","mem":"41.23","data":"Database SQL dump file (ycaawd_comments.sql) size: 3 KB"}
{"event":"sqlSize","time":1489475462,"u":"83","run":"11.81","mem":"41.23","data":"3329"}
{"event":"details","time":1489475462,"u":"83","run":"11.81","mem":"41.23","data":"About to flush..."}
{"event":"details","time":1489475462,"u":"83","run":"11.81","mem":"41.23","data":"Dumping database table `ycaawd_itsec_lockouts`. Max rows per select: 1000. Starting at row `0`."}
{"event":"startTableDump","time":1489475462,"u":"83","run":"11.81","mem":"41.24","data":"ycaawd_itsec_lockouts"}
{"event":"details","time":1489475462,"u":"83","run":"11.81","mem":"41.24","data":"SQL dump file `\/home\/loanssco\/public_html\/wp-content\/uploads\/backupbuddy_temp\/2j4n4nbu4n\/ycaawd_itsec_lockouts.sql`."}
{"event":"details","time":1489475462,"u":"83","run":"11.81","mem":"41.24","data":"Database max execution time chunking disabled based on -1 passed."}
{"event":"sqlFile","time":1489475462,"u":"83","run":"11.81","mem":"41.24","data":"ycaawd_itsec_lockouts.sql"}
{"event":"details","time":1489475462,"u":"83","run":"11.81","mem":"41.21","data":"Got `1` rows from `ycaawd_itsec_lockouts` of `1000` max."}
{"event":"details","time":1489475462,"u":"83","run":"11.81","mem":"41.23","data":"Dumped `1` rows total from `ycaawd_itsec_lockouts`. No rows remain."}
{"event":"details","time":1489475462,"u":"83","run":"11.81","mem":"41.23","data":"Pinging mysqli."}
{"event":"details","time":1489475462,"u":"83","run":"11.81","mem":"41.24","data":"Database Server connection status verified."}
{"event":"details","time":1489475462,"u":"83","run":"11.81","mem":"41.24","data":"Finished dumping database table `ycaawd_itsec_lockouts`."}
{"event":"finishTableDump","time":1489475462,"u":"83","run":"11.81","mem":"41.24","data":"ycaawd_itsec_lockouts"}
{"event":"details","time":1489475462,"u":"83","run":"11.81","mem":"41.24","data":"Database SQL dump file (ycaawd_itsec_lockouts.sql) size: 1 KB"}
{"event":"sqlSize","time":1489475462,"u":"83","run":"11.81","mem":"41.24","data":"1089"}
{"event":"details","time":1489475462,"u":"83","run":"11.81","mem":"41.25","data":"About to flush..."}
{"event":"details","time":1489475462,"u":"83","run":"11.81","mem":"41.25","data":"Dumping database table `ycaawd_itsec_log`. Max rows per select: 1000. Starting at row `0`."}
{"event":"startTableDump","time":1489475462,"u":"83","run":"11.81","mem":"41.25","data":"ycaawd_itsec_log"}
{"event":"details","time":1489475462,"u":"83","run":"11.81","mem":"41.25","data":"SQL dump file `\/home\/loanssco\/public_html\/wp-content\/uploads\/backupbuddy_temp\/2j4n4nbu4n\/ycaawd_itsec_log.sql`."}
{"event":"details","time":1489475462,"u":"83","run":"11.81","mem":"41.25","data":"Database max execution time chunking disabled based on -1 passed."}
{"event":"sqlFile","time":1489475462,"u":"83","run":"11.81","mem":"41.26","data":"ycaawd_itsec_log.sql"}
{"event":"details","time":1489475462,"u":"93","run":"11.91","mem":"42.73","data":"Got `415` rows from `ycaawd_itsec_log` of `1000` max."}
{"event":"details","time":1489475467,"u":"32","run":"16.30","mem":"42.76","data":"Dumped `415` rows total from `ycaawd_itsec_log`. No rows remain."}
{"event":"details","time":1489475467,"u":"32","run":"16.30","mem":"42.76","data":"Pinging mysqli."}
{"event":"details","time":1489475467,"u":"32","run":"16.30","mem":"42.76","data":"Database Server connection status verified."}
{"event":"details","time":1489475467,"u":"32","run":"16.30","mem":"42.76","data":"Finished dumping database table `ycaawd_itsec_log`."}
{"event":"finishTableDump","time":1489475467,"u":"32","run":"16.30","mem":"42.77","data":"ycaawd_itsec_log"}
{"event":"details","time":1489475467,"u":"32","run":"16.30","mem":"42.77","data":"Database SQL dump file (ycaawd_itsec_log.sql) size: 3.33 MB"}
{"event":"sqlSize","time":1489475467,"u":"32","run":"16.30","mem":"42.77","data":"3487509"}
{"event":"details","time":1489475467,"u":"32","run":"16.30","mem":"42.77","data":"About to flush..."}
{"event":"details","time":1489475467,"u":"32","run":"16.30","mem":"42.77","data":"Dumping database table `ycaawd_itsec_temp`. Max rows per select: 1000. Starting at row `0`."}
{"event":"startTableDump","time":1489475467,"u":"32","run":"16.30","mem":"42.78","data":"ycaawd_itsec_temp"}
{"event":"details","time":1489475467,"u":"32","run":"16.30","mem":"42.78","data":"SQL dump file `\/home\/loanssco\/public_html\/wp-content\/uploads\/backupbuddy_temp\/2j4n4nbu4n\/ycaawd_itsec_temp.sql`."}
{"event":"details","time":1489475467,"u":"32","run":"16.30","mem":"42.78","data":"Database max execution time chunking disabled based on -1 passed."}
{"event":"sqlFile","time":1489475467,"u":"32","run":"16.30","mem":"42.78","data":"ycaawd_itsec_temp.sql"}
{"event":"details","time":1489475467,"u":"33","run":"16.32","mem":"41.31","data":"Got `16` rows from `ycaawd_itsec_temp` of `1000` max."}
{"event":"details","time":1489475467,"u":"33","run":"16.32","mem":"41.32","data":"Dumped `16` rows total from `ycaawd_itsec_temp`. No rows remain."}
{"event":"details","time":1489475467,"u":"33","run":"16.32","mem":"41.32","data":"Pinging mysqli."}
{"event":"details","time":1489475467,"u":"34","run":"16.32","mem":"41.33","data":"Database Server connection status verified."}
{"event":"details","time":1489475467,"u":"34","run":"16.32","mem":"41.33","data":"Finished dumping database table `ycaawd_itsec_temp`."}
{"event":"finishTableDump","time":1489475467,"u":"34","run":"16.32","mem":"41.33","data":"ycaawd_itsec_temp"}
{"event":"details","time":1489475467,"u":"34","run":"16.32","mem":"41.33","data":"Database SQL dump file (ycaawd_itsec_temp.sql) size: 3 KB"}
{"event":"sqlSize","time":1489475467,"u":"34","run":"16.32","mem":"41.33","data":"2905"}
{"event":"details","time":1489475467,"u":"34","run":"16.32","mem":"41.34","data":"About to flush..."}
{"event":"details","time":1489475467,"u":"34","run":"16.32","mem":"41.34","data":"Dumping database table `ycaawd_links`. Max rows per select: 1000. Starting at row `0`."}
{"event":"startTableDump","time":1489475467,"u":"34","run":"16.32","mem":"41.34","data":"ycaawd_links"}
{"event":"details","time":1489475467,"u":"34","run":"16.32","mem":"41.34","data":"SQL dump file `\/home\/loanssco\/public_html\/wp-content\/uploads\/backupbuddy_temp\/2j4n4nbu4n\/ycaawd_links.sql`."}
{"event":"details","time":1489475467,"u":"34","run":"16.32","mem":"41.34","data":"Database max execution time chunking disabled based on -1 passed."}
{"event":"sqlFile","time":1489475467,"u":"34","run":"16.32","mem":"41.35","data":"ycaawd_links.sql"}
{"event":"details","time":1489475467,"u":"35","run":"16.33","mem":"41.33","data":"Got `8` rows from `ycaawd_links` of `1000` max."}
{"event":"details","time":1489475467,"u":"35","run":"16.33","mem":"41.36","data":"Dumped `8` rows total from `ycaawd_links`. No rows remain."}
{"event":"details","time":1489475467,"u":"35","run":"16.33","mem":"41.36","data":"Pinging mysqli."}
{"event":"details","time":1489475467,"u":"35","run":"16.33","mem":"41.37","data":"Database Server connection status verified."}
{"event":"details","time":1489475467,"u":"35","run":"16.33","mem":"41.37","data":"Finished dumping database table `ycaawd_links`."}
{"event":"finishTableDump","time":1489475467,"u":"35","run":"16.33","mem":"41.37","data":"ycaawd_links"}
{"event":"details","time":1489475467,"u":"35","run":"16.33","mem":"41.37","data":"Database SQL dump file (ycaawd_links.sql) size: 2 KB"}
{"event":"sqlSize","time":1489475467,"u":"35","run":"16.33","mem":"41.37","data":"2169"}
{"event":"details","time":1489475467,"u":"35","run":"16.33","mem":"41.38","data":"About to flush..."}
{"event":"details","time":1489475467,"u":"35","run":"16.33","mem":"41.38","data":"Dumping database table `ycaawd_options`. Max rows per select: 1000. Starting at row `0`."}
{"event":"startTableDump","time":1489475467,"u":"35","run":"16.33","mem":"41.38","data":"ycaawd_options"}
{"event":"details","time":1489475467,"u":"35","run":"16.33","mem":"41.38","data":"SQL dump file `\/home\/loanssco\/public_html\/wp-content\/uploads\/backupbuddy_temp\/2j4n4nbu4n\/ycaawd_options.sql`."}
{"event":"details","time":1489475467,"u":"35","run":"16.33","mem":"41.39","data":"Database max execution time chunking disabled based on -1 passed."}
{"event":"sqlFile","time":1489475467,"u":"35","run":"16.33","mem":"41.39","data":"ycaawd_options.sql"}
{"event":"details","time":1489475467,"u":"36","run":"16.34","mem":"41.70","data":"Got `229` rows from `ycaawd_options` of `1000` max."}
{"event":"details","time":1489475467,"u":"37","run":"16.36","mem":"41.71","data":"Dumped `229` rows total from `ycaawd_options`. No rows remain."}
{"event":"details","time":1489475467,"u":"37","run":"16.36","mem":"41.71","data":"Pinging mysqli."}
{"event":"details","time":1489475467,"u":"37","run":"16.36","mem":"41.71","data":"Database Server connection status verified."}
{"event":"details","time":1489475467,"u":"37","run":"16.36","mem":"41.71","data":"Finished dumping database table `ycaawd_options`."}
{"event":"finishTableDump","time":1489475467,"u":"37","run":"16.36","mem":"41.72","data":"ycaawd_options"}
{"event":"details","time":1489475467,"u":"37","run":"16.36","mem":"41.72","data":"Database SQL dump file (ycaawd_options.sql) size: 1.2 MB"}
{"event":"sqlSize","time":1489475467,"u":"38","run":"16.36","mem":"41.72","data":"1255737"}
{"event":"details","time":1489475467,"u":"38","run":"16.36","mem":"41.72","data":"About to flush..."}
{"event":"details","time":1489475467,"u":"38","run":"16.36","mem":"41.72","data":"Dumping database table `ycaawd_term_relationships`. Max rows per select: 1000. Starting at row `0`."}
{"event":"startTableDump","time":1489475467,"u":"38","run":"16.36","mem":"41.73","data":"ycaawd_term_relationships"}
{"event":"details","time":1489475467,"u":"38","run":"16.36","mem":"41.73","data":"SQL dump file `\/home\/loanssco\/public_html\/wp-content\/uploads\/backupbuddy_temp\/2j4n4nbu4n\/ycaawd_term_relationships.sql`."}
{"event":"details","time":1489475467,"u":"38","run":"16.36","mem":"41.73","data":"Database max execution time chunking disabled based on -1 passed."}
{"event":"sqlFile","time":1489475467,"u":"38","run":"16.36","mem":"41.73","data":"ycaawd_term_relationships.sql"}
{"event":"details","time":1489475467,"u":"39","run":"16.37","mem":"41.60","data":"Got `170` rows from `ycaawd_term_relationships` of `1000` max."}
{"event":"details","time":1489475468,"u":"67","run":"17.65","mem":"41.61","data":"Dumped `170` rows total from `ycaawd_term_relationships`. No rows remain."}
{"event":"details","time":1489475468,"u":"67","run":"17.65","mem":"41.61","data":"Pinging mysqli."}
{"event":"details","time":1489475468,"u":"67","run":"17.65","mem":"41.61","data":"Database Server connection status verified."}
{"event":"details","time":1489475468,"u":"67","run":"17.65","mem":"41.61","data":"Finished dumping database table `ycaawd_term_relationships`."}
{"event":"finishTableDump","time":1489475468,"u":"67","run":"17.65","mem":"41.61","data":"ycaawd_term_relationships"}
{"event":"details","time":1489475468,"u":"67","run":"17.65","mem":"41.62","data":"Database SQL dump file (ycaawd_term_relationships.sql) size: 12 KB"}
{"event":"sqlSize","time":1489475468,"u":"67","run":"17.65","mem":"41.62","data":"11842"}
{"event":"details","time":1489475468,"u":"67","run":"17.65","mem":"41.62","data":"About to flush..."}
{"event":"details","time":1489475468,"u":"67","run":"17.65","mem":"41.62","data":"Dumping database table `ycaawd_term_taxonomy`. Max rows per select: 1000. Starting at row `0`."}
{"event":"startTableDump","time":1489475468,"u":"67","run":"17.66","mem":"41.62","data":"ycaawd_term_taxonomy"}
{"event":"details","time":1489475468,"u":"67","run":"17.66","mem":"41.63","data":"SQL dump file `\/home\/loanssco\/public_html\/wp-content\/uploads\/backupbuddy_temp\/2j4n4nbu4n\/ycaawd_term_taxonomy.sql`."}
{"event":"details","time":1489475468,"u":"67","run":"17.66","mem":"41.63","data":"Database max execution time chunking disabled based on -1 passed."}
{"event":"sqlFile","time":1489475468,"u":"67","run":"17.66","mem":"41.63","data":"ycaawd_term_taxonomy.sql"}
{"event":"details","time":1489475468,"u":"68","run":"17.66","mem":"41.59","data":"Got `96` rows from `ycaawd_term_taxonomy` of `1000` max."}
{"event":"details","time":1489475468,"u":"68","run":"17.66","mem":"41.61","data":"Dumped `96` rows total from `ycaawd_term_taxonomy`. No rows remain."}
{"event":"details","time":1489475468,"u":"68","run":"17.66","mem":"41.61","data":"Pinging mysqli."}
{"event":"details","time":1489475468,"u":"68","run":"17.66","mem":"41.61","data":"Database Server connection status verified."}
{"event":"details","time":1489475468,"u":"68","run":"17.67","mem":"41.62","data":"Finished dumping database table `ycaawd_term_taxonomy`."}
{"event":"finishTableDump","time":1489475468,"u":"68","run":"17.67","mem":"41.62","data":"ycaawd_term_taxonomy"}
{"event":"details","time":1489475468,"u":"68","run":"17.67","mem":"41.62","data":"Database SQL dump file (ycaawd_term_taxonomy.sql) size: 8 KB"}
{"event":"sqlSize","time":1489475468,"u":"68","run":"17.67","mem":"41.62","data":"8485"}
{"event":"details","time":1489475468,"u":"68","run":"17.67","mem":"41.62","data":"About to flush..."}
{"event":"details","time":1489475468,"u":"69","run":"17.67","mem":"41.63","data":"Dumping database table `ycaawd_termmeta`. Max rows per select: 1000. Starting at row `0`."}
{"event":"startTableDump","time":1489475468,"u":"69","run":"17.67","mem":"41.63","data":"ycaawd_termmeta"}
{"event":"details","time":1489475468,"u":"69","run":"17.67","mem":"41.63","data":"SQL dump file `\/home\/loanssco\/public_html\/wp-content\/uploads\/backupbuddy_temp\/2j4n4nbu4n\/ycaawd_termmeta.sql`."}
{"event":"details","time":1489475468,"u":"69","run":"17.67","mem":"41.63","data":"Database max execution time chunking disabled based on -1 passed."}
{"event":"sqlFile","time":1489475468,"u":"69","run":"17.67","mem":"41.64","data":"ycaawd_termmeta.sql"}
{"event":"details","time":1489475468,"u":"69","run":"17.67","mem":"41.43","data":"Got `0` rows from `ycaawd_termmeta` of `1000` max."}
{"event":"details","time":1489475468,"u":"69","run":"17.67","mem":"41.44","data":"Dumped `0` rows total from `ycaawd_termmeta`. No rows remain."}
{"event":"details","time":1489475468,"u":"69","run":"17.67","mem":"41.44","data":"Pinging mysqli."}
{"event":"details","time":1489475468,"u":"69","run":"17.67","mem":"41.44","data":"Database Server connection status verified."}
{"event":"details","time":1489475468,"u":"69","run":"17.67","mem":"41.44","data":"Finished dumping database table `ycaawd_termmeta`."}
{"event":"finishTableDump","time":1489475468,"u":"69","run":"17.67","mem":"41.45","data":"ycaawd_termmeta"}
{"event":"details","time":1489475468,"u":"69","run":"17.67","mem":"41.45","data":"Database SQL dump file (ycaawd_termmeta.sql) size: 525 Bytes"}
{"event":"sqlSize","time":1489475468,"u":"69","run":"17.67","mem":"41.45","data":"525"}
{"event":"details","time":1489475468,"u":"69","run":"17.67","mem":"41.45","data":"About to flush..."}
{"event":"details","time":1489475468,"u":"69","run":"17.67","mem":"41.46","data":"Dumping database table `ycaawd_terms`. Max rows per select: 1000. Starting at row `0`."}
{"event":"startTableDump","time":1489475468,"u":"69","run":"17.67","mem":"41.46","data":"ycaawd_terms"}
{"event":"details","time":1489475468,"u":"69","run":"17.68","mem":"41.46","data":"SQL dump file `\/home\/loanssco\/public_html\/wp-content\/uploads\/backupbuddy_temp\/2j4n4nbu4n\/ycaawd_terms.sql`."}
{"event":"details","time":1489475468,"u":"69","run":"17.68","mem":"41.46","data":"Database max execution time chunking disabled based on -1 passed."}
{"event":"sqlFile","time":1489475468,"u":"69","run":"17.68","mem":"41.46","data":"ycaawd_terms.sql"}
{"event":"details","time":1489475468,"u":"70","run":"17.68","mem":"41.61","data":"Got `96` rows from `ycaawd_terms` of `1000` max."}
{"event":"details","time":1489475468,"u":"70","run":"17.68","mem":"41.62","data":"Dumped `96` rows total from `ycaawd_terms`. No rows remain."}
{"event":"details","time":1489475468,"u":"70","run":"17.68","mem":"41.63","data":"Pinging mysqli."}
{"event":"details","time":1489475468,"u":"70","run":"17.68","mem":"41.63","data":"Database Server connection status verified."}
{"event":"details","time":1489475468,"u":"70","run":"17.68","mem":"41.63","data":"Finished dumping database table `ycaawd_terms`."}
{"event":"finishTableDump","time":1489475468,"u":"70","run":"17.68","mem":"41.63","data":"ycaawd_terms"}
{"event":"details","time":1489475468,"u":"70","run":"17.68","mem":"41.63","data":"Database SQL dump file (ycaawd_terms.sql) size: 8 KB"}
{"event":"sqlSize","time":1489475468,"u":"70","run":"17.68","mem":"41.64","data":"7859"}
{"event":"details","time":1489475468,"u":"70","run":"17.68","mem":"41.64","data":"About to flush..."}
{"event":"details","time":1489475468,"u":"70","run":"17.69","mem":"41.64","data":"Dumping database table `ycaawd_usermeta`. Max rows per select: 1000. Starting at row `0`."}
{"event":"startTableDump","time":1489475468,"u":"70","run":"17.69","mem":"41.64","data":"ycaawd_usermeta"}
{"event":"details","time":1489475468,"u":"70","run":"17.69","mem":"41.64","data":"SQL dump file `\/home\/loanssco\/public_html\/wp-content\/uploads\/backupbuddy_temp\/2j4n4nbu4n\/ycaawd_usermeta.sql`."}
{"event":"details","time":1489475468,"u":"70","run":"17.69","mem":"41.65","data":"Database max execution time chunking disabled based on -1 passed."}
{"event":"sqlFile","time":1489475468,"u":"70","run":"17.69","mem":"41.65","data":"ycaawd_usermeta.sql"}
{"event":"details","time":1489475468,"u":"71","run":"17.69","mem":"41.62","data":"Got `78` rows from `ycaawd_usermeta` of `1000` max."}
{"event":"details","time":1489475468,"u":"71","run":"17.69","mem":"41.63","data":"Dumped `78` rows total from `ycaawd_usermeta`. No rows remain."}
{"event":"details","time":1489475468,"u":"71","run":"17.69","mem":"41.63","data":"Pinging mysqli."}
{"event":"details","time":1489475468,"u":"71","run":"17.69","mem":"41.63","data":"Database Server connection status verified."}
{"event":"details","time":1489475468,"u":"71","run":"17.69","mem":"41.63","data":"Finished dumping database table `ycaawd_usermeta`."}
{"event":"finishTableDump","time":1489475468,"u":"71","run":"17.69","mem":"41.64","data":"ycaawd_usermeta"}
{"event":"details","time":1489475468,"u":"71","run":"17.69","mem":"41.64","data":"Database SQL dump file (ycaawd_usermeta.sql) size: 9 KB"}
{"event":"sqlSize","time":1489475468,"u":"71","run":"17.69","mem":"41.64","data":"9232"}
{"event":"details","time":1489475468,"u":"71","run":"17.69","mem":"41.64","data":"About to flush..."}
{"event":"details","time":1489475468,"u":"71","run":"17.69","mem":"41.64","data":"Dumping database table `ycaawd_users`. Max rows per select: 1000. Starting at row `0`."}
{"event":"startTableDump","time":1489475468,"u":"71","run":"17.69","mem":"41.65","data":"ycaawd_users"}
{"event":"details","time":1489475468,"u":"71","run":"17.69","mem":"41.65","data":"SQL dump file `\/home\/loanssco\/public_html\/wp-content\/uploads\/backupbuddy_temp\/2j4n4nbu4n\/ycaawd_users.sql`."}
{"event":"details","time":1489475468,"u":"71","run":"17.69","mem":"41.65","data":"Database max execution time chunking disabled based on -1 passed."}
{"event":"sqlFile","time":1489475468,"u":"71","run":"17.70","mem":"41.65","data":"ycaawd_users.sql"}
{"event":"details","time":1489475468,"u":"72","run":"17.71","mem":"41.53","data":"Got `3` rows from `ycaawd_users` of `1000` max."}
{"event":"details","time":1489475468,"u":"72","run":"17.71","mem":"41.56","data":"Dumped `3` rows total from `ycaawd_users`. No rows remain."}
{"event":"details","time":1489475468,"u":"73","run":"17.71","mem":"41.56","data":"Pinging mysqli."}
{"event":"details","time":1489475468,"u":"73","run":"17.71","mem":"41.56","data":"Database Server connection status verified."}
{"event":"details","time":1489475468,"u":"73","run":"17.71","mem":"41.57","data":"Finished dumping database table `ycaawd_users`."}
{"event":"finishTableDump","time":1489475468,"u":"73","run":"17.71","mem":"41.57","data":"ycaawd_users"}
{"event":"details","time":1489475468,"u":"73","run":"17.71","mem":"41.57","data":"Database SQL dump file (ycaawd_users.sql) size: 1 KB"}
{"event":"sqlSize","time":1489475468,"u":"73","run":"17.71","mem":"41.57","data":"1380"}
{"event":"details","time":1489475468,"u":"73","run":"17.71","mem":"41.57","data":"About to flush..."}
{"event":"details","time":1489475468,"u":"73","run":"17.71","mem":"41.57","data":"Finished PHP based SQL dump method. Ran for 5.916 sec."}
{"event":"details","time":1489475468,"u":"73","run":"17.71","mem":"41.56","data":"mysqlbuddy: Dump method `php` completed successfully."}
{"event":"milestone","time":1489475468,"u":"73","run":"17.71","mem":"41.57","data":"finish_database"}
{"event":"message","time":1489475468,"u":"73","run":"17.71","mem":"41.57","data":"Database dump procedure succeeded."}
{"event":"details","time":1489475468,"u":"73","run":"17.71","mem":"41.58","data":"Fileoptions `2j4n4nbu4n.txt` saved. 6708 bytes written."}
{"event":"details","time":1489475468,"u":"73","run":"17.71","mem":"41.57","data":"Finished function `backup_create_database_dump`. Peak memory usage: 45.564 MB with BackupBuddy v7.2.2.6"}
{"event":"finishFunction","time":1489475468,"u":"73","run":"17.71","mem":"41.57","data":"{\"function\":\"backup_create_database_dump\"}"}
{"event":"details","time":1489475468,"u":"73","run":"17.71","mem":"41.58","data":"-----"}
{"event":"details","time":1489475468,"u":"73","run":"17.71","mem":"41.58","data":"Classic mode; skipping cron & triggering next step."}
{"event":"details","time":1489475468,"u":"73","run":"17.71","mem":"41.59","data":"Fileoptions `2j4n4nbu4n.txt` saved. 6752 bytes written."}
{"event":"details","time":1489475468,"u":"73","run":"17.71","mem":"41.59","data":"Found next step to run: `backup_create_database_dump`."}
{"event":"details","time":1489475468,"u":"73","run":"17.71","mem":"41.59","data":"Peak memory usage: 45.564 MB"}
{"event":"details","time":1489475468,"u":"73","run":"17.71","mem":"41.59","data":"-----"}
{"event":"details","time":1489475468,"u":"73","run":"17.71","mem":"41.59","data":"Starting step function `backup_create_database_dump`. Attempt #1."}
{"event":"startFunction","time":1489475468,"u":"73","run":"17.71","mem":"41.59","data":"{\"function\":\"backup_create_database_dump\",\"title\":\"Backing up database\"}"}
{"event":"milestone","time":1489475468,"u":"73","run":"17.71","mem":"41.60","data":"start_database"}
{"event":"message","time":1489475468,"u":"73","run":"17.71","mem":"41.60","data":"Starting database backup process."}
{"event":"details","time":1489475468,"u":"73","run":"17.71","mem":"41.60","data":"PHP-based mysqldump (if applicable) max rows per select set to 1000."}
{"event":"details","time":1489475468,"u":"73","run":"17.72","mem":"41.60","data":"Database host for dumping: `localhost`"}
{"event":"details","time":1489475468,"u":"73","run":"17.72","mem":"41.61","data":"Loading mysqlbuddy library."}
{"event":"details","time":1489475468,"u":"73","run":"17.72","mem":"41.61","data":"Mysql server default directories: `\/usr\/bin\/,\/usr\/bin\/mysql\/,\/usr\/local\/bin\/`"}
{"event":"details","time":1489475468,"u":"73","run":"17.72","mem":"41.61","data":"mysqlbuddy: Force method of `1` passed."}
{"event":"message","time":1489475468,"u":"73","run":"17.72","mem":"41.61","data":"mysqlbuddy: Settings overriding automatic detection of available database dump methods. Using forced override methods: `php`."}
{"event":"message","time":1489475468,"u":"73","run":"17.72","mem":"41.61","data":"mysqlbuddy: Detected database dump methods: `php`."}
{"event":"details","time":1489475468,"u":"73","run":"17.72","mem":"41.62","data":"Max execution time chunking disabled by passing -1 to constructor. No chunking will be used for the database dump."}
{"event":"details","time":1489475468,"u":"73","run":"17.72","mem":"41.62","data":"This server's mysql version: `5.5.5`."}
{"event":"milestone","time":1489475468,"u":"74","run":"17.72","mem":"41.62","data":"start_database"}
{"event":"message","time":1489475468,"u":"74","run":"17.72","mem":"41.62","data":"Starting database dump procedure."}
{"event":"details","time":1489475468,"u":"74","run":"17.72","mem":"41.62","data":"mysqlbuddy: Output directory: `\/home\/loanssco\/public_html\/wp-content\/uploads\/backupbuddy_temp\/2j4n4nbu4n\/`."}
{"event":"details","time":1489475468,"u":"74","run":"17.72","mem":"41.62","data":"Dumping single table `ycaawd_posts`."}
{"event":"details","time":1489475468,"u":"74","run":"17.72","mem":"41.62","data":"Preparing to dump using available method(s) by priority. Methods: `php`"}
{"event":"details","time":1489475468,"u":"74","run":"17.72","mem":"41.63","data":"mysqlbuddy: Attempting dump method `php`."}
{"event":"details","time":1489475468,"u":"74","run":"17.72","mem":"41.63","data":"Loading DB kicker for use leter in case database goes away."}
{"event":"details","time":1489475468,"u":"74","run":"17.72","mem":"41.64","data":"Database kicker loaded. Database object class: `W3TC\\DbCache_Wpdb` with database of type `mysqli`."}
{"event":"details","time":1489475468,"u":"74","run":"17.72","mem":"41.64","data":"Dumping database table `ycaawd_posts`. Max rows per select: 1000. Starting at row `0`."}
{"event":"startTableDump","time":1489475468,"u":"74","run":"17.72","mem":"41.64","data":"ycaawd_posts"}
{"event":"details","time":1489475468,"u":"74","run":"17.72","mem":"41.64","data":"SQL dump file `\/home\/loanssco\/public_html\/wp-content\/uploads\/backupbuddy_temp\/2j4n4nbu4n\/ycaawd_posts.sql`."}
{"event":"details","time":1489475468,"u":"74","run":"17.72","mem":"41.65","data":"Database max execution time chunking disabled based on -1 passed."}
{"event":"sqlFile","time":1489475468,"u":"74","run":"17.72","mem":"41.65","data":"ycaawd_posts.sql"}
{"event":"details","time":1489475468,"u":"84","run":"17.82","mem":"44.16","data":"Got `394` rows from `ycaawd_posts` of `1000` max."}
{"event":"details","time":1489475468,"u":"88","run":"17.87","mem":"44.22","data":"Dumped `394` rows total from `ycaawd_posts`. No rows remain."}
{"event":"details","time":1489475468,"u":"88","run":"17.87","mem":"44.22","data":"Pinging mysqli."}
{"event":"details","time":1489475468,"u":"88","run":"17.87","mem":"44.23","data":"Database Server connection status verified."}
{"event":"details","time":1489475468,"u":"88","run":"17.87","mem":"44.23","data":"Finished dumping database table `ycaawd_posts`."}
{"event":"finishTableDump","time":1489475468,"u":"88","run":"17.87","mem":"44.23","data":"ycaawd_posts"}
{"event":"details","time":1489475468,"u":"88","run":"17.87","mem":"44.24","data":"Database SQL dump file (ycaawd_posts.sql) size: 1.38 MB"}
{"event":"sqlSize","time":1489475468,"u":"88","run":"17.87","mem":"44.24","data":"1442873"}
{"event":"details","time":1489475468,"u":"89","run":"17.87","mem":"44.24","data":"About to flush..."}
{"event":"details","time":1489475468,"u":"89","run":"17.87","mem":"44.24","data":"Finished PHP based SQL dump method. Ran for 0.149 sec."}
{"event":"details","time":1489475468,"u":"89","run":"17.87","mem":"43.29","data":"mysqlbuddy: Dump method `php` completed successfully."}
{"event":"milestone","time":1489475468,"u":"89","run":"17.87","mem":"43.29","data":"finish_database"}
{"event":"message","time":1489475468,"u":"89","run":"17.87","mem":"43.29","data":"Database dump procedure succeeded."}
{"event":"details","time":1489475468,"u":"89","run":"17.87","mem":"43.30","data":"Fileoptions `2j4n4nbu4n.txt` saved. 6792 bytes written."}
{"event":"details","time":1489475468,"u":"89","run":"17.87","mem":"43.29","data":"Finished function `backup_create_database_dump`. Peak memory usage: 45.564 MB with BackupBuddy v7.2.2.6"}
{"event":"finishFunction","time":1489475468,"u":"89","run":"17.87","mem":"43.30","data":"{\"function\":\"backup_create_database_dump\"}"}
{"event":"details","time":1489475468,"u":"89","run":"17.87","mem":"43.30","data":"-----"}
{"event":"details","time":1489475468,"u":"89","run":"17.87","mem":"43.30","data":"Classic mode; skipping cron & triggering next step."}
{"event":"details","time":1489475468,"u":"89","run":"17.87","mem":"43.32","data":"Fileoptions `2j4n4nbu4n.txt` saved. 6836 bytes written."}
{"event":"details","time":1489475468,"u":"89","run":"17.87","mem":"43.31","data":"Found next step to run: `backup_create_database_dump`."}
{"event":"details","time":1489475468,"u":"89","run":"17.87","mem":"43.31","data":"Peak memory usage: 45.564 MB"}
{"event":"details","time":1489475468,"u":"89","run":"17.87","mem":"43.31","data":"-----"}
{"event":"details","time":1489475468,"u":"89","run":"17.87","mem":"43.31","data":"Starting step function `backup_create_database_dump`. Attempt #1."}
{"event":"startFunction","time":1489475470,"u":"32","run":"19.30","mem":"43.32","data":"{\"function\":\"backup_create_database_dump\",\"title\":\"Backing up database\"}"}
{"event":"milestone","time":1489475470,"u":"32","run":"19.30","mem":"43.32","data":"start_database"}
{"event":"message","time":1489475470,"u":"32","run":"19.30","mem":"43.32","data":"Starting database backup process."}
{"event":"details","time":1489475470,"u":"32","run":"19.30","mem":"43.32","data":"PHP-based mysqldump (if applicable) max rows per select set to 1000."}
{"event":"details","time":1489475470,"u":"32","run":"19.30","mem":"43.33","data":"Database host for dumping: `localhost`"}
{"event":"details","time":1489475470,"u":"32","run":"19.30","mem":"43.33","data":"Loading mysqlbuddy library."}
{"event":"details","time":1489475470,"u":"32","run":"19.30","mem":"43.33","data":"Mysql server default directories: `\/usr\/bin\/,\/usr\/bin\/mysql\/,\/usr\/local\/bin\/`"}
{"event":"details","time":1489475470,"u":"32","run":"19.31","mem":"43.33","data":"mysqlbuddy: Force method of `1` passed."}
{"event":"message","time":1489475470,"u":"32","run":"19.31","mem":"43.33","data":"mysqlbuddy: Settings overriding automatic detection of available database dump methods. Using forced override methods: `php`."}
{"event":"message","time":1489475470,"u":"32","run":"19.31","mem":"43.34","data":"mysqlbuddy: Detected database dump methods: `php`."}
{"event":"details","time":1489475470,"u":"32","run":"19.31","mem":"43.34","data":"Max execution time chunking disabled by passing -1 to constructor. No chunking will be used for the database dump."}
{"event":"details","time":1489475470,"u":"32","run":"19.31","mem":"43.34","data":"This server's mysql version: `5.5.5`."}
{"event":"milestone","time":1489475470,"u":"32","run":"19.31","mem":"43.34","data":"start_database"}
{"event":"message","time":1489475470,"u":"32","run":"19.31","mem":"43.34","data":"Starting database dump procedure."}
{"event":"details","time":1489475470,"u":"32","run":"19.31","mem":"43.34","data":"mysqlbuddy: Output directory: `\/home\/loanssco\/public_html\/wp-content\/uploads\/backupbuddy_temp\/2j4n4nbu4n\/`."}
{"event":"details","time":1489475470,"u":"33","run":"19.31","mem":"43.35","data":"Dumping single table `ycaawd_postmeta`."}
{"event":"details","time":1489475470,"u":"33","run":"19.31","mem":"43.35","data":"Preparing to dump using available method(s) by priority. Methods: `php`"}
{"event":"details","time":1489475470,"u":"33","run":"19.31","mem":"43.35","data":"mysqlbuddy: Attempting dump method `php`."}
{"event":"details","time":1489475470,"u":"33","run":"19.31","mem":"43.36","data":"Loading DB kicker for use leter in case database goes away."}
{"event":"details","time":1489475470,"u":"33","run":"19.31","mem":"43.36","data":"Database kicker loaded. Database object class: `W3TC\\DbCache_Wpdb` with database of type `mysqli`."}
{"event":"details","time":1489475470,"u":"33","run":"19.31","mem":"43.36","data":"Dumping database table `ycaawd_postmeta`. Max rows per select: 1000. Starting at row `0`."}
{"event":"startTableDump","time":1489475470,"u":"33","run":"19.31","mem":"43.36","data":"ycaawd_postmeta"}
{"event":"details","time":1489475470,"u":"33","run":"19.31","mem":"43.37","data":"SQL dump file `\/home\/loanssco\/public_html\/wp-content\/uploads\/backupbuddy_temp\/2j4n4nbu4n\/ycaawd_postmeta.sql`."}
{"event":"details","time":1489475470,"u":"33","run":"19.31","mem":"43.37","data":"Database max execution time chunking disabled based on -1 passed."}
{"event":"sqlFile","time":1489475470,"u":"33","run":"19.31","mem":"43.37","data":"ycaawd_postmeta.sql"}
{"event":"details","time":1489475470,"u":"34","run":"19.32","mem":"43.31","data":"Got `1000` rows from `ycaawd_postmeta` of `1000` max."}
{"event":"details","time":1489475470,"u":"35","run":"19.33","mem":"43.32","data":"Working... Dumped `500` rows from `ycaawd_postmeta` so far."}
{"event":"details","time":1489475470,"u":"43","run":"19.41","mem":"43.33","data":"Working... Dumped `1000` rows from `ycaawd_postmeta` so far."}
{"event":"details","time":1489475470,"u":"43","run":"19.41","mem":"43.33","data":"Pinging mysqli."}
{"event":"details","time":1489475470,"u":"43","run":"19.42","mem":"43.33","data":"Database Server connection status verified."}
{"event":"details","time":1489475470,"u":"44","run":"19.42","mem":"43.33","data":"Got `1000` rows from `ycaawd_postmeta` of `1000` max."}
{"event":"details","time":1489475470,"u":"45","run":"19.43","mem":"43.34","data":"Working... Dumped `1500` rows from `ycaawd_postmeta` so far."}
{"event":"details","time":1489475470,"u":"54","run":"19.53","mem":"43.34","data":"Working... Dumped `2000` rows from `ycaawd_postmeta` so far."}
{"event":"details","time":1489475470,"u":"54","run":"19.53","mem":"43.34","data":"Pinging mysqli."}
{"event":"details","time":1489475470,"u":"55","run":"19.53","mem":"43.35","data":"Database Server connection status verified."}
{"event":"details","time":1489475470,"u":"55","run":"19.53","mem":"41.96","data":"Got `126` rows from `ycaawd_postmeta` of `1000` max."}
{"event":"details","time":1489475470,"u":"55","run":"19.53","mem":"41.97","data":"Dumped `2126` rows total from `ycaawd_postmeta`. No rows remain."}
{"event":"details","time":1489475470,"u":"55","run":"19.53","mem":"41.97","data":"Pinging mysqli."}
{"event":"details","time":1489475470,"u":"55","run":"19.53","mem":"41.97","data":"Database Server connection status verified."}
{"event":"details","time":1489475470,"u":"55","run":"19.53","mem":"41.98","data":"Finished dumping database table `ycaawd_postmeta`."}
{"event":"finishTableDump","time":1489475470,"u":"55","run":"19.53","mem":"41.98","data":"ycaawd_postmeta"}
{"event":"details","time":1489475470,"u":"55","run":"19.54","mem":"41.98","data":"Database SQL dump file (ycaawd_postmeta.sql) size: 360 KB"}
{"event":"sqlSize","time":1489475470,"u":"55","run":"19.54","mem":"41.99","data":"368909"}
{"event":"details","time":1489475470,"u":"55","run":"19.54","mem":"41.99","data":"About to flush..."}
{"event":"details","time":1489475470,"u":"55","run":"19.54","mem":"41.99","data":"Finished PHP based SQL dump method. Ran for 0.228 sec."}
{"event":"details","time":1489475470,"u":"55","run":"19.54","mem":"41.90","data":"mysqlbuddy: Dump method `php` completed successfully."}
{"event":"milestone","time":1489475470,"u":"55","run":"19.54","mem":"41.91","data":"finish_database"}
{"event":"message","time":1489475470,"u":"55","run":"19.54","mem":"41.91","data":"Database dump procedure succeeded."}
{"event":"details","time":1489475470,"u":"56","run":"19.54","mem":"41.92","data":"Fileoptions `2j4n4nbu4n.txt` saved. 6880 bytes written."}
{"event":"details","time":1489475470,"u":"56","run":"19.54","mem":"41.91","data":"Finished function `backup_create_database_dump`. Peak memory usage: 45.564 MB with BackupBuddy v7.2.2.6"}
{"event":"finishFunction","time":1489475470,"u":"56","run":"19.54","mem":"41.91","data":"{\"function\":\"backup_create_database_dump\"}"}
{"event":"details","time":1489475470,"u":"56","run":"19.54","mem":"41.92","data":"-----"}
{"event":"details","time":1489475470,"u":"56","run":"19.54","mem":"41.92","data":"Classic mode; skipping cron & triggering next step."}
{"event":"details","time":1489475470,"u":"56","run":"19.54","mem":"41.94","data":"Fileoptions `2j4n4nbu4n.txt` saved. 6924 bytes written."}
{"event":"details","time":1489475470,"u":"56","run":"19.54","mem":"41.93","data":"Found next step to run: `backup_zip_files`."}
{"event":"details","time":1489475470,"u":"56","run":"19.54","mem":"41.93","data":"Peak memory usage: 45.564 MB"}
{"event":"details","time":1489475470,"u":"56","run":"19.54","mem":"41.93","data":"-----"}
{"event":"details","time":1489475470,"u":"56","run":"19.54","mem":"41.93","data":"Starting step function `backup_zip_files`. Attempt #1."}
{"event":"startFunction","time":1489475470,"u":"56","run":"19.54","mem":"41.93","data":"{\"function\":\"backup_zip_files\",\"title\":\"Zipping up files\"}"}
{"event":"milestone","time":1489475470,"u":"56","run":"19.54","mem":"41.94","data":"start_files"}
{"event":"details","time":1489475470,"u":"56","run":"19.54","mem":"41.94","data":"Backup root: `\/home\/loanssco\/public_html\/`."}
{"event":"message","time":1489475470,"u":"56","run":"19.54","mem":"41.82","data":"Running standard ZIP system based on settings."}
{"event":"details","time":1489475470,"u":"56","run":"19.54","mem":"41.82","data":"Running under 64-bit PHP"}
{"event":"details","time":1489475470,"u":"56","run":"19.54","mem":"41.82","data":"Server API: cgi-fcgi"}
{"event":"details","time":1489475470,"u":"56","run":"19.54","mem":"41.83","data":"Using Best Available zip method based on settings."}
{"event":"details","time":1489475470,"u":"56","run":"19.54","mem":"41.83","data":"Creating ZIP file `\/home\/loanssco\/public_html\/wp-content\/uploads\/backupbuddy_backups\/backup-loanss_com_au-2017_03_14-07_11am-full-2j4n4nbu4n.zip`. Adding directory `\/home\/loanssco\/public_html\/`. Excludes: \/.sucuriquarantine\/,\/wp-content\/uploads\/sucuri\/,\/wp-content\/envato-backups\/,\/wp-content\/uploads\/backwpup,\/wp-content\/backup-db\/,\/wp-snapshots\/,\/wp-content\/ai1wm-backups\/,\/wp-content\/plugins\/wordfence\/tmp\/,\/wp-content\/cache\/supercache\/,\/error_log,\/wp-content\/uploads\/backupbuddy_backups\/,\/wp-content\/uploads\/pb_backupbuddy\/,\/importbuddy\/,\/importbuddy.php"}
{"event":"details","time":1489475470,"u":"57","run":"19.56","mem":"41.89","data":"Trying exec method for ZIP."}
{"event":"details","time":1489475470,"u":"58","run":"19.56","mem":"41.90","data":"Using zip version: 3.0"}
{"event":"details","time":1489475470,"u":"58","run":"19.56","mem":"41.90","data":"Zip archive creation compression enabled based on settings."}
{"event":"details","time":1489475470,"u":"58","run":"19.56","mem":"41.90","data":"Zip archive creation symbolic links will not be followed based on settings."}
{"event":"details","time":1489475470,"u":"58","run":"19.56","mem":"41.90","data":"Zip archive creation actionable warnings will not be ignored based on settings."}
{"event":"details","time":1489475470,"u":"58","run":"19.56","mem":"41.90","data":"Creating backup exclusions file `\/home\/loanssco\/public_html\/wp-content\/uploads\/backupbuddy_backups\/temp_zip_2j4n4nbu4n\/exclusions.txt`."}
{"event":"details","time":1489475470,"u":"58","run":"19.56","mem":"41.91","data":"Omitting exclusion as file\/directory does not currently exist: `\/.sucuriquarantine\/`."}
{"event":"details","time":1489475470,"u":"58","run":"19.56","mem":"41.91","data":"Omitting exclusion as file\/directory does not currently exist: `\/wp-content\/uploads\/sucuri\/`."}
{"event":"details","time":1489475470,"u":"58","run":"19.56","mem":"41.91","data":"Omitting exclusion as file\/directory does not currently exist: `\/wp-content\/envato-backups\/`."}
{"event":"details","time":1489475470,"u":"58","run":"19.56","mem":"41.91","data":"Omitting exclusion as file\/directory does not currently exist: `\/wp-content\/uploads\/backwpup`."}
{"event":"details","time":1489475470,"u":"58","run":"19.56","mem":"41.92","data":"Omitting exclusion as file\/directory does not currently exist: `\/wp-content\/backup-db\/`."}
{"event":"details","time":1489475470,"u":"58","run":"19.56","mem":"41.92","data":"Omitting exclusion as file\/directory does not currently exist: `\/wp-snapshots\/`."}
{"event":"details","time":1489475470,"u":"58","run":"19.56","mem":"41.92","data":"Omitting exclusion as file\/directory does not currently exist: `\/wp-content\/ai1wm-backups\/`."}
{"event":"details","time":1489475470,"u":"58","run":"19.56","mem":"41.92","data":"Omitting exclusion as file\/directory does not currently exist: `\/wp-content\/plugins\/wordfence\/tmp\/`."}
{"event":"details","time":1489475470,"u":"58","run":"19.56","mem":"41.93","data":"Omitting exclusion as file\/directory does not currently exist: `\/wp-content\/cache\/supercache\/`."}
{"event":"details","time":1489475470,"u":"58","run":"19.56","mem":"41.93","data":"Excluding file `\/error_log`."}
{"event":"details","time":1489475470,"u":"58","run":"19.56","mem":"41.93","data":"Excluding directory `\/wp-content\/uploads\/backupbuddy_backups\/`."}
{"event":"details","time":1489475470,"u":"58","run":"19.56","mem":"41.93","data":"Excluding directory `\/wp-content\/uploads\/pb_backupbuddy\/`."}
{"event":"details","time":1489475470,"u":"58","run":"19.56","mem":"41.94","data":"Omitting exclusion as file\/directory does not currently exist: `\/importbuddy\/`."}
{"event":"details","time":1489475470,"u":"58","run":"19.56","mem":"41.94","data":"Omitting exclusion as file\/directory does not currently exist: `\/importbuddy.php`."}
{"event":"details","time":1489475470,"u":"58","run":"19.56","mem":"41.94","data":"Backup exclusions file created."}
{"event":"details","time":1489475470,"u":"58","run":"19.56","mem":"41.94","data":"Using exclusion file `\/home\/loanssco\/public_html\/wp-content\/uploads\/backupbuddy_backups\/temp_zip_2j4n4nbu4n\/exclusions.txt`"}
{"event":"details","time":1489475470,"u":"58","run":"19.56","mem":"41.94","data":"exec command: zip -r -q -y -lf '\/home\/loanssco\/public_html\/wp-content\/uploads\/backupbuddy_backups\/temp_zip_2j4n4nbu4n\/temp_zip_exec_log.txt' -li -b '\/home\/loanssco\/public_html\/wp-content\/uploads\/backupbuddy_backups\/temp_zip_2j4n4nbu4n\/' '\/home\/loanssco\/public_html\/wp-content\/uploads\/backupbuddy_backups\/temp_zip_2j4n4nbu4n\/backup-loanss_com_au-2017_03_14-07_11am-full-2j4n4nbu4n.zip' . -x@'\/home\/loanssco\/public_html\/wp-content\/uploads\/backupbuddy_backups\/temp_zip_2j4n4nbu4n\/exclusions.txt'"}
{"event":"details","time":1489475793,"u":"12","run":"342.11","mem":"41.94","data":"Zip process exit code: 0"}
{"event":"details","time":1489475793,"u":"12","run":"342.11","mem":"41.95","data":"Zip process reported: 0 warnings"}
{"event":"details","time":1489475793,"u":"12","run":"342.11","mem":"41.95","data":"Moving Zip Archive file to local archive directory."}
{"event":"details","time":1489475793,"u":"12","run":"342.11","mem":"41.95","data":"Zip Archive file moved to local archive directory."}
{"event":"message","time":1489475793,"u":"12","run":"342.11","mem":"41.95","data":"Zip Archive file successfully created with no errors or actionable warnings."}
{"event":"details","time":1489475793,"u":"12","run":"342.11","mem":"41.96","data":"Zip Archive file size: 76597994 bytes, owned by user:group 542:554 with permissions 0600"}
{"event":"details","time":1489475793,"u":"13","run":"342.11","mem":"41.96","data":"Removing temporary directory."}
{"event":"details","time":1489475793,"u":"13","run":"342.11","mem":"41.95","data":"The exec method for ZIP was successful."}
{"event":"message","time":1489475793,"u":"13","run":"342.11","mem":"41.93","data":"Backup ZIP file successfully created."}
{"event":"details","time":1489475793,"u":"13","run":"342.11","mem":"41.93","data":"Chmod of ZIP file to 0644 succeeded."}
{"event":"details","time":1489475793,"u":"13","run":"342.11","mem":"41.93","data":"Saving meta data to zip comment."}
{"event":"startAction","time":1489475793,"u":"13","run":"342.11","mem":"41.94","data":"zipCommentMeta"}
{"event":"details","time":1489475869,"u":"31","run":"418.29","mem":"41.95","data":"exec (zip) set comment in file \/home\/loanssco\/public_html\/wp-content\/uploads\/backupbuddy_backups\/backup-loanss_com_au-2017_03_14-07_11am-full-2j4n4nbu4n.zip"}
{"event":"finishAction","time":1489475869,"u":"31","run":"418.29","mem":"41.94","data":"zipCommentMeta"}
{"event":"details","time":1489475869,"u":"31","run":"418.29","mem":"41.95","data":"Saved meta data to zip comment."}
{"event":"details","time":1489475869,"u":"31","run":"418.29","mem":"41.95","data":"Database kicker loaded. Database object class: `W3TC\\DbCache_Wpdb` with database of type `mysqli`."}
{"event":"details","time":1489475869,"u":"31","run":"418.29","mem":"41.95","data":"Pinging mysqli."}
{"event":"details","time":1489475869,"u":"31","run":"418.30","mem":"41.95","data":"Database Server connection status verified."}
{"event":"details","time":1489475869,"u":"31","run":"418.30","mem":"41.96","data":"Fileoptions `2j4n4nbu4n.txt` saved. 6976 bytes written."}
{"event":"details","time":1489475869,"u":"31","run":"418.30","mem":"41.95","data":"Finished function `backup_zip_files`. Peak memory usage: 45.564 MB with BackupBuddy v7.2.2.6"}
{"event":"finishFunction","time":1489475869,"u":"31","run":"418.30","mem":"41.96","data":"{\"function\":\"backup_zip_files\"}"}
{"event":"details","time":1489475869,"u":"31","run":"418.30","mem":"41.96","data":"-----"}
{"event":"details","time":1489475869,"u":"31","run":"418.30","mem":"41.96","data":"Classic mode; skipping cron & triggering next step."}
{"event":"details","time":1489475869,"u":"35","run":"418.33","mem":"41.98","data":"Fileoptions `2j4n4nbu4n.txt` saved. 7016 bytes written."}
{"event":"details","time":1489475869,"u":"35","run":"418.33","mem":"41.97","data":"Found next step to run: `integrity_check`."}
{"event":"details","time":1489475869,"u":"35","run":"418.33","mem":"41.97","data":"Peak memory usage: 45.564 MB"}
{"event":"details","time":1489475869,"u":"35","run":"418.33","mem":"41.97","data":"-----"}
{"event":"details","time":1489475869,"u":"35","run":"418.33","mem":"41.97","data":"Starting step function `integrity_check`. Attempt #1."}
{"event":"startFunction","time":1489475869,"u":"35","run":"418.33","mem":"41.98","data":"{\"function\":\"integrity_check\",\"title\":\"Verifying backup file integrity\"}"}
{"event":"milestone","time":1489475869,"u":"35","run":"418.33","mem":"41.98","data":"start_integrity"}
{"event":"message","time":1489475869,"u":"35","run":"418.33","mem":"41.98","data":"Scanning and verifying backup file integrity."}
{"event":"details","time":1489475869,"u":"35","run":"418.33","mem":"41.98","data":"Starting integrity check on `\/home\/loanssco\/public_html\/wp-content\/uploads\/backupbuddy_backups\/backup-loanss_com_au-2017_03_14-07_11am-full-2j4n4nbu4n.zip`."}
{"event":"details","time":1489475869,"u":"36","run":"418.34","mem":"42.09","data":"Started backup_integrity_check() function for `2j4n4nbu4n` for file `\/home\/loanssco\/public_html\/wp-content\/uploads\/backupbuddy_backups\/backup-loanss_com_au-2017_03_14-07_11am-full-2j4n4nbu4n.zip`."}
{"event":"details","time":1489475869,"u":"36","run":"418.34","mem":"42.10","data":"Verifying comment in zip archive."}
{"event":"details","time":1489475869,"u":"38","run":"418.36","mem":"42.11","data":"exec (unzip) retrieved comment in file \/home\/loanssco\/public_html\/wp-content\/uploads\/backupbuddy_backups\/backup-loanss_com_au-2017_03_14-07_11am-full-2j4n4nbu4n.zip"}
{"event":"details","time":1489475869,"u":"38","run":"418.36","mem":"42.11","data":"NOTE: It is normal to see several \"File not found\" messages in the next several log lines."}
{"event":"details","time":1489475869,"u":"38","run":"418.36","mem":"42.11","data":"Verifying DAT file in zip archive."}
{"event":"details","time":1489475869,"u":"39","run":"418.37","mem":"42.12","data":"File found (exec): wp-content\/uploads\/backupbuddy_temp\/2j4n4nbu4n\/backupbuddy_dat.php"}
{"event":"details","time":1489475869,"u":"41","run":"418.39","mem":"42.12","data":"File not found (exec): wp-content\/uploads\/temp_2j4n4nbu4n\/backupbuddy_dat.php"}
{"event":"details","time":1489475869,"u":"42","run":"418.40","mem":"42.12","data":"File not found (exec): backupbuddy_dat.php"}
{"event":"details","time":1489475869,"u":"42","run":"418.40","mem":"42.12","data":"Verifying database SQL file in zip archive."}
{"event":"details","time":1489475869,"u":"42","run":"418.40","mem":"42.12","data":"Forcing to a single db_1.sql file was NOT enabled for this backup."}
{"event":"details","time":1489475869,"u":"42","run":"418.40","mem":"42.12","data":"BackupBuddy v5.0+ format database detected."}
{"event":"details","time":1489475869,"u":"42","run":"418.40","mem":"42.13","data":"Not database-only type backup."}
{"event":"details","time":1489475869,"u":"43","run":"418.42","mem":"42.13","data":"File not found (exec): wp-content\/uploads\/backupbuddy_temp\/2j4n4nbu4n\/db_1.sql"}
{"event":"details","time":1489475869,"u":"43","run":"418.42","mem":"42.13","data":"PHP based database dump type."}
{"event":"details","time":1489475869,"u":"45","run":"418.43","mem":"42.14","data":"File found (exec): wp-content\/uploads\/backupbuddy_temp\/2j4n4nbu4n\/ycaawd_commentmeta.sql"}
{"event":"details","time":1489475869,"u":"46","run":"418.45","mem":"42.14","data":"File found (exec): wp-content\/uploads\/backupbuddy_temp\/2j4n4nbu4n\/ycaawd_comments.sql"}
{"event":"details","time":1489475869,"u":"48","run":"418.46","mem":"42.14","data":"File found (exec): wp-content\/uploads\/backupbuddy_temp\/2j4n4nbu4n\/ycaawd_itsec_lockouts.sql"}
{"event":"details","time":1489475869,"u":"52","run":"418.50","mem":"42.15","data":"File found (exec): wp-content\/uploads\/backupbuddy_temp\/2j4n4nbu4n\/ycaawd_itsec_log.sql"}
{"event":"details","time":1489475869,"u":"54","run":"418.52","mem":"42.15","data":"File found (exec): wp-content\/uploads\/backupbuddy_temp\/2j4n4nbu4n\/ycaawd_itsec_temp.sql"}
{"event":"details","time":1489475869,"u":"55","run":"418.53","mem":"42.15","data":"File found (exec): wp-content\/uploads\/backupbuddy_temp\/2j4n4nbu4n\/ycaawd_links.sql"}
{"event":"details","time":1489475869,"u":"57","run":"418.56","mem":"42.15","data":"File found (exec): wp-content\/uploads\/backupbuddy_temp\/2j4n4nbu4n\/ycaawd_options.sql"}
{"event":"details","time":1489475869,"u":"59","run":"418.57","mem":"42.15","data":"File found (exec): wp-content\/uploads\/backupbuddy_temp\/2j4n4nbu4n\/ycaawd_postmeta.sql"}
{"event":"details","time":1489475869,"u":"61","run":"418.60","mem":"42.16","data":"File found (exec): wp-content\/uploads\/backupbuddy_temp\/2j4n4nbu4n\/ycaawd_posts.sql"}
{"event":"details","time":1489475869,"u":"63","run":"418.61","mem":"42.16","data":"File found (exec): wp-content\/uploads\/backupbuddy_temp\/2j4n4nbu4n\/ycaawd_term_relationships.sql"}
{"event":"details","time":1489475869,"u":"64","run":"418.63","mem":"42.16","data":"File found (exec): wp-content\/uploads\/backupbuddy_temp\/2j4n4nbu4n\/ycaawd_term_taxonomy.sql"}
{"event":"details","time":1489475869,"u":"66","run":"418.65","mem":"42.16","data":"File found (exec): wp-content\/uploads\/backupbuddy_temp\/2j4n4nbu4n\/ycaawd_termmeta.sql"}
{"event":"details","time":1489475869,"u":"68","run":"418.66","mem":"42.16","data":"File found (exec): wp-content\/uploads\/backupbuddy_temp\/2j4n4nbu4n\/ycaawd_terms.sql"}
{"event":"details","time":1489475869,"u":"70","run":"418.68","mem":"42.17","data":"File found (exec): wp-content\/uploads\/backupbuddy_temp\/2j4n4nbu4n\/ycaawd_usermeta.sql"}
{"event":"details","time":1489475869,"u":"71","run":"418.69","mem":"42.17","data":"File found (exec): wp-content\/uploads\/backupbuddy_temp\/2j4n4nbu4n\/ycaawd_users.sql"}
{"event":"details","time":1489475869,"u":"71","run":"418.69","mem":"42.16","data":"Verifying WordPress wp-config.php configuration file in zip archive."}
{"event":"details","time":1489475869,"u":"73","run":"418.71","mem":"42.17","data":"File found (exec): wp-config.php"}
{"event":"details","time":1489475869,"u":"74","run":"418.72","mem":"42.18","data":"File not found (exec): wp-content\/uploads\/backupbuddy_temp\/2j4n4nbu4n\/wp-config.php"}
{"event":"details","time":1489475869,"u":"74","run":"418.72","mem":"42.17","data":"Retrieving zip scan log."}
{"event":"details","time":1489475869,"u":"74","run":"418.72","mem":"42.17","data":"Calculating integrity scan status,"}
{"event":"details","time":1489475869,"u":"74","run":"418.72","mem":"42.18","data":"Status: `Pass`. Description: ``."}
{"event":"details","time":1489475869,"u":"74","run":"418.72","mem":"42.18","data":"Getting file details such as size, timestamp, etc."}
{"event":"details","time":1489475869,"u":"74","run":"418.72","mem":"42.18","data":"Saving backup file integrity check details."}
{"event":"details","time":1489475869,"u":"74","run":"418.72","mem":"42.32","data":"Fileoptions `2j4n4nbu4n.txt` saved. 7712 bytes written."}
{"event":"milestone","time":1489475869,"u":"74","run":"418.73","mem":"42.07","data":"finish_integrity"}
{"event":"details","time":1489475869,"u":"74","run":"418.73","mem":"42.09","data":"Fileoptions `2j4n4nbu4n.txt` saved. 7764 bytes written."}
{"event":"details","time":1489475869,"u":"74","run":"418.73","mem":"42.08","data":"Finished function `integrity_check`. Peak memory usage: 45.564 MB with BackupBuddy v7.2.2.6"}
{"event":"finishFunction","time":1489475869,"u":"74","run":"418.73","mem":"42.08","data":"{\"function\":\"integrity_check\"}"}
{"event":"details","time":1489475869,"u":"74","run":"418.73","mem":"42.08","data":"-----"}
{"event":"details","time":1489475869,"u":"74","run":"418.73","mem":"42.08","data":"Classic mode; skipping cron & triggering next step."}
{"event":"details","time":1489475869,"u":"75","run":"418.73","mem":"42.10","data":"Fileoptions `2j4n4nbu4n.txt` saved. 7804 bytes written."}
{"event":"details","time":1489475869,"u":"75","run":"418.73","mem":"42.09","data":"Found next step to run: `post_backup`."}
{"event":"details","time":1489475869,"u":"75","run":"418.73","mem":"42.09","data":"Peak memory usage: 45.564 MB"}
{"event":"details","time":1489475869,"u":"75","run":"418.73","mem":"42.09","data":"-----"}
{"event":"details","time":1489475869,"u":"75","run":"418.73","mem":"42.10","data":"Starting step function `post_backup`. Attempt #1."}
{"event":"startFunction","time":1489475869,"u":"75","run":"418.73","mem":"42.10","data":"{\"function\":\"post_backup\",\"title\":\"Cleaning up\"}"}
{"event":"message","time":1489475869,"u":"75","run":"418.73","mem":"42.10","data":"Cleaning up after backup."}
{"event":"details","time":1489475869,"u":"75","run":"418.73","mem":"42.10","data":"Removing temp data directory."}
{"event":"details","time":1489475869,"u":"75","run":"418.73","mem":"42.23","data":"Trimming old archives (if needed)."}
{"event":"details","time":1489475869,"u":"75","run":"418.73","mem":"42.24","data":"Trimmed 0 old archives based on settings archive limits."}
{"event":"details","time":1489475869,"u":"75","run":"418.73","mem":"42.11","data":"Final ZIP file size: 73.05 MB"}
{"event":"archiveSize","time":1489475869,"u":"75","run":"418.73","mem":"42.11","data":"73.05 MB"}
{"event":"details","time":1489475869,"u":"75","run":"418.73","mem":"42.12","data":"Updating statistics for last backup completed and number of edits since last backup."}
{"event":"details","time":1489475869,"u":"76","run":"418.74","mem":"42.41","data":"Cleaning up any old temporary zip directories in: `\/home\/loanssco\/public_html\/wp-content\/uploads\/backupbuddy_temp\/`. If no recent backups then the temp directory will also be purged."}
{"event":"details","time":1489475869,"u":"76","run":"418.74","mem":"42.42","data":"Sending scheduled backup complete email notification."}
{"event":"details","time":1489475869,"u":"76","run":"418.74","mem":"42.54","data":"Fileoptions instance #37."}
{"event":"details","time":1489475869,"u":"76","run":"418.74","mem":"42.58","data":"Fileoptions load using 0.03 MB of memory."}
{"event":"details","time":1489475869,"u":"77","run":"418.75","mem":"42.62","data":"Sending email schedule notification. Subject: `BackupBuddy Scheduled Backup Complete - http:\/\/loanss.com.au`; recipient(s): ``."}
{"event":"message","time":1489475869,"u":"77","run":"418.75","mem":"42.43","data":"Finished cleaning up."}
{"event":"archiveInfo","time":1489475869,"u":"77","run":"418.75","mem":"42.44","data":"{\"file\":\"backup-loanss_com_au-2017_03_14-07_11am-full-2j4n4nbu4n.zip\",\"url\":\"http:\\\/\\\/loanss.com.au\\\/wp-admin\\\/admin-ajax.php?action=pb_backupbuddy_backupbuddy&function=download_archive&backupbuddy_backup=backup-loanss_com_au-2017_03_14-07_11am-full-2j4n4nbu4n.zip\"}"}
{"event":"details","time":1489475869,"u":"77","run":"418.76","mem":"42.45","data":"Fileoptions `2j4n4nbu4n.txt` saved. 7864 bytes written."}
{"event":"details","time":1489475869,"u":"77","run":"418.76","mem":"42.44","data":"Finished function `post_backup`. Peak memory usage: 45.564 MB with BackupBuddy v7.2.2.6"}
{"event":"finishFunction","time":1489475869,"u":"77","run":"418.76","mem":"42.44","data":"{\"function\":\"post_backup\"}"}
{"event":"details","time":1489475869,"u":"77","run":"418.76","mem":"42.44","data":"-----"}
{"event":"details","time":1489475869,"u":"77","run":"418.76","mem":"42.45","data":"Classic mode; skipping cron & triggering next step."}
{"event":"details","time":1489475869,"u":"78","run":"418.76","mem":"42.59","data":"Fileoptions `2j4n4nbu4n.txt` saved. 7908 bytes written."}
{"event":"details","time":1489475869,"u":"78","run":"418.76","mem":"42.58","data":"Found next step to run: `send_remote_destination`."}
{"event":"details","time":1489475869,"u":"78","run":"418.76","mem":"42.58","data":"Peak memory usage: 45.564 MB"}
{"event":"details","time":1489475869,"u":"78","run":"418.76","mem":"42.58","data":"-----"}
{"event":"details","time":1489475869,"u":"78","run":"418.76","mem":"42.59","data":"Starting step function `send_remote_destination`. Attempt #1."}
{"event":"startFunction","time":1489475869,"u":"78","run":"418.76","mem":"42.59","data":"{\"function\":\"send_remote_destination\",\"title\":\"send_remote_destination\"}"}
{"event":"details","time":1489475869,"u":"78","run":"418.76","mem":"42.59","data":"Sending file to remote destination ID: `0`. Delete after: `1`."}
{"event":"details","time":1489475869,"u":"78","run":"418.76","mem":"42.59","data":"IMPORTANT: If the transfer is set to be chunked then only the first chunk status will be displayed during this process. Subsequent chunks will happen after this has finished."}
{"event":"details","time":1489475869,"u":"78","run":"418.76","mem":"42.60","data":"Sending file `\/home\/loanssco\/public_html\/wp-content\/uploads\/backupbuddy_backups\/backup-loanss_com_au-2017_03_14-07_11am-full-2j4n4nbu4n.zip` to remote destination `0` with ID `nci98e5wbxcy` triggered by ``."}
{"event":"details","time":1489475869,"u":"78","run":"418.76","mem":"42.60","data":"Fileoptions instance #35."}
{"event":"details","time":1489475869,"u":"78","run":"418.76","mem":"42.60","data":"Created fileoptions lock file `send-nci98e5wbxcy.txt.lock` with ID: 58c6fe6dc00ef9.84758154."}
{"event":"details","time":1489475869,"u":"78","run":"418.76","mem":"42.60","data":"Fileoptions load using 0 MB of memory."}
{"event":"details","time":1489475869,"u":"78","run":"418.77","mem":"42.62","data":"Not sending importbuddy."}
{"event":"details","time":1489475869,"u":"78","run":"418.77","mem":"42.62","data":"Fileoptions `send-nci98e5wbxcy.txt` saved. 648 bytes written."}
{"event":"details","time":1489475869,"u":"78","run":"418.77","mem":"42.62","data":"Unlocked fileoptions lock file `send-nci98e5wbxcy.txt.lock` in with lock ID `58c6fe6dc00ef9.84758154`."}
{"event":"details","time":1489475869,"u":"79","run":"418.77","mem":"42.78","data":"Calling destination send() function."}
{"event":"details","time":1489475869,"u":"79","run":"418.77","mem":"42.79","data":"Adding status serial `remote_send-nci98e5wbxcy`."}
{"event":"details","time":1489475869,"u":"79","run":"418.77","mem":"42.79","data":"----- Initiating master send function for BackupBuddy v7.2.2.6 for basename file: `backup-loanss_com_au-2017_03_14-07_11am-full-2j4n4nbu4n.zip`. Post-send deletion: 1"}
{"event":"details","time":1489475869,"u":"79","run":"418.77","mem":"42.79","data":"Created fileoptions lock file `send-nci98e5wbxcy.txt.lock` with ID: 58c6fe6dc175b5.55149950."}
{"event":"details","time":1489475869,"u":"79","run":"418.77","mem":"42.80","data":"Fileoptions load using 0.01 MB of memory."}
{"event":"details","time":1489475869,"u":"79","run":"418.77","mem":"42.81","data":"Fileoptions `send-nci98e5wbxcy.txt` saved. 1524 bytes written."}
{"event":"details","time":1489475869,"u":"79","run":"418.77","mem":"42.81","data":"Initializing destination."}
{"event":"details","time":1489475869,"u":"79","run":"418.78","mem":"42.81","data":"Loading destination init file `\/home\/loanssco\/public_html\/wp-content\/plugins\/backupbuddy\/destinations\/s32\/init.php`."}
{"event":"details","time":1489475869,"u":"80","run":"418.78","mem":"43.05","data":"Destination init loaded."}
{"event":"details","time":1489475869,"u":"80","run":"418.78","mem":"43.05","data":"Initialized `s32` destination."}
{"event":"details","time":1489475869,"u":"80","run":"418.78","mem":"43.06","data":"Applying destination-specific defaults."}
{"event":"details","time":1489475869,"u":"80","run":"418.78","mem":"43.07","data":"Applying global destination defaults."}
{"event":"details","time":1489475869,"u":"80","run":"418.78","mem":"43.07","data":"Calling destination-specific send method."}
{"event":"details","time":1489475869,"u":"80","run":"418.79","mem":"43.08","data":"Starting S32 send()."}
{"event":"details","time":1489475869,"u":"81","run":"418.80","mem":"43.53","data":"Using bundled cacert.pem file based on destination settings."}
{"event":"details","time":1489475870,"u":"00","run":"418.98","mem":"45.55","data":"Guzzle client cainfo: `\/home\/loanssco\/public_html\/wp-content\/plugins\/backupbuddy\/destinations\/_s3lib2\/Guzzle\/Http\/Resources\/cacert.pem`. capath: `n\/a`."}
{"event":"details","time":1489475870,"u":"11","run":"419.09","mem":"46.04","data":"File size of `73.05 MB`."}
{"event":"details","time":1489475870,"u":"11","run":"419.09","mem":"46.05","data":"AWS Multipart cleanup beginning."}
{"event":"details","time":1489475870,"u":"52","run":"419.50","mem":"47.83","data":"Multipart upload check retrieved. Found `0` multipart uploads in progress \/ stalled. Old BackupBuddy parts will be cleaned up (if any found) ..."}
{"event":"details","time":1489475870,"u":"52","run":"419.50","mem":"47.83","data":"AWS Multipart cleanup finished."}
{"event":"details","time":1489475870,"u":"52","run":"419.50","mem":"47.83","data":"Initiating multipart transfer."}
{"event":"details","time":1489475870,"u":"55","run":"419.54","mem":"47.98","data":"Initiated multipart upload with ID `fVQfjIWbVr.nIJ_nW3g6tQoJe7Qn7TGRi5Y9ABFKAmyF54AYaD4.YJVJkbC1C5cXd8.K5NN.f5eVr_KPlWqN6oVySbxvdTeFIXPOjG_M.p4-`."}
{"event":"details","time":1489475870,"u":"56","run":"419.54","mem":"47.98","data":"Detecting backup type if possible."}
{"event":"details","time":1489475870,"u":"56","run":"419.54","mem":"47.99","data":"Detected backup type as `full` via filename."}
{"event":"details","time":1489475870,"u":"56","run":"419.54","mem":"48.00","data":"Multipart initiated; passing over to send first chunk this run. Burst size: `15 MB`."}
{"event":"details","time":1489475870,"u":"56","run":"419.54","mem":"48.00","data":"Max time not set in settings so detecting server max PHP runtime."}
{"event":"details","time":1489475870,"u":"56","run":"419.54","mem":"48.00","data":"Using max runtime: `306`."}
{"event":"details","time":1489475870,"u":"56","run":"419.54","mem":"48.01","data":"About to read in part contents of part `1` of `5` parts of file `\/home\/loanssco\/public_html\/wp-content\/uploads\/backupbuddy_backups\/backup-loanss_com_au-2017_03_14-07_11am-full-2j4n4nbu4n.zip` to remote location `Loans\/backup-loanss_com_au-2017_03_14-07_11am-full-2j4n4nbu4n.zip` with multipart ID `fVQfjIWbVr.nIJ_nW3g6tQoJe7Qn7TGRi5Y9ABFKAmyF54AYaD4.YJVJkbC1C5cXd8.K5NN.f5eVr_KPlWqN6oVySbxvdTeFIXPOjG_M.p4-`."}
{"event":"details","time":1489475870,"u":"57","run":"419.55","mem":"63.02","data":"Beginning upload."}
{"event":"details","time":1489475884,"u":"13","run":"433.12","mem":"63.22","data":"Success sending chunk. Enable full logging for upload result details."}
{"event":"details","time":1489475884,"u":"14","run":"433.12","mem":"63.23","data":"Uploaded size this burst: `15 MB`, Start time: `1489436270.56`. Finish time: `1489436284.14`. Elapsed: `13.5779409409`. Speed: `1.1 MB`\/sec."}
{"event":"details","time":1489475884,"u":"14","run":"433.12","mem":"63.23","data":"About to load fileoptions data."}
{"event":"details","time":1489475884,"u":"14","run":"433.12","mem":"63.23","data":"Fileoptions instance #10."}
{"event":"details","time":1489475884,"u":"14","run":"433.12","mem":"63.24","data":"Created fileoptions lock file `send-nci98e5wbxcy.txt.lock` with ID: 58c6fe7c228c50.54581865."}
{"event":"details","time":1489475884,"u":"14","run":"433.12","mem":"63.25","data":"Fileoptions load using 0.01 MB of memory."}
{"event":"details","time":1489475884,"u":"14","run":"433.12","mem":"63.25","data":"Fileoptions data loaded."}
{"event":"details","time":1489475884,"u":"14","run":"433.12","mem":"63.26","data":"S3 multipart upload has more parts left."}
{"event":"details","time":1489475884,"u":"14","run":"433.12","mem":"63.26","data":"Not approaching limits. Proceeding to next burst this run."}
{"event":"details","time":1489475884,"u":"14","run":"433.12","mem":"63.27","data":"Fileoptions `send-nci98e5wbxcy.txt` saved. 1752 bytes written."}
{"event":"details","time":1489475884,"u":"14","run":"433.12","mem":"63.28","data":"About to read in part contents of part `2` of `5` parts of file `\/home\/loanssco\/public_html\/wp-content\/uploads\/backupbuddy_backups\/backup-loanss_com_au-2017_03_14-07_11am-full-2j4n4nbu4n.zip` to remote location `Loans\/backup-loanss_com_au-2017_03_14-07_11am-full-2j4n4nbu4n.zip` with multipart ID `fVQfjIWbVr.nIJ_nW3g6tQoJe7Qn7TGRi5Y9ABFKAmyF54AYaD4.YJVJkbC1C5cXd8.K5NN.f5eVr_KPlWqN6oVySbxvdTeFIXPOjG_M.p4-`."}
{"event":"details","time":1489475884,"u":"15","run":"433.13","mem":"63.28","data":"Beginning upload."}
{"event":"details","time":1489475896,"u":"45","run":"445.43","mem":"63.28","data":"Success sending chunk. Enable full logging for upload result details."}
{"event":"details","time":1489475896,"u":"45","run":"445.43","mem":"63.29","data":"Uploaded size this burst: `15 MB`, Start time: `1489436284.14`. Finish time: `1489436296.46`. Elapsed: `12.3130638599`. Speed: `1.22 MB`\/sec."}
{"event":"details","time":1489475896,"u":"45","run":"445.44","mem":"63.29","data":"fileoptions already loaded from prior pass."}
{"event":"details","time":1489475896,"u":"45","run":"445.44","mem":"63.30","data":"S3 multipart upload has more parts left."}
{"event":"details","time":1489475896,"u":"45","run":"445.44","mem":"63.30","data":"Not approaching limits. Proceeding to next burst this run."}
{"event":"details","time":1489475896,"u":"45","run":"445.44","mem":"63.31","data":"Fileoptions `send-nci98e5wbxcy.txt` saved. 1752 bytes written."}
{"event":"details","time":1489475896,"u":"45","run":"445.44","mem":"63.31","data":"About to read in part contents of part `3` of `5` parts of file `\/home\/loanssco\/public_html\/wp-content\/uploads\/backupbuddy_backups\/backup-loanss_com_au-2017_03_14-07_11am-full-2j4n4nbu4n.zip` to remote location `Loans\/backup-loanss_com_au-2017_03_14-07_11am-full-2j4n4nbu4n.zip` with multipart ID `fVQfjIWbVr.nIJ_nW3g6tQoJe7Qn7TGRi5Y9ABFKAmyF54AYaD4.YJVJkbC1C5cXd8.K5NN.f5eVr_KPlWqN6oVySbxvdTeFIXPOjG_M.p4-`."}
{"event":"details","time":1489475896,"u":"47","run":"445.45","mem":"63.31","data":"Beginning upload."}
{"event":"details","time":1489475898,"u":"59","run":"447.57","mem":"63.32","data":"Success sending chunk. Enable full logging for upload result details."}
{"event":"details","time":1489475898,"u":"59","run":"447.57","mem":"63.32","data":"Uploaded size this burst: `15 MB`, Start time: `1489436296.46`. Finish time: `1489436298.59`. Elapsed: `2.13421201706`. Speed: `7.03 MB`\/sec."}
{"event":"details","time":1489475898,"u":"59","run":"447.57","mem":"63.33","data":"fileoptions already loaded from prior pass."}
{"event":"details","time":1489475898,"u":"59","run":"447.57","mem":"63.33","data":"S3 multipart upload has more parts left."}
{"event":"details","time":1489475898,"u":"59","run":"447.57","mem":"63.34","data":"Not approaching limits. Proceeding to next burst this run."}
{"event":"details","time":1489475898,"u":"59","run":"447.58","mem":"63.34","data":"Fileoptions `send-nci98e5wbxcy.txt` saved. 1752 bytes written."}
{"event":"details","time":1489475898,"u":"60","run":"447.58","mem":"63.34","data":"About to read in part contents of part `4` of `5` parts of file `\/home\/loanssco\/public_html\/wp-content\/uploads\/backupbuddy_backups\/backup-loanss_com_au-2017_03_14-07_11am-full-2j4n4nbu4n.zip` to remote location `Loans\/backup-loanss_com_au-2017_03_14-07_11am-full-2j4n4nbu4n.zip` with multipart ID `fVQfjIWbVr.nIJ_nW3g6tQoJe7Qn7TGRi5Y9ABFKAmyF54AYaD4.YJVJkbC1C5cXd8.K5NN.f5eVr_KPlWqN6oVySbxvdTeFIXPOjG_M.p4-`."}
{"event":"details","time":1489475898,"u":"61","run":"447.59","mem":"63.35","data":"Beginning upload."}
{"event":"details","time":1489475899,"u":"77","run":"448.76","mem":"63.35","data":"Success sending chunk. Enable full logging for upload result details."}
{"event":"details","time":1489475899,"u":"78","run":"448.76","mem":"63.36","data":"Uploaded size this burst: `15 MB`, Start time: `1489436298.6`. Finish time: `1489436299.78`. Elapsed: `1.17966294289`. Speed: `12.72 MB`\/sec."}
{"event":"details","time":1489475899,"u":"78","run":"448.76","mem":"63.36","data":"fileoptions already loaded from prior pass."}
{"event":"details","time":1489475899,"u":"78","run":"448.76","mem":"63.37","data":"S3 multipart upload has more parts left."}
{"event":"details","time":1489475899,"u":"78","run":"448.76","mem":"63.37","data":"Not approaching limits. Proceeding to next burst this run."}
{"event":"details","time":1489475899,"u":"78","run":"448.76","mem":"63.38","data":"Fileoptions `send-nci98e5wbxcy.txt` saved. 1752 bytes written."}
{"event":"details","time":1489475899,"u":"78","run":"448.76","mem":"63.38","data":"About to read in part contents of part `5` of `5` parts of file `\/home\/loanssco\/public_html\/wp-content\/uploads\/backupbuddy_backups\/backup-loanss_com_au-2017_03_14-07_11am-full-2j4n4nbu4n.zip` to remote location `Loans\/backup-loanss_com_au-2017_03_14-07_11am-full-2j4n4nbu4n.zip` with multipart ID `fVQfjIWbVr.nIJ_nW3g6tQoJe7Qn7TGRi5Y9ABFKAmyF54AYaD4.YJVJkbC1C5cXd8.K5NN.f5eVr_KPlWqN6oVySbxvdTeFIXPOjG_M.p4-`."}
{"event":"details","time":1489475899,"u":"79","run":"448.77","mem":"61.43","data":"Beginning upload."}
{"event":"details","time":1489475901,"u":"10","run":"450.09","mem":"61.44","data":"Success sending chunk. Enable full logging for upload result details."}
{"event":"details","time":1489475901,"u":"10","run":"450.09","mem":"61.44","data":"Uploaded size this burst: `13.05 MB`, Start time: `1489436299.78`. Finish time: `1489436301.11`. Elapsed: `1.32578611374`. Speed: `9.84 MB`\/sec."}
{"event":"details","time":1489475901,"u":"10","run":"450.09","mem":"61.45","data":"fileoptions already loaded from prior pass."}
{"event":"details","time":1489475901,"u":"10","run":"450.09","mem":"61.45","data":"Getting etags and notifying of multipart upload completion."}
{"event":"details","time":1489475901,"u":"27","run":"450.25","mem":"61.51","data":"Server notified of multipart completion."}
{"event":"details","time":1489475901,"u":"27","run":"450.25","mem":"61.51","data":"No more parts left for this multipart upload. Clearing multipart instance variables."}
{"event":"details","time":1489475901,"u":"27","run":"450.26","mem":"61.52","data":"Upload speed average of all chunks: `1.97 MB`."}
{"event":"details","time":1489475901,"u":"27","run":"450.26","mem":"61.52","data":"Fileoptions `send-nci98e5wbxcy.txt` saved. 1692 bytes written."}
{"event":"details","time":1489475901,"u":"27","run":"450.26","mem":"61.51","data":"Full backup archive limit of `5` of type `full` based on destination settings."}
{"event":"details","time":1489475901,"u":"27","run":"450.26","mem":"61.52","data":"Archive limit enforcement beginning."}
{"event":"details","time":1489475902,"u":"02","run":"451.00","mem":"61.55","data":"Found `6` backups of this type when checking archive limits out of `6` total files in this location."}
{"event":"details","time":1489475902,"u":"02","run":"451.00","mem":"61.55","data":"More archives (6) than limit (5) allows. Trimming..."}
{"event":"details","time":1489475902,"u":"02","run":"451.00","mem":"61.55","data":"Trimming excess file `backup-loanss_com_au-2017_03_07-06_27am-full-n236dbkbdi.zip`..."}
{"event":"details","time":1489475902,"u":"05","run":"451.03","mem":"61.56","data":"Finished trimming excess backups."}
{"event":"details","time":1489475902,"u":"05","run":"451.03","mem":"61.57","data":"Stash completed archive limiting."}
{"event":"details","time":1489475902,"u":"05","run":"451.03","mem":"48.48","data":"Completed send function. Success."}
{"event":"details","time":1489475902,"u":"05","run":"451.03","mem":"48.48","data":"About to load fileoptions data."}
{"event":"details","time":1489475902,"u":"05","run":"451.03","mem":"48.49","data":"Fileoptions instance #16."}
{"event":"details","time":1489475902,"u":"05","run":"451.03","mem":"48.49","data":"Created fileoptions lock file `send-nci98e5wbxcy.txt.lock` with ID: 58c6fe8e0d55e3.44194503."}
{"event":"details","time":1489475902,"u":"05","run":"451.03","mem":"48.50","data":"Fileoptions load using 0.01 MB of memory."}
{"event":"details","time":1489475902,"u":"05","run":"451.03","mem":"48.51","data":"Fileoptions data loaded."}
{"event":"details","time":1489475902,"u":"05","run":"451.03","mem":"48.51","data":"Post-send deletion enabled."}
{"event":"details","time":1489475902,"u":"05","run":"451.03","mem":"48.51","data":"Performing post-send deletion since transfer succeeded."}
{"event":"details","time":1489475902,"u":"05","run":"451.03","mem":"48.52","data":"Deleting local file `\/home\/loanssco\/public_html\/wp-content\/uploads\/backupbuddy_backups\/backup-loanss_com_au-2017_03_14-07_11am-full-2j4n4nbu4n.zip`."}
{"event":"details","time":1489475902,"u":"09","run":"451.07","mem":"48.52","data":"Deleted local file after successful remote destination send based on settings."}
{"event":"archiveDeleted","time":1489475902,"u":"09","run":"451.07","mem":"48.53","data":""}
{"event":"details","time":1489475902,"u":"09","run":"451.07","mem":"48.53","data":"Finished sending email NOT enabled. Skipping."}
{"event":"details","time":1489475902,"u":"11","run":"451.09","mem":"48.58","data":"Ending send() function pass."}
{"event":"details","time":1489475902,"u":"11","run":"451.09","mem":"48.57","data":"Finished destination send() function."}
{"event":"details","time":1489475902,"u":"11","run":"451.09","mem":"48.57","data":"Database kicker loaded. Database object class: `W3TC\\DbCache_Wpdb` with database of type `mysqli`."}
{"event":"details","time":1489475902,"u":"11","run":"451.09","mem":"48.58","data":"Pinging mysqli."}
{"event":"details","time":1489475902,"u":"11","run":"451.09","mem":"48.58","data":"Database Server connection status verified."}
{"event":"details","time":1489475902,"u":"11","run":"451.09","mem":"48.58","data":"About to load fileoptions data for saving send status."}
{"event":"details","time":1489475902,"u":"11","run":"451.09","mem":"48.58","data":"Fileoptions instance #34."}
{"event":"details","time":1489475902,"u":"11","run":"451.09","mem":"48.59","data":"Created fileoptions lock file `send-nci98e5wbxcy.txt.lock` with ID: 58c6fe8e1b94d2.86383031."}
{"event":"details","time":1489475902,"u":"11","run":"451.09","mem":"48.59","data":"Fileoptions load using 0.01 MB of memory."}
{"event":"details","time":1489475902,"u":"11","run":"451.09","mem":"48.60","data":"Fileoptions data loaded for ID `nci98e5wbxcy`."}
{"event":"details","time":1489475902,"u":"11","run":"451.09","mem":"48.60","data":"Remote send SUCCESS."}
{"event":"details","time":1489475902,"u":"11","run":"451.09","mem":"48.60","data":"Fileoptions `send-nci98e5wbxcy.txt` saved. 1800 bytes written."}
{"event":"details","time":1489475902,"u":"11","run":"451.09","mem":"48.60","data":"Fileoptions `2j4n4nbu4n.txt` saved. 7948 bytes written."}
{"event":"details","time":1489475902,"u":"11","run":"451.09","mem":"48.59","data":"Finished function `send_remote_destination`. Peak memory usage: 93.616 MB with BackupBuddy v7.2.2.6"}
{"event":"finishFunction","time":1489475902,"u":"11","run":"451.09","mem":"48.60","data":"{\"function\":\"send_remote_destination\"}"}
{"event":"details","time":1489475902,"u":"11","run":"451.09","mem":"48.60","data":"-----"}
{"event":"details","time":1489475902,"u":"11","run":"451.09","mem":"48.60","data":"No more backup steps remain. Finishing..."}
{"event":"details","time":1489475902,"u":"12","run":"451.10","mem":"48.62","data":"Fileoptions `2j4n4nbu4n.txt` saved. 7992 bytes written."}
{"event":"startFunction","time":1489475902,"u":"12","run":"451.10","mem":"48.60","data":"{\"function\":\"backup_success\",\"title\":\"Backup completed successfully.\"}"}
{"event":"finishFunction","time":1489475902,"u":"12","run":"451.10","mem":"48.61","data":"{\"function\":\"backup_success\"}"}
{"event":"details","time":1489475902,"u":"12","run":"451.10","mem":"48.61","data":"Closing & unlocking fileoptions."}
{"event":"details","time":1489475902,"u":"12","run":"451.10","mem":"48.63","data":"Completed step function `send_remote_destination`."}
{"event":"details","time":1489475902,"u":"12","run":"451.10","mem":"48.51","data":"Completed step function `post_backup`."}
{"event":"details","time":1489475902,"u":"12","run":"451.10","mem":"48.51","data":"Completed step function `integrity_check`."}
{"event":"details","time":1489475902,"u":"12","run":"451.11","mem":"48.51","data":"Completed step function `backup_zip_files`."}
{"event":"details","time":1489475902,"u":"12","run":"451.11","mem":"48.51","data":"Completed step function `backup_create_database_dump`."}
{"event":"details","time":1489475902,"u":"12","run":"451.11","mem":"48.51","data":"Completed step function `backup_create_database_dump`."}
{"event":"details","time":1489475902,"u":"12","run":"451.11","mem":"48.51","data":"Completed step function `backup_create_database_dump`."}
{"event":"details","time":1489475902,"u":"12","run":"451.11","mem":"48.51","data":"Finished cron_process_scheduled_backup."}
